Homework6_multiexchr/Homework6_multiexchr/dataExchange.vcd
$date
     May 03, 2017       21:59:22
$end

$version
 SystemC 2.3.1-Accellera --- Feb 20 2017 20:34:49
$end

$timescale
     1 ps
$end

$scope module SystemC $end
$var wire    8  aaaaa  inb1 [7:0]  $end
$var wire    8  aaaab  oub1 [7:0]  $end
$var wire   10  aaaac  adb1 [9:0]  $end
$var wire    8  aaaad  inb2 [7:0]  $end
$var wire    8  aaaae  oub2 [7:0]  $end
$var wire   10  aaaaf  adb2 [9:0]  $end
$var wire    8  aaaag  inb3 [7:0]  $end
$var wire    8  aaaah  oub3 [7:0]  $end
$var wire   10  aaaai  adb3 [9:0]  $end
$var wire    8  aaaaj  inb4 [7:0]  $end
$var wire    8  aaaak  oub4 [7:0]  $end
$var wire   10  aaaal  adb4 [9:0]  $end
$var wire    1  aaaam  cs1       $end
$var wire    1  aaaan  cs2       $end
$var wire    1  aaaao  cs3       $end
$var wire    1  aaaap  cs4       $end
$var wire    1  aaaaq  rwb1       $end
$var wire    1  aaaar  rwb2       $end
$var wire    1  aaaas  rwb3       $end
$var wire    1  aaaat  rwb4       $end
$upscope $end
$enddefinitions  $end

$comment
All initial values are dumped below at time 0 sec = 0 timescale units.
$end

$dumpvars
bXXXXXXXX aaaaa
bXXXXXXXX aaaab
bXXXXXXXXXX aaaac
bXXXXXXXX aaaad
bXXXXXXXX aaaae
bXXXXXXXXXX aaaaf
bXXXXXXXX aaaag
bXXXXXXXX aaaah
bXXXXXXXXXX aaaai
bXXXXXXXX aaaaj
bXXXXXXXX aaaak
bXXXXXXXXXX aaaal
xaaaam
xaaaan
xaaaao
xaaaap
xaaaaq
xaaaar
xaaaas
xaaaat
$end

#30000
b101 aaaaa
b1100100 aaaac
1aaaam
0aaaaq

#31000
b0 aaaae
b11001000 aaaaf
b0 aaaah
b100101100 aaaai
1aaaan
1aaaao
1aaaar
1aaaas

#32000
b0 aaaaa
b1100101 aaaac

#33000
b11001001 aaaaf
b100101101 aaaai

#34000
b101 aaaaa
b1100110 aaaac

#35000
b11001010 aaaaf
b100101110 aaaai

#36000
b110 aaaaa
b1100111 aaaac

#37000
b11001011 aaaaf
b100101111 aaaai

#38000
b101 aaaaa
b1101000 aaaac

#39000
b11001100 aaaaf
b100110000 aaaai

#40000
b0 aaaaa
b1101001 aaaac

#41000
b11001101 aaaaf
zaaaao
zaaaas

#42000
bZZZZZZZZ aaaaa
bZZZZZZZZZZ aaaac
b100 aaaaj
b110010000 aaaal
zaaaam
1aaaap
zaaaaq
0aaaat

#43000
b11001110 aaaaf

#44000
b11 aaaaj
b110010001 aaaal

#45000
b11001111 aaaaf

#46000
b1 aaaaj
b110010010 aaaal

#47000
b11010000 aaaaf

#48000
b110010011 aaaal

#49000
b11010001 aaaaf

#50000
b11 aaaaj
b110010100 aaaal

#51000
b11010010 aaaaf

#52000
b111 aaaaj
b110010101 aaaal

#53000
b11010011 aaaaf

#54000
b11 aaaaj
b110010110 aaaal

#55000
b11010100 aaaaf

#56000
b101 aaaaj
b110010111 aaaal

#57000
b11010101 aaaaf

#58000
b110011000 aaaal

#59000
b11010110 aaaaf

#60000
b10 aaaaj
b110011001 aaaal

#61000
b11010111 aaaaf

#62000
b101 aaaaj
b110011010 aaaal

#63000
b11011000 aaaaf

#64000
b11 aaaaj
b110011011 aaaal

#65000
b11011001 aaaaf

#66000
b0 aaaaj
b110011100 aaaal

#67000
b11011010 aaaaf

#68000
b100 aaaaj
b110011101 aaaal

#69000
b11011011 aaaaf

#70000
b10 aaaaj
b110011110 aaaal

#71000
b11011100 aaaaf

#72000
b0 aaaaj
b110011111 aaaal

#73000
b101 aaaab
b1100100 aaaac
b11011101 aaaaf
1aaaam
1aaaaq

#74000
b10 aaaaj
b110100000 aaaal

#75000
b0 aaaab
b1100101 aaaac
b11011110 aaaaf

#76000
b1 aaaaj
b110100001 aaaal

#77000
b101 aaaab
b1100110 aaaac
b11011111 aaaaf

#78000
b0 aaaaj
b110100010 aaaal

#79000
b110 aaaab
b1100111 aaaac
b11100000 aaaaf

#80000
b100 aaaaj
b110100011 aaaal

#81000
b101 aaaab
b1101000 aaaac
b11100001 aaaaf

#82000
b101 aaaaj
b110100100 aaaal

#83000
b0 aaaab
b1101001 aaaac
b11100010 aaaaf

#84000
b100 aaaaj
b110100101 aaaal

#85000
b1101010 aaaac
b11100011 aaaaf

#86000
b11 aaaaj
b110100110 aaaal

#87000
b1101011 aaaac
b11100100 aaaaf

#88000
b110100111 aaaal

#89000
b1101100 aaaac
b11100101 aaaaf

#90000
b100 aaaaj
b110101000 aaaal

#91000
b1101101 aaaac
b11100110 aaaaf

#92000
b101 aaaaj
b110101001 aaaal

#93000
b1101110 aaaac
b11100111 aaaaf

#94000
b0 aaaaj
b110101010 aaaal

#95000
b1101111 aaaac
b11101000 aaaaf

#96000
b11 aaaaj
b110101011 aaaal

#97000
b1110000 aaaac
b11101001 aaaaf

#98000
b101 aaaaj
b110101100 aaaal

#99000
b1110001 aaaac
b11101010 aaaaf

#100000
b0 aaaaj
b110101101 aaaal

#101000
b1110010 aaaac
b11101011 aaaaf

#102000
b100 aaaaj
b110101110 aaaal

#103000
b1110011 aaaac
b11101100 aaaaf

#104000
b111 aaaaj
b110101111 aaaal

#105000
b1110100 aaaac
b11101101 aaaaf

#106000
b110110000 aaaal

#107000
b1110101 aaaac
b11101110 aaaaf

#108000
b0 aaaaj
b110110001 aaaal

#109000
b1110110 aaaac
b11101111 aaaaf

#110000
b110 aaaaj
b110110010 aaaal

#111000
b1110111 aaaac
b11110000 aaaaf

#112000
b10 aaaaj
b110110011 aaaal

#113000
b1111000 aaaac
zaaaan
zaaaar

#114000
b110 aaaaj
b110110100 aaaal

#115000
b1111001 aaaac

#116000
b11 aaaaj
b110110101 aaaal

#117000
b1111010 aaaac

#118000
b110110110 aaaal

#119000
b1111011 aaaac

#120000
b0 aaaaj
b110110111 aaaal

#121000
b1111100 aaaac

#122000
b101 aaaaj
b110111000 aaaal

#123000
b1111101 aaaac

#124000
b0 aaaaj
b110111001 aaaal

#125000
b1111110 aaaac

#126000
b10 aaaag
b100101100 aaaai
bZZZZZZZZ aaaaj
bZZZZZZZZZZ aaaal
1aaaao
zaaaap
0aaaas
zaaaat

#127000
b1111111 aaaac

#128000
b0 aaaag
b100101101 aaaai

#129000
b10000000 aaaac

#130000
b11 aaaag
b100101110 aaaai

#131000
zaaaam
zaaaaq

#132000
b101 aaaag
b100101111 aaaai

#134000
b100110000 aaaai

#136000
b1 aaaag
b100110001 aaaai

#138000
b111 aaaag
b100110010 aaaai

#140000
b101 aaaag
b100110011 aaaai

#142000
b11 aaaag
b100110100 aaaai

#144000
b111 aaaag
b100110101 aaaai

#146000
b10 aaaag
b100110110 aaaai

#148000
b111 aaaag
b100110111 aaaai

#150000
b10 aaaag
b100111000 aaaai

#152000
b101 aaaag
b100111001 aaaai

#154000
b111 aaaag
b100111010 aaaai

#156000
b100 aaaad
b11001000 aaaaf
bZZZZZZZZ aaaag
bZZZZZZZZZZ aaaai
1aaaan
zaaaao
0aaaar
zaaaas

#158000
b111 aaaad
b11001001 aaaaf

#160000
b100 aaaad
b11001010 aaaaf

#162000
b10 aaaad
b11001011 aaaaf

#164000
b110 aaaad
b11001100 aaaaf

#166000
b101 aaaad
b11001101 aaaaf

#168000
b1 aaaad
b11001110 aaaaf

#170000
b111 aaaad
b11001111 aaaaf

#172000
b10 aaaad
b11010000 aaaaf

#174000
b11010001 aaaaf

#176000
b100 aaaad
b11010010 aaaaf

#178000
b10 aaaad
b11010011 aaaaf

#180000
b1 aaaad
b11010100 aaaaf

#182000
b11 aaaad
b11010101 aaaaf

#184000
b11010110 aaaaf

#186000
b100 aaaad
b11010111 aaaaf

#188000
b0 aaaad
b11011000 aaaaf

#190000
b11011001 aaaaf

#192000
b10 aaaad
b11011010 aaaaf

#194000
b111 aaaad
b11011011 aaaaf

#196000
b10 aaaad
b11011100 aaaaf

#198000
b11 aaaad
b11011101 aaaaf

#200000
b10 aaaad
b11011110 aaaaf

#202000
b111 aaaad
b11011111 aaaaf

#204000
b11 aaaad
b11100000 aaaaf

#206000
b100 aaaad
b11100001 aaaaf

#208000
b101 aaaad
b11100010 aaaaf

#210000
b111 aaaad
b11100011 aaaaf

#212000
b110 aaaad
b11100100 aaaaf

#214000
b101 aaaad
b11100101 aaaaf

#216000
b1 aaaad
b11100110 aaaaf

#218000
b110 aaaad
b11100111 aaaaf

#220000
b1 aaaad
b11101000 aaaaf

#222000
b10 aaaad
b11101001 aaaaf

#224000
b11 aaaad
b11101010 aaaaf

#226000
b11101011 aaaaf

#228000
b0 aaaad
b11101100 aaaaf

#230000
b11 aaaad
b11101101 aaaaf

#232000
b110 aaaad
b11101110 aaaaf

#234000
b111 aaaad
b11101111 aaaaf

#236000
b11110000 aaaaf

#238000
b101 aaaad
b11110001 aaaaf

#240000
b100 aaaad
b11110010 aaaaf

#242000
b11 aaaad
b11110011 aaaaf

#244000
b100 aaaad
b11110100 aaaaf

#246000
b101 aaaad
b11110101 aaaaf

#248000
bZZZZZZZZ aaaad
bZZZZZZZZZZ aaaaf
b100 aaaaj
b110010000 aaaal
zaaaan
1aaaap
zaaaar
0aaaat

#250000
b111 aaaaj
b110010001 aaaal

#252000
b110 aaaaj
b110010010 aaaal

#254000
b1 aaaaj
b110010011 aaaal

#256000
b10 aaaaj
b110010100 aaaal

#258000
b0 aaaaj
b110010101 aaaal

#260000
b1 aaaaj
b110010110 aaaal

#262000
b101 aaaaj
b110010111 aaaal

#264000
b100 aaaaj
b110011000 aaaal

#266000
b110 aaaaj
b110011001 aaaal

#268000
b0 aaaaj
b110011010 aaaal

#270000
b101 aaaaj
b110011011 aaaal

#272000
b110 aaaaj
b110011100 aaaal

#274000
b101 aaaaj
b110011101 aaaal

#276000
b100 aaaaj
b110011110 aaaal

#278000
b10 aaaaj
b110011111 aaaal

#280000
b1 aaaaj
b110100000 aaaal

#282000
b10 aaaaj
b110100001 aaaal

#284000
b110100010 aaaal

#286000
b111 aaaaj
b110100011 aaaal

#288000
b110 aaaaj
b110100100 aaaal

#290000
b10 aaaaj
b110100101 aaaal

#292000
b100 aaaaj
b110100110 aaaal

#294000
b110100111 aaaal

#296000
b10 aaaaj
b110101000 aaaal

#298000
b110 aaaaj
b110101001 aaaal

#300000
b0 aaaaj
b110101010 aaaal

#302000
b100 aaaaj
b110101011 aaaal

#304000
b11 aaaaj
b110101100 aaaal

#306000
b101 aaaaj
b110101101 aaaal

#308000
b111 aaaaj
b110101110 aaaal

#310000
b11 aaaaj
b110101111 aaaal

#312000
b10 aaaaj
b110110000 aaaal

#314000
b110110001 aaaal

#316000
b0 aaaaj
b110110010 aaaal

#318000
b100 aaaaj
b110110011 aaaal

#320000
b10 aaaag
b100101100 aaaai
bZZZZZZZZ aaaaj
bZZZZZZZZZZ aaaal
1aaaao
zaaaap
0aaaas
zaaaat

#322000
b0 aaaag
b100101101 aaaai

#324000
b10 aaaag
b100101110 aaaai

#326000
b100101111 aaaai

#328000
b11 aaaag
b100110000 aaaai

#330000
b111 aaaag
b100110001 aaaai

#332000
b10 aaaag
b100110010 aaaai

#334000
b101 aaaag
b100110011 aaaai

#336000
b0 aaaag
b100110100 aaaai

#338000
b1 aaaag
b100110101 aaaai

#340000
b11 aaaag
b100110110 aaaai

#342000
b1 aaaag
b100110111 aaaai

#344000
b10 aaaag
b100111000 aaaai

#346000
b0 aaaag
b100111001 aaaai

#348000
b111 aaaag
b100111010 aaaai

#350000
b100 aaaag
b100111011 aaaai

#352000
b10 aaaag
b100111100 aaaai

#354000
b1 aaaag
b100111101 aaaai

#356000
b111 aaaag
b100111110 aaaai

#358000
b101 aaaag
b100111111 aaaai

#360000
b110 aaaag
b101000000 aaaai

#362000
b101000001 aaaai

#364000
b100 aaaag
b101000010 aaaai

#366000
b0 aaaag
b101000011 aaaai

#368000
b101000100 aaaai

#370000
b100 aaaag
b101000101 aaaai

#372000
b101 aaaag
b101000110 aaaai

#374000
b1 aaaag
b101000111 aaaai

#376000
b111 aaaag
b101001000 aaaai

#378000
b101001001 aaaai

#380000
b1 aaaag
b101001010 aaaai

#382000
b110 aaaag
b101001011 aaaai

#384000
b10 aaaag
b101001100 aaaai

#386000
b100 aaaag
b101001101 aaaai

#388000
b111 aaaag
b101001110 aaaai

#390000
b10 aaaag
b101001111 aaaai

#392000
b101010000 aaaai

#394000
b111 aaaag
b101010001 aaaai

#396000
b100 aaaag
b101010010 aaaai

#398000
b0 aaaag
b101010011 aaaai

#400000
b111 aaaag
b101010100 aaaai

#402000
b100 aaaad
b11001000 aaaaf
bZZZZZZZZ aaaag
bZZZZZZZZZZ aaaai
1aaaan
zaaaao
0aaaar
zaaaas

#404000
b111 aaaad
b11001001 aaaaf

#406000
b100 aaaad
b11001010 aaaaf

#408000
b0 aaaad
b11001011 aaaaf

#410000
b100 aaaad
b11001100 aaaaf

#412000
b110 aaaad
b11001101 aaaaf

#414000
b1 aaaad
b11001110 aaaaf

#416000
b11 aaaad
b11001111 aaaaf

#418000
b11010000 aaaaf

#420000
b101 aaaad
b11010001 aaaaf

#422000
b100 aaaad
b11010010 aaaaf

#424000
b0 aaaad
b11010011 aaaaf

#426000
b111 aaaad
b11010100 aaaaf

#428000
b101 aaaad
b11010101 aaaaf

#430000
b0 aaaad
b11010110 aaaaf

#432000
b1 aaaad
b11010111 aaaaf

#433000
b10 aaaah
b100101100 aaaai
1aaaao
1aaaas

#434000
b101 aaaad
b11011000 aaaaf

#435000
b0 aaaah
b100101101 aaaai

#436000
b0 aaaad
b11011001 aaaaf

#437000
b10 aaaah
b100101110 aaaai

#438000
b10 aaaad
b11011010 aaaaf

#439000
zaaaao
zaaaas

#440000
b110 aaaad
b11011011 aaaaf

#442000
b101 aaaad
b11011100 aaaaf

#444000
b110 aaaad
b11011101 aaaaf

#446000
b111 aaaad
b11011110 aaaaf

#448000
b1 aaaad
b11011111 aaaaf

#450000
b101 aaaad
b11100000 aaaaf

#452000
b11100001 aaaaf

#454000
b11100010 aaaaf

#456000
b111 aaaad
b11100011 aaaaf

#458000
b101 aaaad
b11100100 aaaaf

#460000
b110 aaaad
b11100101 aaaaf

#462000
b10 aaaad
b11100110 aaaaf

#464000
b100 aaaad
b11100111 aaaaf

#466000
b10 aaaad
b11101000 aaaaf

#468000
b101 aaaad
b11101001 aaaaf

#470000
b10 aaaad
b11101010 aaaaf
b100101100 aaaai
1aaaao
1aaaas

#472000
b110 aaaad
b11101011 aaaaf
b0 aaaah
b100101101 aaaai

#474000
b111 aaaad
b11101100 aaaaf
b10 aaaah
b100101110 aaaai

#476000
b10 aaaad
b11101101 aaaaf
b100101111 aaaai

#478000
b111 aaaad
b11101110 aaaaf
b11 aaaah
b100110000 aaaai

#480000
b101 aaaad
b11101111 aaaaf
zaaaao
zaaaas

#482000
b1 aaaad
b11110000 aaaaf

#484000
b110 aaaad
b11110001 aaaaf

#486000
b1 aaaad
b11110010 aaaaf

#488000
b11110011 aaaaf

#490000
b10 aaaad
b11110100 aaaaf

#492000
b0 aaaad
b11110101 aaaaf

#494000
b1 aaaad
b11110110 aaaaf

#496000
b100 aaaad
b11110111 aaaaf

#498000
b0 aaaad
b11111000 aaaaf

#500000
b1 aaaad
b11111001 aaaaf

#502000
b0 aaaad
b11111010 aaaaf

#504000
b1 aaaad
b11111011 aaaaf

#506000
b111 aaaad
b11111100 aaaaf

#508000
b100 aaaad
b11111101 aaaaf

#510000
b101 aaaad
b11111110 aaaaf

#512000
b110 aaaad
b11111111 aaaaf

#514000
b100 aaaad
b100000000 aaaaf

#516000
b10 aaaad
b100000001 aaaaf

#518000
b111 aaaad
b100000010 aaaaf

#520000
bZZZZZZZZ aaaad
bZZZZZZZZZZ aaaaf
b101 aaaaj
b110010000 aaaal
zaaaan
1aaaap
zaaaar
0aaaat

#522000
b1 aaaaj
b110010001 aaaal

#524000
b111 aaaaj
b110010010 aaaal

#526000
b11 aaaaj
b110010011 aaaal

#528000
b111 aaaaj
b110010100 aaaal

#530000
b100 aaaaj
b110010101 aaaal

#532000
b10 aaaaj
b110010110 aaaal

#534000
b1 aaaaj
b110010111 aaaal

#536000
b110 aaaaj
b110011000 aaaal

#538000
b110011001 aaaal

#540000
b100 aaaaj
b110011010 aaaal

#542000
b0 aaaaj
b110011011 aaaal

#544000
b11 aaaaj
b110011100 aaaal

#546000
b111 aaaaj
b110011101 aaaal

#548000
b0 aaaaj
b110011110 aaaal

#550000
b10 aaaaj
b110011111 aaaal

#552000
b110100000 aaaal

#554000
b101 aaaaj
b110100001 aaaal

#556000
b111 aaaaj
b110100010 aaaal

#558000
b110100011 aaaal

#560000
b10 aaaaj
b110100100 aaaal

#562000
b0 aaaaj
b110100101 aaaal

#564000
b110 aaaaj
b110100110 aaaal

#566000
b1 aaaaj
b110100111 aaaal

#568000
b111 aaaaj
b110101000 aaaal

#570000
b101 aaaaj
b110101001 aaaal

#572000
b11 aaaaj
b110101010 aaaal

#574000
b110 aaaaj
b110101011 aaaal

#576000
b10 aaaaj
b110101100 aaaal

#578000
b1 aaaaj
b110101101 aaaal

#580000
b0 aaaaj
b110101110 aaaal

#582000
b1 aaaaj
b110101111 aaaal

#584000
b110 aaaaj
b110110000 aaaal

#586000
b1 aaaag
b100101100 aaaai
bZZZZZZZZ aaaaj
bZZZZZZZZZZ aaaal
1aaaao
zaaaap
0aaaas
zaaaat

#588000
b10 aaaag
b100101101 aaaai

#590000
b110 aaaag
b100101110 aaaai

#592000
b10 aaaag
b100101111 aaaai

#594000
b111 aaaag
b100110000 aaaai

#596000
b1 aaaag
b100110001 aaaai

#598000
b100110010 aaaai

#600000
b11 aaaag
b100110011 aaaai

#602000
b10 aaaag
b100110100 aaaai

#604000
b0 aaaag
b100110101 aaaai

#606000
b111 aaaag
b100110110 aaaai

#608000
b100 aaaag
b100110111 aaaai

#610000
b10 aaaag
b100111000 aaaai

#612000
b1 aaaag
b100111001 aaaai

#614000
b110 aaaag
b100111010 aaaai

#616000
b100111011 aaaai

#618000
b0 aaaag
b100111100 aaaai

#620000
b11 aaaag
b100111101 aaaai

#622000
b100 aaaag
b100111110 aaaai

#624000
b0 aaaag
b100111111 aaaai

#626000
b111 aaaag
b101000000 aaaai

#628000
b11 aaaag
b101000001 aaaai

#630000
b0 aaaag
b101000010 aaaai

#632000
b11 aaaag
b101000011 aaaai

#634000
b101000100 aaaai

#636000
b10 aaaag
b101000101 aaaai

#638000
b101000110 aaaai

#640000
b100 aaaag
b101000111 aaaai

#642000
b111 aaaag
b101001000 aaaai

#644000
b101001001 aaaai

#646000
b1 aaaag
b101001010 aaaai

#648000
b100 aaaad
b11001000 aaaaf
bZZZZZZZZ aaaag
bZZZZZZZZZZ aaaai
1aaaan
zaaaao
0aaaar
zaaaas

#650000
b0 aaaad
b11001001 aaaaf

#652000
b10 aaaad
b11001010 aaaaf

#654000
b100 aaaad
b11001011 aaaaf

#656000
b11 aaaad
b11001100 aaaaf

#658000
b11001101 aaaaf

#660000
b1 aaaad
b11001110 aaaaf

#662000
b11001111 aaaaf

#664000
b101 aaaad
b11010000 aaaaf

#666000
b111 aaaad
b11010001 aaaaf

#668000
b101 aaaad
b11010010 aaaaf

#670000
b100 aaaad
b11010011 aaaaf

#672000
b0 aaaad
b11010100 aaaaf

#674000
bZZZZZZZZ aaaad
bZZZZZZZZZZ aaaaf
b10 aaaaj
b110010000 aaaal
zaaaan
1aaaap
zaaaar
0aaaat

#676000
b110 aaaaj
b110010001 aaaal

#678000
b0 aaaaa
b1100100 aaaac
bZZZZZZZZ aaaaj
bZZZZZZZZZZ aaaal
1aaaam
zaaaap
0aaaaq
zaaaat

#679000
b1 aaaah
b100101100 aaaai
1aaaao
1aaaas

#680000
b101 aaaaa
b1100101 aaaac

#681000
b10 aaaah
b100101101 aaaai

#682000
b111 aaaaa
b1100110 aaaac

#683000
b110 aaaah
b100101110 aaaai

#684000
b110 aaaaa
b1100111 aaaac

#685000
b10 aaaah
b100101111 aaaai

#686000
b1 aaaaa
b1101000 aaaac

#687000
b111 aaaah
b100110000 aaaai

#688000
b0 aaaaa
b1101001 aaaac

#689000
b1 aaaah
b100110001 aaaai

#690000
b1101010 aaaac

#691000
b100110010 aaaai

#692000
b10 aaaaa
b1101011 aaaac

#693000
b11 aaaah
b100110011 aaaai

#694000
b100 aaaaa
b1101100 aaaac

#695000
b10 aaaah
b100110100 aaaai

#696000
b101 aaaaa
b1101101 aaaac

#697000
b0 aaaah
b100110101 aaaai

#698000
b1101110 aaaac

#699000
b111 aaaah
b100110110 aaaai

#700000
b1101111 aaaac

#701000
b100 aaaah
b100110111 aaaai

#702000
b10 aaaaa
b1110000 aaaac

#703000
b10 aaaah
b100111000 aaaai

#704000
b11 aaaaa
b1110001 aaaac

#705000
b100 aaaae
b11001000 aaaaf
b1 aaaah
b100111001 aaaai
1aaaan
1aaaar

#706000
b110 aaaaa
b1110010 aaaac

#707000
b0 aaaae
b11001001 aaaaf
b110 aaaah
b100111010 aaaai

#708000
b11 aaaaa
b1110011 aaaac

#709000
b10 aaaae
b11001010 aaaaf
b100111011 aaaai
b10 aaaak
b110010000 aaaal
1aaaap
1aaaat

#710000
b0 aaaaa
b1110100 aaaac

#711000
b100 aaaae
b11001011 aaaaf
b0 aaaah
b100111100 aaaai
b110 aaaak
b110010001 aaaal

#712000
b1 aaaaa
b1110101 aaaac

#713000
b11 aaaae
b11001100 aaaaf
b11 aaaah
b100111101 aaaai
b111 aaaak
b110010010 aaaal

#714000
b10 aaaaa
b1110110 aaaac

#715000
b11001101 aaaaf
b100 aaaah
b100111110 aaaai
b11 aaaak
b110010011 aaaal

#716000
b1110111 aaaac

#717000
b1 aaaae
b11001110 aaaaf
b0 aaaah
b100111111 aaaai
zaaaap
zaaaat

#718000
b11 aaaaa
b1111000 aaaac

#719000
b11001111 aaaaf
b111 aaaah
b101000000 aaaai

#720000
b0 aaaaa
b1111001 aaaac

#721000
b101 aaaae
b11010000 aaaaf
b11 aaaah
b101000001 aaaai

#722000
b10 aaaaa
b1111010 aaaac

#723000
b111 aaaae
b11010001 aaaaf
b0 aaaah
b101000010 aaaai

#724000
bZZZZZZZZ aaaaa
bZZZZZZZZZZ aaaac
zaaaam
zaaaaq

#725000
b101 aaaae
b11010010 aaaaf
b11 aaaah
b101000011 aaaai

#727000
b100 aaaae
b11010011 aaaaf
b101000100 aaaai

#729000
b0 aaaae
b11010100 aaaaf
b10 aaaah
b101000101 aaaai

#731000
b101 aaaae
b11010101 aaaaf
b101000110 aaaai

#733000
b0 aaaae
b11010110 aaaaf
b100 aaaah
b101000111 aaaai

#735000
b1 aaaae
b11010111 aaaaf
b111 aaaah
b101001000 aaaai

#737000
b101 aaaae
b11011000 aaaaf
b101001001 aaaai

#739000
b0 aaaae
b11011001 aaaaf
b1 aaaah
b101001010 aaaai

#741000
b10 aaaae
b11011010 aaaaf
b110 aaaah
b101001011 aaaai

#743000
b110 aaaae
b11011011 aaaaf
b10 aaaah
b101001100 aaaai

#745000
b101 aaaae
b11011100 aaaaf
b100 aaaah
b101001101 aaaai

#747000
b110 aaaae
b11011101 aaaaf
b111 aaaah
b101001110 aaaai

#748000
b10 aaaak
b110010000 aaaal
1aaaap
1aaaat

#749000
b111 aaaae
b11011110 aaaaf
b10 aaaah
b101001111 aaaai

#750000
b110 aaaak
b110010001 aaaal

#751000
b1 aaaae
b11011111 aaaaf
b101010000 aaaai

#752000
b111 aaaak
b110010010 aaaal

#753000
b101 aaaae
b11100000 aaaaf
b111 aaaah
b101010001 aaaai

#754000
b10 aaaaa
b1100100 aaaac
b11 aaaak
b110010011 aaaal
1aaaam
0aaaaq

#755000
b11100001 aaaaf
b100 aaaah
b101010010 aaaai

#756000
b110 aaaaa
b1100101 aaaac
b111 aaaak
b110010100 aaaal

#757000
b11100010 aaaaf
b0 aaaah
b101010011 aaaai

#758000
b111 aaaaa
b1100110 aaaac
b100 aaaak
b110010101 aaaal

#759000
b111 aaaae
b11100011 aaaaf
b111 aaaah
b101010100 aaaai

#760000
b10 aaaaa
b1100111 aaaac
b10 aaaak
b110010110 aaaal

#761000
b101 aaaae
b11100100 aaaaf
b0 aaaah
b101010101 aaaai

#762000
b1 aaaaa
b1101000 aaaac
b1 aaaak
b110010111 aaaal

#763000
b110 aaaae
b11100101 aaaaf
b101010110 aaaai

#764000
b110 aaaaa
b1101001 aaaac
b110 aaaak
b110011000 aaaal

#765000
b10 aaaae
b11100110 aaaaf
b101010111 aaaai

#766000
bZZZZZZZZ aaaaa
bZZZZZZZZZZ aaaac
b110011001 aaaal
zaaaam
zaaaaq

#767000
b100 aaaae
b11100111 aaaaf
b101011000 aaaai

#768000
b100 aaaak
b110011010 aaaal

#769000
b10 aaaae
b11101000 aaaaf
zaaaao
zaaaas

#770000
b0 aaaak
b110011011 aaaal

#771000
b101 aaaae
b11101001 aaaaf

#772000
b11 aaaak
b110011100 aaaal

#773000
b10 aaaae
b11101010 aaaaf

#774000
b111 aaaak
b110011101 aaaal

#775000
b110 aaaae
b11101011 aaaaf

#776000
b0 aaaak
b110011110 aaaal

#777000
b111 aaaae
b11101100 aaaaf

#778000
b10 aaaak
b110011111 aaaal

#779000
b10 aaaae
b11101101 aaaaf

#780000
b110100000 aaaal

#781000
b111 aaaae
b11101110 aaaaf

#782000
b101 aaaak
b110100001 aaaal

#783000
b101 aaaae
b11101111 aaaaf

#784000
b111 aaaak
b110100010 aaaal

#785000
b1 aaaae
b11110000 aaaaf

#786000
b110100011 aaaal

#787000
b110 aaaae
b11110001 aaaaf

#788000
b10 aaaak
b110100100 aaaal

#789000
b1 aaaae
b11110010 aaaaf

#790000
b0 aaaak
b110100101 aaaal

#791000
b11110011 aaaaf

#792000
b110 aaaak
b110100110 aaaal

#793000
zaaaan
zaaaar

#794000
b1 aaaak
b110100111 aaaal

#796000
b111 aaaak
b110101000 aaaal

#797000
b10 aaaab
b1100100 aaaac
1aaaam
1aaaaq

#798000
b101 aaaak
b110101001 aaaal

#799000
b110 aaaab
b1100101 aaaac
b100 aaaag
b100101100 aaaai
1aaaao
0aaaas

#800000
b11 aaaak
b110101010 aaaal

#801000
b111 aaaab
b1100110 aaaac
b0 aaaag
b100101101 aaaai

#802000
b110 aaaak
b110101011 aaaal

#803000
b10 aaaab
b1100111 aaaac
b10 aaaag
b100101110 aaaai

#804000
b10 aaaak
b110101100 aaaal

#805000
b1 aaaab
b1101000 aaaac
b100101111 aaaai

#806000
b1 aaaak
b110101101 aaaal

#807000
b110 aaaab
b1101001 aaaac
b11 aaaag
b100110000 aaaai

#808000
b0 aaaak
b110101110 aaaal

#809000
b0 aaaab
b1101010 aaaac
b1 aaaag
b100110001 aaaai

#810000
b1 aaaak
b110101111 aaaal

#811000
b10 aaaab
b1101011 aaaac
b111 aaaag
b100110010 aaaai

#812000
b110 aaaak
b110110000 aaaal

#813000
b100 aaaab
b1101100 aaaac
b101 aaaag
b100110011 aaaai

#814000
b10 aaaak
b110110001 aaaal

#815000
b101 aaaab
b1101101 aaaac
b110 aaaag
b100110100 aaaai

#816000
b0 aaaak
b110110010 aaaal

#817000
b1101110 aaaac
b100110101 aaaai

#818000
zaaaap
zaaaat

#819000
b1101111 aaaac
b11 aaaag
b100110110 aaaai

#821000
b10 aaaab
b1110000 aaaac
b100 aaaag
b100110111 aaaai

#823000
b11 aaaab
b1110001 aaaac
b110 aaaag
b100111000 aaaai

#824000
b100 aaaae
b11001000 aaaaf
1aaaan
1aaaar

#825000
b110 aaaab
b1110010 aaaac
b1 aaaag
b100111001 aaaai

#826000
b0 aaaae
b11001001 aaaaf

#827000
b11 aaaab
b1110011 aaaac
b110 aaaag
b100111010 aaaai

#828000
b10 aaaae
b11001010 aaaaf

#829000
b0 aaaab
b1110100 aaaac
b1 aaaag
b100111011 aaaai

#830000
b100 aaaae
b11001011 aaaaf

#831000
b1 aaaab
b1110101 aaaac
b110 aaaag
b100111100 aaaai

#832000
b11 aaaae
b11001100 aaaaf

#833000
b10 aaaab
b1110110 aaaac
b0 aaaag
b100111101 aaaai

#834000
b11001101 aaaaf

#835000
b1110111 aaaac
b110 aaaag
b100111110 aaaai

#836000
b1 aaaae
b11001110 aaaaf

#837000
b11 aaaab
b1111000 aaaac
b11 aaaag
b100111111 aaaai

#838000
b11001111 aaaaf

#839000
b0 aaaab
b1111001 aaaac
b110 aaaag
b101000000 aaaai

#840000
b101 aaaae
b11010000 aaaaf

#841000
b10 aaaab
b1111010 aaaac
b1 aaaag
b101000001 aaaai

#842000
b111 aaaae
b11010001 aaaaf

#843000
b0 aaaab
b1111011 aaaac
b101000010 aaaai

#844000
b101 aaaae
b11010010 aaaaf

#845000
b1111100 aaaac
b100 aaaag
b101000011 aaaai

#846000
b100 aaaae
b11010011 aaaaf

#847000
b1111101 aaaac
b10 aaaag
b101000100 aaaai

#848000
b0 aaaae
b11010100 aaaaf

#849000
b1111110 aaaac
b111 aaaag
b101000101 aaaai
b10 aaaak
b110010000 aaaal
1aaaap
1aaaat

#850000
b101 aaaae
b11010101 aaaaf

#851000
b1111111 aaaac
b100 aaaag
b101000110 aaaai
b110 aaaak
b110010001 aaaal

#852000
b0 aaaae
b11010110 aaaaf

#853000
b10000000 aaaac
b101 aaaag
b101000111 aaaai
b111 aaaak
b110010010 aaaal

#854000
b1 aaaae
b11010111 aaaaf

#855000
b10000001 aaaac
b111 aaaag
b101001000 aaaai
b11 aaaak
b110010011 aaaal

#856000
b101 aaaae
b11011000 aaaaf

#857000
b10000010 aaaac
b101 aaaag
b101001001 aaaai
b111 aaaak
b110010100 aaaal

#858000
b0 aaaae
b11011001 aaaaf

