Homework6_multiexchr/Homework6_multiexchr/dataExchange.vcd
$date
     May 02, 2017       23:22:16
$end

$version
 SystemC 2.3.1-Accellera --- Feb 20 2017 20:34:49
$end

$timescale
     1 ps
$end

$scope module SystemC $end
$var wire    8  aaaaa  inb1 [7:0]  $end
$var wire    8  aaaab  oub1 [7:0]  $end
$var wire   10  aaaac  adb1 [9:0]  $end
$var wire    8  aaaad  inb2 [7:0]  $end
$var wire    8  aaaae  oub2 [7:0]  $end
$var wire   10  aaaaf  adb2 [9:0]  $end
$var wire    8  aaaag  inb3 [7:0]  $end
$var wire    8  aaaah  oub3 [7:0]  $end
$var wire   10  aaaai  adb3 [9:0]  $end
$var wire    8  aaaaj  inb4 [7:0]  $end
$var wire    8  aaaak  oub4 [7:0]  $end
$var wire   10  aaaal  adb4 [9:0]  $end
$var wire    1  aaaam  cs1       $end
$var wire    1  aaaan  cs2       $end
$var wire    1  aaaao  cs3       $end
$var wire    1  aaaap  cs4       $end
$var wire    1  aaaaq  rwb1       $end
$var wire    1  aaaar  rwb2       $end
$var wire    1  aaaas  rwb3       $end
$var wire    1  aaaat  rwb4       $end
$upscope $end
$enddefinitions  $end

$comment
All initial values are dumped below at time 0 sec = 0 timescale units.
$end

$dumpvars
bXXXXXXXX aaaaa
bXXXXXXXX aaaab
bXXXXXXXXXX aaaac
bXXXXXXXX aaaad
bXXXXXXXX aaaae
bXXXXXXXXXX aaaaf
bXXXXXXXX aaaag
bXXXXXXXX aaaah
bXXXXXXXXXX aaaai
bXXXXXXXX aaaaj
bXXXXXXXX aaaak
bXXXXXXXXXX aaaal
xaaaam
xaaaan
xaaaao
xaaaap
xaaaaq
xaaaar
xaaaas
xaaaat
$end

#300000
b0 aaaaa
b1000011100 aaaac
1aaaam
0aaaaq

#310000
b100 aaaaa
b1000011101 aaaac

#320000
b0 aaaaa
b1000011110 aaaac

#330000
b101 aaaaa
b1000011111 aaaac

#340000
b11 aaaaa
b1000100000 aaaac

#350000
b1 aaaaa
b1000100001 aaaac

#360000
b101 aaaaa
b1000100010 aaaac

#370000
b10 aaaaa
b1000100011 aaaac

#380000
b100 aaaaa
b1000100100 aaaac

#390000
b11 aaaaa
b1000100101 aaaac

#400000
b100 aaaaa
b1000100110 aaaac

#410000
b1000100111 aaaac

#420000
b11 aaaaa
b1000101000 aaaac

#430000
b101 aaaaa
b1000101001 aaaac

#440000
b1000101010 aaaac

#450000
b1000101011 aaaac

#460000
b1 aaaaa
b1000101100 aaaac

#470000
b1000101101 aaaac

#480000
b0 aaaaa
b1000101110 aaaac

#490000
b111 aaaaa
b1000101111 aaaac

#500000
b101 aaaaa
b1000110000 aaaac

#510000
b111 aaaaa
b1000110001 aaaac

#520000
b110 aaaaa
b1000110010 aaaac

#530000
b11 aaaaa
b1000110011 aaaac

#540000
b101 aaaaa
b1000110100 aaaac

#550000
b110 aaaaa
b1000110101 aaaac

#560000
b10 aaaaa
b1000110110 aaaac

#570000
b11 aaaaa
b1000110111 aaaac

#580000
b0 aaaaa
b1000111000 aaaac

#590000
b10 aaaaa
b1000111001 aaaac

#600000
b1 aaaaa
b1000111010 aaaac

#610000
b1000111011 aaaac

#620000
b10 aaaaa
b1000111100 aaaac

#630000
b111 aaaaa
b1000111101 aaaac

#640000
b101 aaaaa
b1000111110 aaaac

#650000
b10 aaaaa
b1000111111 aaaac

#660000
b111 aaaaa
b1001000000 aaaac

#670000
b101 aaaaa
b1001000001 aaaac

#680000
b0 aaaaa
b1001000010 aaaac

#690000
b101 aaaaa
b1001000011 aaaac

#700000
b11 aaaaa
b1001000100 aaaac

#710000
b100 aaaaa
b1001000101 aaaac

#720000
b111 aaaaa
b1001000110 aaaac

#730000
b0 aaaaa
b1001000111 aaaac

#740000
b10 aaaaa
b1001001000 aaaac

#750000
b1001001001 aaaac

#760000
b100 aaaaa
b1001001010 aaaac

#770000
b101 aaaaa
b1001001011 aaaac

#780000
b11 aaaaa
b1001001100 aaaac

#790000
b1001001101 aaaac

#800000
b1 aaaaa
b1001001110 aaaac

#810000
b1001001111 aaaac

#820000
b10 aaaaa
b1001010000 aaaac

#830000
b0 aaaaa
b1001010001 aaaac

#840000
b10 aaaaa
b1001010010 aaaac

#850000
b110 aaaaa
b1001010011 aaaac

#860000
b111 aaaaa
b1001010100 aaaac

#870000
b11 aaaaa
b1001010101 aaaac

#880000
b10 aaaaa
b1001010110 aaaac

#890000
b1 aaaaa
b1001010111 aaaac

#900000
b1001011000 aaaac

#910000
b10 aaaaa
b1001011001 aaaac

#920000
b0 aaaaa
b1001011010 aaaac

#930000
b110 aaaaa
b1001011011 aaaac

#940000
bZZZZZZZZ aaaaa
bZZZZZZZZZZ aaaac
b1 aaaad
b10010 aaaaf
zaaaam
1aaaan
zaaaaq
0aaaar

#960000
b10 aaaad
b10011 aaaaf

#980000
b11 aaaad
b10100 aaaaf

#1000000
b10101 aaaaf

#1020000
b1 aaaad
b10110 aaaaf

#1040000
b101 aaaad
b10111 aaaaf

#1060000
b100 aaaad
b11000 aaaaf

#1080000
b1 aaaad
b11001 aaaaf

#1100000
b11 aaaad
b11010 aaaaf

#1120000
b1 aaaad
b11011 aaaaf

#1140000
b11 aaaad
b11100 aaaaf

#1160000
b10 aaaad
b11101 aaaaf

#1180000
b110 aaaad
b11110 aaaaf

#1200000
b0 aaaad
b11111 aaaaf

#1220000
b10 aaaad
b100000 aaaaf

#1240000
b100001 aaaaf

#1260000
b101 aaaad
b100010 aaaaf

#1280000
b100011 aaaaf

#1300000
b0 aaaad
b100100 aaaaf

#1320000
b111 aaaad
b100101 aaaaf

#1340000
b0 aaaad
b100110 aaaaf

#1360000
b111 aaaad
b100111 aaaaf

#1380000
b11 aaaad
b101000 aaaaf

#1400000
b100 aaaad
b101001 aaaaf

#1420000
b0 aaaad
b101010 aaaaf

#1440000
b11 aaaad
b101011 aaaaf

#1460000
b100 aaaad
b101100 aaaaf

#1480000
b1 aaaad
b101101 aaaaf

#1500000
b10 aaaad
b101110 aaaaf

#1520000
b110 aaaad
b101111 aaaaf

#1540000
b11 aaaad
b110000 aaaaf

#1560000
b110001 aaaaf

#1580000
b1 aaaad
b110010 aaaaf

#1600000
b11 aaaad
b110011 aaaaf

#1620000
b110 aaaad
b110100 aaaaf

#1640000
b0 aaaad
b110101 aaaaf

#1660000
b101 aaaad
b110110 aaaaf

#1680000
b10 aaaad
b110111 aaaaf

#1700000
b100 aaaad
b111000 aaaaf

#1720000
b110 aaaad
b111001 aaaaf

#1740000
b0 aaaad
b111010 aaaaf

#1760000
b10 aaaad
b111011 aaaaf

#1780000
b111 aaaad
b111100 aaaaf

#1800000
b100 aaaad
b111101 aaaaf

#1820000
b11 aaaad
b111110 aaaaf

#1840000
b0 aaaad
b111111 aaaaf

#1860000
b1 aaaad
b1000000 aaaaf

#1880000
b1000001 aaaaf

#1900000
b100 aaaad
b1000010 aaaaf

#1920000
b0 aaaad
b1000011 aaaaf

#1940000
b101 aaaad
b1000100 aaaaf

#1960000
b11 aaaad
b1000101 aaaaf

#1980000
b1000110 aaaaf

#2000000
b100 aaaad
b1000111 aaaaf

#2020000
b10 aaaad
b1001000 aaaaf

#2040000
b11 aaaad
b1001001 aaaaf

#2060000
b110 aaaad
b1001010 aaaaf

#2080000
b11 aaaad
b1001011 aaaaf

#2100000
b100 aaaad
b1001100 aaaaf

#2120000
b0 aaaad
b1001101 aaaaf

#2140000
b1 aaaad
b1001110 aaaaf

#2160000
b11 aaaad
b1001111 aaaaf

#2180000
b1010000 aaaaf

#2200000
b1 aaaad
b1010001 aaaaf

#2220000
bZZZZZZZZ aaaad
bZZZZZZZZZZ aaaaf
b10 aaaag
b1000001000 aaaai
zaaaan
1aaaao
zaaaar
0aaaas

#2250000
b0 aaaag
b1000001001 aaaai

#2280000
b110 aaaag
b1000001010 aaaai

#2310000
b1 aaaag
b1000001011 aaaai

#2340000
b0 aaaag
b1000001100 aaaai

#2370000
b1 aaaag
b1000001101 aaaai

#2400000
b100 aaaag
b1000001110 aaaai

#2430000
b1 aaaag
b1000001111 aaaai

#2460000
b11 aaaag
b1000010000 aaaai

#2490000
b111 aaaag
b1000010001 aaaai

#2520000
b10 aaaag
b1000010010 aaaai

#2550000
b0 aaaag
b1000010011 aaaai

#2580000
b1000010100 aaaai

#2610000
b100 aaaag
b1000010101 aaaai

#2640000
b110 aaaag
b1000010110 aaaai

#2670000
b111 aaaag
b1000010111 aaaai

#2700000
b1 aaaag
b1000011000 aaaai

#2730000
b10 aaaag
b1000011001 aaaai

#2760000
b0 aaaag
b1000011010 aaaai

#2790000
b110 aaaag
b1000011011 aaaai

#2820000
b10 aaaag
b1000011100 aaaai

#2850000
b110 aaaag
b1000011101 aaaai

#2880000
b111 aaaag
b1000011110 aaaai

#2910000
b101 aaaag
b1000011111 aaaai

#2940000
b11 aaaag
b1000100000 aaaai

#2970000
b0 aaaag
b1000100001 aaaai

#3000000
b110 aaaag
b1000100010 aaaai

#3030000
b111 aaaag
b1000100011 aaaai

#3060000
b101 aaaag
b1000100100 aaaai

#3090000
b10 aaaag
b1000100101 aaaai

#3120000
b110 aaaag
b1000100110 aaaai

#3150000
b100 aaaag
b1000100111 aaaai

#3180000
b0 aaaag
b1000101000 aaaai

#3210000
b1000101001 aaaai

#3240000
b110 aaaag
b1000101010 aaaai

#3270000
b1000101011 aaaai

#3300000
b11 aaaag
b1000101100 aaaai

#3330000
b111 aaaag
b1000101101 aaaai

#3360000
b1 aaaag
b1000101110 aaaai

#3390000
b110 aaaag
b1000101111 aaaai

#3420000
b101 aaaag
b1000110000 aaaai

#3450000
b0 aaaag
b1000110001 aaaai

#3480000
b111 aaaag
b1000110010 aaaai

#3510000
b0 aaaag
b1000110011 aaaai

#3540000
b101 aaaag
b1000110100 aaaai

#3570000
b110 aaaag
b1000110101 aaaai

#3600000
b1000110110 aaaai

#3630000
b100 aaaag
b1000110111 aaaai

#3660000
b101 aaaag
b1000111000 aaaai

#3690000
b110 aaaag
b1000111001 aaaai

#3720000
b10 aaaag
b1000111010 aaaai

#3750000
b110 aaaag
b1000111011 aaaai

#3780000
b101 aaaag
b1000111100 aaaai

#3810000
b111 aaaag
b1000111101 aaaai

#3840000
b10 aaaag
b1000111110 aaaai

#3870000
b0 aaaag
b1000111111 aaaai

#3900000
b101 aaaag
b1001000000 aaaai

#3930000
b11 aaaag
b1001000001 aaaai

#3960000
b101 aaaag
b1001000010 aaaai

#3990000
b110 aaaag
b1001000011 aaaai

#4020000
b1 aaaag
b1001000100 aaaai

#4050000
b101 aaaag
b1001000101 aaaai

#4080000
b1001000110 aaaai

#4110000
b11 aaaag
b1001000111 aaaai

#4140000
b10 aaaaa
b1110010110 aaaac
bZZZZZZZZ aaaag
bZZZZZZZZZZ aaaai
1aaaam
zaaaao
0aaaaq
zaaaas

#4150000
b100 aaaaa
b1110010111 aaaac

#4160000
b10 aaaaa
b1110011000 aaaac

#4170000
b111 aaaaa
b1110011001 aaaac

#4180000
b101 aaaaa
b1110011010 aaaac

#4190000
b1110011011 aaaac

#4200000
b10 aaaaa
b1110011100 aaaac

#4210000
b0 aaaaa
b1110011101 aaaac

#4220000
b111 aaaaa
b1110011110 aaaac

#4230000
b101 aaaaa
b1110011111 aaaac

#4240000
b10 aaaaa
b1110100000 aaaac

#4250000
b110 aaaaa
b1110100001 aaaac

#4260000
b1110100010 aaaac

#4270000
b111 aaaaa
b1110100011 aaaac

#4280000
b1 aaaaa
b1110100100 aaaac

#4290000
b100 aaaaa
b1110100101 aaaac

#4300000
b0 aaaaa
b1110100110 aaaac

#4310000
b111 aaaaa
b1110100111 aaaac

#4320000
b11 aaaaa
b1110101000 aaaac

#4330000
b111 aaaaa
b1110101001 aaaac

#4340000
b10 aaaaa
b1110101010 aaaac

#4350000
b11 aaaaa
b1110101011 aaaac

#4360000
b110 aaaaa
b1110101100 aaaac

#4370000
b1 aaaaa
b1110101101 aaaac

#4380000
b110 aaaaa
b1110101110 aaaac

#4390000
b1 aaaaa
b1110101111 aaaac

#4400000
b1110110000 aaaac

#4410000
b11 aaaaa
b1110110001 aaaac

#4420000
b100 aaaaa
b1110110010 aaaac

#4430000
b1 aaaaa
b1110110011 aaaac

#4440000
b10 aaaaa
b1110110100 aaaac

#4450000
b110 aaaaa
b1110110101 aaaac

#4460000
b100 aaaaa
b1110110110 aaaac

#4470000
b1110110111 aaaac

#4480000
b111 aaaaa
b1110111000 aaaac

#4490000
b11 aaaaa
b1110111001 aaaac

#4500000
b10 aaaaa
b1110111010 aaaac

#4510000
b101 aaaaa
b1110111011 aaaac

#4520000
b0 aaaaa
b1110111100 aaaac

#4530000
b1 aaaaa
b1110111101 aaaac

#4540000
b11 aaaaa
b1110111110 aaaac

#4550000
b110 aaaaa
b1110111111 aaaac

#4560000
b11 aaaaa
b1111000000 aaaac

#4570000
b0 aaaaa
b1111000001 aaaac

#4580000
b1111000010 aaaac

#4590000
b110 aaaaa
b1111000011 aaaac

#4600000
b111 aaaaa
b1111000100 aaaac

#4610000
b100 aaaaa
b1111000101 aaaac

#4620000
b1 aaaaa
b1111000110 aaaac

#4630000
b11 aaaaa
b1111000111 aaaac

#4640000
b101 aaaaa
b1111001000 aaaac

#4650000
b100 aaaaa
b1111001001 aaaac

#4660000
b1111001010 aaaac

#4670000
b11 aaaaa
b1111001011 aaaac

#4680000
b1111001100 aaaac

#4690000
b1111001101 aaaac

#4700000
b110 aaaaa
b1111001110 aaaac

#4710000
b111 aaaaa
b1111001111 aaaac

#4720000
b11 aaaaa
b1111010000 aaaac

#4730000
b111 aaaaa
b1111010001 aaaac

#4740000
b0 aaaaa
b1111010010 aaaac

#4750000
b1 aaaaa
b1111010011 aaaac

#4760000
b101 aaaaa
b1111010100 aaaac

#4770000
b0 aaaaa
b1111010101 aaaac

#4780000
bZZZZZZZZ aaaaa
bZZZZZZZZZZ aaaac
b10 aaaad
b1001011001 aaaaf
zaaaam
1aaaan
zaaaaq
0aaaar

#4800000
b0 aaaad
b1001011010 aaaaf

#4820000
b111 aaaad
b1001011011 aaaaf

#4840000
b11 aaaad
b1001011100 aaaaf

#4860000
b1 aaaad
b1001011101 aaaaf

#4880000
b100 aaaad
b1001011110 aaaaf

#4900000
b1 aaaad
b1001011111 aaaaf

#4920000
b0 aaaad
b1001100000 aaaaf

#4940000
b11 aaaad
b1001100001 aaaaf

#4960000
b100 aaaad
b1001100010 aaaaf

#4980000
b10 aaaad
b1001100011 aaaaf

#5000000
b101 aaaad
b1001100100 aaaaf

#5020000
b100 aaaad
b1001100101 aaaaf

#5040000
b11 aaaad
b1001100110 aaaaf

#5060000
b0 aaaad
b1001100111 aaaaf

#5080000
b1001101000 aaaaf

#5100000
b101 aaaad
b1001101001 aaaaf

#5120000
b110 aaaad
b1001101010 aaaaf

#5140000
b1001101011 aaaaf

#5160000
b101 aaaad
b1001101100 aaaaf

#5180000
b111 aaaad
b1001101101 aaaaf

#5200000
b101 aaaad
b1001101110 aaaaf

#5220000
b1001101111 aaaaf

#5240000
b10 aaaad
b1001110000 aaaaf

#5260000
b110 aaaad
b1001110001 aaaaf

#5280000
b0 aaaad
b1001110010 aaaaf

#5300000
b111 aaaad
b1001110011 aaaaf

#5320000
b1001110100 aaaaf

#5340000
b1 aaaad
b1001110101 aaaaf

#5360000
b1001110110 aaaaf

#5380000
b100 aaaad
b1001110111 aaaaf

#5400000
b11 aaaad
b1001111000 aaaaf

#5420000
b111 aaaad
b1001111001 aaaaf

#5440000
b1 aaaad
b1001111010 aaaaf

#5460000
b0 aaaad
b1001111011 aaaaf

#5480000
b11 aaaad
b1001111100 aaaaf

#5500000
b1001111101 aaaaf

#5520000
b101 aaaad
b1001111110 aaaaf

#5540000
b100 aaaad
b1001111111 aaaaf

#5560000
b11 aaaad
b1010000000 aaaaf

#5580000
b1010000001 aaaaf

#5600000
b10 aaaad
b1010000010 aaaaf

#5620000
b11 aaaad
b1010000011 aaaaf

#5640000
b10 aaaad
b1010000100 aaaaf

#5660000
b101 aaaad
b1010000101 aaaaf

#5680000
b110 aaaad
b1010000110 aaaaf

#5700000
b1 aaaad
b1010000111 aaaaf

#5720000
b1010001000 aaaaf

#5740000
b11 aaaad
b1010001001 aaaaf

#5760000
b10 aaaad
b1010001010 aaaaf

#5780000
b111 aaaad
b1010001011 aaaaf

#5800000
b100 aaaad
b1010001100 aaaaf

#5820000
b10 aaaad
b1010001101 aaaaf

#5840000
b101 aaaad
b1010001110 aaaaf

#5860000
b10 aaaad
b1010001111 aaaaf

#5880000
b101 aaaad
b1010010000 aaaaf

#5900000
b1010010001 aaaaf

#5920000
b10 aaaad
b1010010010 aaaaf

#5940000
b101 aaaad
b1010010011 aaaaf

#5960000
b1010010100 aaaaf

#5980000
b111 aaaad
b1010010101 aaaaf

#6000000
b101 aaaad
b1010010110 aaaaf

#6020000
b100 aaaad
b1010010111 aaaaf

#6040000
b101 aaaad
b1010011000 aaaaf

#6060000
bZZZZZZZZ aaaad
bZZZZZZZZZZ aaaaf
b11 aaaaj
b1111111101 aaaal
zaaaan
1aaaap
zaaaar
0aaaat

#6100000
b110 aaaaj
b1111111110 aaaal

#6140000
b10 aaaaj
b1111111111 aaaal

#6180000
b111 aaaaj
b0 aaaal

#6220000
b110 aaaaj
b1 aaaal

#6260000
b101 aaaaj
b10 aaaal

#6300000
b11 aaaaj
b11 aaaal

#6340000
b0 aaaaj
b100 aaaal

#6380000
b10 aaaaj
b101 aaaal

#6420000
b101 aaaaj
b110 aaaal

#6460000
b10 aaaaj
b111 aaaal

#6500000
b110 aaaaj
b1000 aaaal

#6540000
b10 aaaaj
b1001 aaaal

#6580000
b0 aaaaj
b1010 aaaal

#6620000
b10 aaaaj
b1011 aaaal

#6660000
b100 aaaaj
b1100 aaaal

#6700000
b110 aaaaj
b1101 aaaal

#6740000
b1110 aaaal

#6780000
b0 aaaaj
b1111 aaaal

#6820000
b101 aaaaj
b10000 aaaal

#6860000
b100 aaaaj
b10001 aaaal

#6900000
b110 aaaaj
b10010 aaaal

#6940000
b11 aaaaj
b10011 aaaal

#6980000
b111 aaaaj
b10100 aaaal

#7020000
b101 aaaaj
b10101 aaaal

#7060000
b10110 aaaal

#7100000
b0 aaaaj
b10111 aaaal

#7140000
b101 aaaaj
b11000 aaaal

#7180000
b111 aaaaj
b11001 aaaal

#7220000
b11010 aaaal

#7260000
b1 aaaaj
b11011 aaaal

#7300000
b101 aaaaj
b11100 aaaal

#7340000
b110 aaaaj
b11101 aaaal

#7380000
b100 aaaaj
b11110 aaaal

#7420000
b111 aaaaj
b11111 aaaal

#7460000
b100 aaaaj
b100000 aaaal

#7500000
b1 aaaaj
b100001 aaaal

#7540000
b100 aaaaj
b100010 aaaal

#7580000
b101 aaaaj
b100011 aaaal

#7620000
b111 aaaaj
b100100 aaaal

#7660000
b11 aaaaj
b100101 aaaal

#7700000
b110 aaaaj
b100110 aaaal

#7740000
b111 aaaaj
b100111 aaaal

#7780000
b11 aaaaj
b101000 aaaal

#7820000
b110 aaaaj
b101001 aaaal

#7860000
b100 aaaaj
b101010 aaaal

#7900000
b11 aaaaj
b101011 aaaal

#7940000
b111 aaaaj
b101100 aaaal

#7980000
b101101 aaaal

#8020000
b100 aaaaj
b101110 aaaal

#8060000
b110 aaaaj
b101111 aaaal

#8100000
b0 aaaaj
b110000 aaaal

#8140000
b110 aaaaj
b110001 aaaal

#8180000
b11 aaaaj
b110010 aaaal

#8220000
b10 aaaaj
b110011 aaaal

#8260000
b101 aaaaj
b110100 aaaal

#8300000
b100 aaaaj
b110101 aaaal

#8340000
b11 aaaaj
b110110 aaaal

#8380000
b111 aaaaj
b110111 aaaal

#8420000
b101 aaaaj
b111000 aaaal

#8460000
b10 aaaaj
b111001 aaaal

#8500000
b111 aaaaj
b111010 aaaal

#8540000
b0 aaaaj
b111011 aaaal

#8580000
b110 aaaaj
b111100 aaaal

#8620000
b101 aaaaa
b1000110110 aaaac
bZZZZZZZZ aaaaj
bZZZZZZZZZZ aaaal
1aaaam
zaaaap
0aaaaq
zaaaat

#8630000
b0 aaaaa
b1000110111 aaaac

#8640000
b11 aaaaa
b1000111000 aaaac

#8650000
b100 aaaaa
b1000111001 aaaac

#8660000
b110 aaaaa
b1000111010 aaaac

#8670000
b1000111011 aaaac

#8680000
b0 aaaaa
b1000111100 aaaac

#8690000
b1 aaaaa
b1000111101 aaaac

#8700000
b11 aaaaa
b1000111110 aaaac

#8710000
b1 aaaaa
b1000111111 aaaac

#8720000
b0 aaaaa
b1001000000 aaaac

#8730000
b1 aaaaa
b1001000001 aaaac

#8740000
b10 aaaaa
b1001000010 aaaac

#8750000
b0 aaaaa
b1001000011 aaaac

#8760000
b11 aaaaa
b1001000100 aaaac

#8770000
b110 aaaaa
b1001000101 aaaac

#8780000
b11 aaaaa
b1001000110 aaaac

#8790000
b111 aaaaa
b1001000111 aaaac

#8800000
b1 aaaaa
b1001001000 aaaac

#8810000
b111 aaaaa
b1001001001 aaaac

#8820000
b1 aaaaa
b1001001010 aaaac

#8830000
b110 aaaaa
b1001001011 aaaac

#8840000
b111 aaaaa
b1001001100 aaaac

#8850000
b11 aaaaa
b1001001101 aaaac

#8860000
b100 aaaaa
b1001001110 aaaac

#8870000
b0 aaaaa
b1001001111 aaaac

#8880000
b100 aaaaa
b1001010000 aaaac

#8890000
b0 aaaaa
b1001010001 aaaac

#8900000
b10 aaaaa
b1001010010 aaaac

#8910000
b110 aaaaa
b1001010011 aaaac

#8920000
b101 aaaaa
b1001010100 aaaac

#8930000
b111 aaaaa
b1001010101 aaaac

#8940000
b1001010110 aaaac

#8950000
b101 aaaaa
b1001010111 aaaac

#8960000
b110 aaaaa
b1001011000 aaaac

#8970000
b10 aaaaa
b1001011001 aaaac

#8980000
b11 aaaaa
b1001011010 aaaac

#8990000
b110 aaaaa
b1001011011 aaaac

#9000000
b11 aaaaa
b1001011100 aaaac

#9010000
b1 aaaaa
b1001011101 aaaac

#9020000
b11 aaaaa
b1001011110 aaaac

#9030000
b101 aaaaa
b1001011111 aaaac

#9040000
b110 aaaaa
b1001100000 aaaac

#9050000
b1 aaaaa
b1001100001 aaaac

#9060000
b10 aaaaa
b1001100010 aaaac

#9070000
b100 aaaaa
b1001100011 aaaac

#9080000
b0 aaaaa
b1001100100 aaaac

#9090000
b110 aaaaa
b1001100101 aaaac

#9100000
b10 aaaaa
b1001100110 aaaac

#9110000
b1 aaaaa
b1001100111 aaaac

#9120000
b101 aaaaa
b1001101000 aaaac

#9130000
b10 aaaaa
b1001101001 aaaac

#9140000
b101 aaaaa
b1001101010 aaaac

#9150000
b1001101011 aaaac

#9160000
b11 aaaaa
b1001101100 aaaac

#9170000
b111 aaaaa
b1001101101 aaaac

#9180000
b1 aaaaa
b1001101110 aaaac

#9190000
b110 aaaaa
b1001101111 aaaac

#9200000
b100 aaaaa
b1001110000 aaaac

#9210000
b1 aaaaa
b1001110001 aaaac

#9220000
b11 aaaaa
b1001110010 aaaac

#9230000
b111 aaaaa
b1001110011 aaaac

#9240000
b101 aaaaa
b1001110100 aaaac

#9250000
b0 aaaaa
b1001110101 aaaac

#9260000
bZZZZZZZZ aaaaa
bZZZZZZZZZZ aaaac
b1 aaaad
b1011011001 aaaaf
zaaaam
1aaaan
zaaaaq
0aaaar

#9280000
b11 aaaad
b1011011010 aaaaf

#9300000
b100 aaaad
b1011011011 aaaaf

#9320000
b0 aaaad
b1011011100 aaaaf

#9340000
b110 aaaad
b1011011101 aaaaf

#9360000
b101 aaaad
b1011011110 aaaaf

#9380000
b1 aaaad
b1011011111 aaaaf

#9400000
b10 aaaad
b1011100000 aaaaf

#9420000
b1 aaaad
b1011100001 aaaaf

#9440000
b1011100010 aaaaf

#9460000
b11 aaaad
b1011100011 aaaaf

#9480000
b1011100100 aaaaf

#9500000
b101 aaaad
b1011100101 aaaaf

#9520000
b10 aaaad
b1011100110 aaaaf

#9540000
b111 aaaad
b1011100111 aaaaf

#9560000
b11 aaaad
b1011101000 aaaaf

#9580000
b1 aaaad
b1011101001 aaaaf

#9600000
b111 aaaad
b1011101010 aaaaf

#9620000
b10 aaaad
b1011101011 aaaaf

#9640000
b1011101100 aaaaf

#9660000
b1 aaaad
b1011101101 aaaaf

#9680000
b10 aaaad
b1011101110 aaaaf

#9700000
b111 aaaad
b1011101111 aaaaf

#9720000
b0 aaaad
b1011110000 aaaaf

#9740000
b1 aaaad
b1011110001 aaaaf

#9760000
b100 aaaad
b1011110010 aaaaf

#9780000
b11 aaaad
b1011110011 aaaaf

#9800000
b110 aaaad
b1011110100 aaaaf

#9820000
b111 aaaad
b1011110101 aaaaf

#9840000
b1 aaaad
b1011110110 aaaaf

#9860000
b0 aaaad
b1011110111 aaaaf

#9880000
b1011111000 aaaaf

#9900000
b1 aaaad
b1011111001 aaaaf

#9920000
b0 aaaad
b1011111010 aaaaf

#9940000
b111 aaaad
b1011111011 aaaaf

#9960000
b1011111100 aaaaf

#9980000
b1011111101 aaaaf

