Homework6_multiexchr/Homework6_multiexchr/dataExchange.vcd
$date
     May 01, 2017       23:10:43
$end

$version
 SystemC 2.3.1-Accellera --- Feb 20 2017 20:34:49
$end

$timescale
     1 ps
$end

$scope module SystemC $end
$var wire    8  aaaaa  inb1 [7:0]  $end
$var wire    8  aaaab  oub1 [7:0]  $end
$var wire   10  aaaac  adb1 [9:0]  $end
$var wire    8  aaaad  inb2 [7:0]  $end
$var wire    8  aaaae  oub2 [7:0]  $end
$var wire   10  aaaaf  adb2 [9:0]  $end
$var wire    8  aaaag  inb3 [7:0]  $end
$var wire    8  aaaah  oub3 [7:0]  $end
$var wire   10  aaaai  adb3 [9:0]  $end
$var wire    8  aaaaj  inb4 [7:0]  $end
$var wire    8  aaaak  oub4 [7:0]  $end
$var wire   10  aaaal  adb4 [9:0]  $end
$var wire    1  aaaam  cs1       $end
$var wire    1  aaaan  cs2       $end
$var wire    1  aaaao  cs3       $end
$var wire    1  aaaap  cs4       $end
$var wire    1  aaaaq  rwb1       $end
$var wire    1  aaaar  rwb2       $end
$var wire    1  aaaas  rwb3       $end
$var wire    1  aaaat  rwb4       $end
$upscope $end
$enddefinitions  $end

$comment
All initial values are dumped below at time 0 sec = 0 timescale units.
$end

$dumpvars
bXXXXXXXX aaaaa
bXXXXXXXX aaaab
bXXXXXXXXXX aaaac
bXXXXXXXX aaaad
bXXXXXXXX aaaae
bXXXXXXXXXX aaaaf
bXXXXXXXX aaaag
bXXXXXXXX aaaah
bXXXXXXXXXX aaaai
bXXXXXXXX aaaaj
bXXXXXXXX aaaak
bXXXXXXXXXX aaaal
xaaaam
xaaaan
xaaaao
xaaaap
xaaaaq
xaaaar
xaaaas
xaaaat
$end

#300000
b11 aaaaa
b1100100011 aaaac
1aaaam
0aaaaq

#310000
b111 aaaaa
b1100100100 aaaac

#320000
b1 aaaaa
b1100100101 aaaac

#330000
b111 aaaaa
b1100100110 aaaac

#340000
b110 aaaaa
b1100100111 aaaac

#350000
b10 aaaaa
b1100101000 aaaac

#360000
b100 aaaaa
b1100101001 aaaac

#370000
b101 aaaaa
b1100101010 aaaac

#380000
b11 aaaaa
b1100101011 aaaac

#390000
b100 aaaaa
b1100101100 aaaac

#400000
b1 aaaaa
b1100101101 aaaac

#410000
b0 aaaaa
b1100101110 aaaac

#420000
b11 aaaaa
b1100101111 aaaac

#430000
b10 aaaaa
b1100110000 aaaac

#440000
b100 aaaaa
b1100110001 aaaac

#450000
b11 aaaaa
b1100110010 aaaac

#460000
b1100110011 aaaac

#470000
b100 aaaaa
b1100110100 aaaac

#480000
b1100110101 aaaac

#490000
b111 aaaaa
b1100110110 aaaac

#500000
b10 aaaaa
b1100110111 aaaac

#510000
b1 aaaaa
b1100111000 aaaac

#520000
b110 aaaaa
b1100111001 aaaac

#530000
b1100111010 aaaac

#540000
b1 aaaaa
b1100111011 aaaac

#550000
b1100111100 aaaac

#560000
b10 aaaaa
b1100111101 aaaac

#570000
b111 aaaaa
b1100111110 aaaac

#580000
b10 aaaaa
b1100111111 aaaac

#590000
b1 aaaaa
b1101000000 aaaac

#600000
b110 aaaaa
b1101000001 aaaac

#610000
b11 aaaaa
b1101000010 aaaac

#620000
b1101000011 aaaac

#630000
b1101000100 aaaac

#640000
b1 aaaaa
b1101000101 aaaac

#650000
b0 aaaaa
b1101000110 aaaac

#660000
b101 aaaaa
b1101000111 aaaac

#670000
b100 aaaaa
b1101001000 aaaac

#680000
b11 aaaaa
b1101001001 aaaac

#690000
b1101001010 aaaac

#700000
b0 aaaaa
b1101001011 aaaac

#710000
b10 aaaaa
b1101001100 aaaac

#720000
b100 aaaaa
b1101001101 aaaac

#730000
b11 aaaaa
b1101001110 aaaac

#740000
b10 aaaaa
b1101001111 aaaac

#750000
b101 aaaaa
b1101010000 aaaac

#760000
b10 aaaaa
b1101010001 aaaac

#770000
b100 aaaaa
b1101010010 aaaac

#780000
b0 aaaaa
b1101010011 aaaac

#790000
b100 aaaaa
b1101010100 aaaac

#800000
b110 aaaaa
b1101010101 aaaac

#810000
b10 aaaaa
b1101010110 aaaac

#820000
b11 aaaaa
b1101010111 aaaac

#830000
b100 aaaaa
b1101011000 aaaac

#840000
b1 aaaaa
b1101011001 aaaac

#850000
b110 aaaaa
b1101011010 aaaac

#860000
b111 aaaaa
b1101011011 aaaac

#870000
b101 aaaaa
b1101011100 aaaac

#880000
b11 aaaaa
b1101011101 aaaac

#890000
b101 aaaaa
b1101011110 aaaac

#900000
b0 aaaaa
b1101011111 aaaac

#910000
b110 aaaaa
b1101100000 aaaac

#920000
b101 aaaaa
b1101100001 aaaac

#930000
b111 aaaaa
b1101100010 aaaac

#940000
bZZZZZZZZ aaaaa
bZZZZZZZZZZ aaaac
b110 aaaad
b1000100000 aaaaf
zaaaam
1aaaan
zaaaaq
0aaaar

#960000
b111 aaaad
b1000100001 aaaaf

#980000
b101 aaaad
b1000100010 aaaaf

#1000000
b111 aaaad
b1000100011 aaaaf

#1020000
b0 aaaad
b1000100100 aaaaf

#1040000
b110 aaaad
b1000100101 aaaaf

#1060000
b100 aaaad
b1000100110 aaaaf

#1080000
b0 aaaad
b1000100111 aaaaf

#1100000
b10 aaaad
b1000101000 aaaaf

#1120000
b1000101001 aaaaf

#1140000
b110 aaaad
b1000101010 aaaaf

#1160000
b10 aaaad
b1000101011 aaaaf

#1180000
b110 aaaad
b1000101100 aaaaf

#1200000
b11 aaaad
b1000101101 aaaaf

#1220000
b111 aaaad
b1000101110 aaaaf

#1240000
b101 aaaad
b1000101111 aaaaf

#1260000
b10 aaaad
b1000110000 aaaaf

#1280000
b11 aaaad
b1000110001 aaaaf

#1300000
b0 aaaad
b1000110010 aaaaf

#1320000
b110 aaaad
b1000110011 aaaaf

#1340000
b10 aaaad
b1000110100 aaaaf

#1360000
b1000110101 aaaaf

#1380000
b1000110110 aaaaf

#1400000
b1000110111 aaaaf

#1420000
b110 aaaad
b1000111000 aaaaf

#1440000
b10 aaaad
b1000111001 aaaaf

#1460000
b100 aaaad
b1000111010 aaaaf

#1480000
b10 aaaad
b1000111011 aaaaf

#1500000
b110 aaaad
b1000111100 aaaaf

#1520000
b100 aaaad
b1000111101 aaaaf

#1540000
b110 aaaad
b1000111110 aaaaf

#1560000
b101 aaaad
b1000111111 aaaaf

#1580000
b100 aaaad
b1001000000 aaaaf

#1600000
b11 aaaad
b1001000001 aaaaf

#1620000
b110 aaaad
b1001000010 aaaaf

#1640000
b100 aaaad
b1001000011 aaaaf

#1660000
b1 aaaad
b1001000100 aaaaf

#1680000
b111 aaaad
b1001000101 aaaaf

#1700000
b11 aaaad
b1001000110 aaaaf

#1720000
b10 aaaad
b1001000111 aaaaf

#1740000
b1001001000 aaaaf

#1760000
b101 aaaad
b1001001001 aaaaf

#1780000
b1 aaaad
b1001001010 aaaaf

#1800000
b10 aaaad
b1001001011 aaaaf

#1820000
b100 aaaad
b1001001100 aaaaf

#1840000
b101 aaaad
b1001001101 aaaaf

#1860000
b100 aaaad
b1001001110 aaaaf

#1880000
b110 aaaad
b1001001111 aaaaf

#1900000
b1001010000 aaaaf

#1920000
b11 aaaad
b1001010001 aaaaf

#1940000
b1 aaaad
b1001010010 aaaaf

#1960000
b101 aaaad
b1001010011 aaaaf

#1980000
b110 aaaad
b1001010100 aaaaf

#2000000
b11 aaaad
b1001010101 aaaaf

#2020000
b1 aaaad
b1001010110 aaaaf

#2040000
b100 aaaad
b1001010111 aaaaf

#2060000
b110 aaaad
b1001011000 aaaaf

#2080000
b111 aaaad
b1001011001 aaaaf

#2100000
b1001011010 aaaaf

#2120000
b0 aaaad
b1001011011 aaaaf

#2140000
b1001011100 aaaaf

#2160000
b11 aaaad
b1001011101 aaaaf

#2180000
b100 aaaad
b1001011110 aaaaf

#2200000
b11 aaaad
b1001011111 aaaaf

#2220000
bZZZZZZZZ aaaad
bZZZZZZZZZZ aaaaf
b1 aaaag
b100011100 aaaai
zaaaan
1aaaao
zaaaar
0aaaas

#2250000
b0 aaaag
b100011101 aaaai

#2280000
b1 aaaag
b100011110 aaaai

#2310000
b0 aaaag
b100011111 aaaai

#2340000
b1 aaaag
b100100000 aaaai

#2370000
b11 aaaag
b100100001 aaaai

#2400000
b100100010 aaaai

#2430000
b10 aaaag
b100100011 aaaai

#2460000
b0 aaaag
b100100100 aaaai

#2490000
b100100101 aaaai

#2520000
b11 aaaag
b100100110 aaaai

#2550000
b100 aaaag
b100100111 aaaai

#2580000
b0 aaaag
b100101000 aaaai

#2610000
b101 aaaag
b100101001 aaaai

#2640000
b10 aaaag
b100101010 aaaai

#2670000
b111 aaaag
b100101011 aaaai

#2700000
b0 aaaag
b100101100 aaaai

#2730000
b10 aaaag
b100101101 aaaai

#2760000
b100 aaaag
b100101110 aaaai

#2790000
b110 aaaag
b100101111 aaaai

#2820000
b1 aaaag
b100110000 aaaai

#2850000
b100 aaaag
b100110001 aaaai

#2880000
b101 aaaag
b100110010 aaaai

#2910000
b110 aaaag
b100110011 aaaai

#2940000
b100 aaaag
b100110100 aaaai

#2970000
b10 aaaag
b100110101 aaaai

#3000000
b101 aaaag
b100110110 aaaai

#3030000
b100 aaaag
b100110111 aaaai

#3060000
b10 aaaag
b100111000 aaaai

#3090000
b0 aaaag
b100111001 aaaai

#3120000
b110 aaaag
b100111010 aaaai

#3150000
b0 aaaag
b100111011 aaaai

#3180000
b100 aaaag
b100111100 aaaai

#3210000
b10 aaaag
b100111101 aaaai

#3240000
b11 aaaag
b100111110 aaaai

#3270000
b0 aaaag
b100111111 aaaai

#3300000
b101 aaaag
b101000000 aaaai

#3330000
b11 aaaag
b101000001 aaaai

#3360000
b101000010 aaaai

#3390000
b0 aaaag
b101000011 aaaai

#3420000
b100 aaaag
b101000100 aaaai

#3450000
b111 aaaag
b101000101 aaaai

#3480000
b110 aaaag
b101000110 aaaai

#3510000
b1 aaaag
b101000111 aaaai

#3540000
b110 aaaag
b101001000 aaaai

#3570000
b101001001 aaaai

#3600000
b111 aaaag
b101001010 aaaai

#3630000
b101001011 aaaai

#3660000
b11 aaaag
b101001100 aaaai

#3690000
b101001101 aaaai

#3720000
b101001110 aaaai

#3750000
b0 aaaag
b101001111 aaaai

#3780000
b101010000 aaaai

#3810000
b11 aaaag
b101010001 aaaai

#3840000
b1 aaaag
b101010010 aaaai

#3870000
b10 aaaag
b101010011 aaaai

#3900000
b101 aaaag
b101010100 aaaai

#3930000
b1 aaaag
b101010101 aaaai

#3960000
b10 aaaag
b101010110 aaaai

#3990000
b11 aaaag
b101010111 aaaai

#4020000
b0 aaaag
b101011000 aaaai

#4050000
b1 aaaag
b101011001 aaaai

#4080000
b11 aaaag
b101011010 aaaai

#4110000
b111 aaaag
b101011011 aaaai

#4140000
b10 aaaaa
b101000110 aaaac
bZZZZZZZZ aaaag
bZZZZZZZZZZ aaaai
1aaaam
zaaaao
0aaaaq
zaaaas

#4150000
b0 aaaaa
b101000111 aaaac

#4160000
b110 aaaaa
b101001000 aaaac

#4170000
b11 aaaaa
b101001001 aaaac

#4180000
b10 aaaaa
b101001010 aaaac

#4190000
b101 aaaaa
b101001011 aaaac

#4200000
b0 aaaaa
b101001100 aaaac

#4210000
b1 aaaaa
b101001101 aaaac

#4220000
b101 aaaaa
b101001110 aaaac

#4230000
b110 aaaaa
b101001111 aaaac

#4240000
b101010000 aaaac

#4250000
b1 aaaaa
b101010001 aaaac

#4260000
b101 aaaaa
b101010010 aaaac

#4270000
b101010011 aaaac

#4280000
b110 aaaaa
b101010100 aaaac

#4290000
b10 aaaaa
b101010101 aaaac

#4300000
b100 aaaaa
b101010110 aaaac

#4310000
b11 aaaaa
b101010111 aaaac

#4320000
b110 aaaaa
b101011000 aaaac

#4330000
b111 aaaaa
b101011001 aaaac

#4340000
b101011010 aaaac

#4350000
b11 aaaaa
b101011011 aaaac

#4360000
b10 aaaaa
b101011100 aaaac

#4370000
b101 aaaaa
b101011101 aaaac

#4380000
b10 aaaaa
b101011110 aaaac

#4390000
b1 aaaaa
b101011111 aaaac

#4400000
b111 aaaaa
b101100000 aaaac

#4410000
b11 aaaaa
b101100001 aaaac

#4420000
b100 aaaaa
b101100010 aaaac

#4430000
b101 aaaaa
b101100011 aaaac

#4440000
b1 aaaaa
b101100100 aaaac

#4450000
b10 aaaaa
b101100101 aaaac

#4460000
b100 aaaaa
b101100110 aaaac

#4470000
b101 aaaaa
b101100111 aaaac

#4480000
b10 aaaaa
b101101000 aaaac

#4490000
b111 aaaaa
b101101001 aaaac

#4500000
b100 aaaaa
b101101010 aaaac

#4510000
b10 aaaaa
b101101011 aaaac

#4520000
b100 aaaaa
b101101100 aaaac

#4530000
b110 aaaaa
b101101101 aaaac

#4540000
b101101110 aaaac

#4550000
b1 aaaaa
b101101111 aaaac

#4560000
b101110000 aaaac

#4570000
b101110001 aaaac

#4580000
b100 aaaaa
b101110010 aaaac

#4590000
b101110011 aaaac

#4600000
b1 aaaaa
b101110100 aaaac

#4610000
b10 aaaaa
b101110101 aaaac

#4620000
b11 aaaaa
b101110110 aaaac

#4630000
b10 aaaaa
b101110111 aaaac

#4640000
b100 aaaaa
b101111000 aaaac

#4650000
b101 aaaaa
b101111001 aaaac

#4660000
b11 aaaaa
b101111010 aaaac

#4670000
b101 aaaaa
b101111011 aaaac

#4680000
b0 aaaaa
b101111100 aaaac

#4690000
b10 aaaaa
b101111101 aaaac

#4700000
b0 aaaaa
b101111110 aaaac

#4710000
b10 aaaaa
b101111111 aaaac

#4720000
b101 aaaaa
b110000000 aaaac

#4730000
b10 aaaaa
b110000001 aaaac

#4740000
b101 aaaaa
b110000010 aaaac

#4750000
b111 aaaaa
b110000011 aaaac

#4760000
b110000100 aaaac

#4770000
b110000101 aaaac

#4780000
bZZZZZZZZ aaaaa
bZZZZZZZZZZ aaaac
b11 aaaad
b110111000 aaaaf
zaaaam
1aaaan
zaaaaq
0aaaar

#4800000
b0 aaaad
b110111001 aaaaf

#4820000
b110 aaaad
b110111010 aaaaf

#4840000
b1 aaaad
b110111011 aaaaf

#4860000
b11 aaaad
b110111100 aaaaf

#4880000
b100 aaaad
b110111101 aaaaf

#4900000
b110 aaaad
b110111110 aaaaf

#4920000
b11 aaaad
b110111111 aaaaf

#4940000
b110 aaaad
b111000000 aaaaf

#4960000
b111000001 aaaaf

#4980000
b10 aaaad
b111000010 aaaaf

#5000000
b100 aaaad
b111000011 aaaaf

#5020000
b11 aaaad
b111000100 aaaaf

#5040000
b101 aaaad
b111000101 aaaaf

#5060000
b11 aaaad
b111000110 aaaaf

#5080000
b100 aaaad
b111000111 aaaaf

#5100000
b101 aaaad
b111001000 aaaaf

#5120000
b110 aaaad
b111001001 aaaaf

#5140000
b100 aaaad
b111001010 aaaaf

#5160000
b101 aaaad
b111001011 aaaaf

#5180000
b10 aaaad
b111001100 aaaaf

#5200000
b110 aaaad
b111001101 aaaaf

#5220000
b101 aaaad
b111001110 aaaaf

#5240000
b10 aaaad
b111001111 aaaaf

#5260000
b111 aaaad
b111010000 aaaaf

#5280000
b1 aaaad
b111010001 aaaaf

#5300000
b11 aaaad
b111010010 aaaaf

#5320000
b111 aaaad
b111010011 aaaaf

#5340000
b10 aaaad
b111010100 aaaaf

#5360000
b111010101 aaaaf

#5380000
b111010110 aaaaf

#5400000
b111010111 aaaaf

#5420000
b0 aaaad
b111011000 aaaaf

#5440000
b11 aaaad
b111011001 aaaaf

#5460000
b101 aaaad
b111011010 aaaaf

#5480000
b1 aaaad
b111011011 aaaaf

#5500000
b0 aaaad
b111011100 aaaaf

#5520000
b111011101 aaaaf

#5540000
b101 aaaad
b111011110 aaaaf

#5560000
b100 aaaad
b111011111 aaaaf

#5580000
b111 aaaad
b111100000 aaaaf

#5600000
b111100001 aaaaf

#5620000
b1 aaaad
b111100010 aaaaf

#5640000
b100 aaaad
b111100011 aaaaf

#5660000
b101 aaaad
b111100100 aaaaf

#5680000
b10 aaaad
b111100101 aaaaf

#5700000
b101 aaaad
b111100110 aaaaf

#5720000
b100 aaaad
b111100111 aaaaf

#5740000
b0 aaaad
b111101000 aaaaf

#5760000
b1 aaaad
b111101001 aaaaf

#5780000
b110 aaaad
b111101010 aaaaf

#5800000
b111 aaaad
b111101011 aaaaf

#5820000
b111101100 aaaaf

#5840000
b1 aaaad
b111101101 aaaaf

#5860000
b100 aaaad
b111101110 aaaaf

#5880000
b11 aaaad
b111101111 aaaaf

#5900000
b10 aaaad
b111110000 aaaaf

#5920000
b111110001 aaaaf

#5940000
b1 aaaad
b111110010 aaaaf

#5960000
b100 aaaad
b111110011 aaaaf

#5980000
b1 aaaad
b111110100 aaaaf

#6000000
b0 aaaad
b111110101 aaaaf

#6020000
b1 aaaad
b111110110 aaaaf

#6040000
b11 aaaad
b111110111 aaaaf

#6060000
bZZZZZZZZ aaaad
bZZZZZZZZZZ aaaaf
b101 aaaaj
b11001 aaaal
zaaaan
1aaaap
zaaaar
0aaaat

#6100000
b1 aaaaj
b11010 aaaal

#6140000
b101 aaaaj
b11011 aaaal

#6180000
b0 aaaaj
b11100 aaaal

#6220000
b10 aaaaj
b11101 aaaal

#6260000
b0 aaaaj
b11110 aaaal

#6300000
b10 aaaaj
b11111 aaaal

#6340000
b101 aaaaj
b100000 aaaal

#6380000
b111 aaaaj
b100001 aaaal

#6420000
b100010 aaaal

#6460000
b100011 aaaal

#6500000
b110 aaaaj
b100100 aaaal

#6540000
b11 aaaaj
b100101 aaaal

#6580000
b110 aaaaj
b100110 aaaal

#6620000
b100111 aaaal

#6660000
b1 aaaaj
b101000 aaaal

#6700000
b110 aaaaj
b101001 aaaal

#6740000
b1 aaaaj
b101010 aaaal

#6780000
b0 aaaaj
b101011 aaaal

#6820000
b101 aaaaj
b101100 aaaal

#6860000
b1 aaaaj
b101101 aaaal

#6900000
b101 aaaaj
b101110 aaaal

#6940000
b1 aaaaj
b101111 aaaal

#6980000
b10 aaaaj
b110000 aaaal

#7020000
b110001 aaaal

#7060000
b11 aaaaj
b110010 aaaal

#7100000
b111 aaaaj
b110011 aaaal

#7140000
b110 aaaaj
b110100 aaaal

#7180000
b110101 aaaal

#7220000
b11 aaaaj
b110110 aaaal

#7260000
b110 aaaaj
b110111 aaaal

#7300000
b10 aaaaj
b111000 aaaal

#7340000
b101 aaaaj
b111001 aaaal

#7380000
b10 aaaaj
b111010 aaaal

#7420000
b0 aaaaj
b111011 aaaal

#7460000
b100 aaaaj
b111100 aaaal

#7500000
b0 aaaaj
b111101 aaaal

#7540000
b111 aaaaj
b111110 aaaal

#7580000
b11 aaaaj
b111111 aaaal

#7620000
b110 aaaaj
b1000000 aaaal

#7660000
b1000001 aaaal

#7700000
b10 aaaaj
b1000010 aaaal

#7740000
b11 aaaaj
b1000011 aaaal

#7780000
b111 aaaaj
b1000100 aaaal

#7820000
b0 aaaaj
b1000101 aaaal

#7860000
b111 aaaaj
b1000110 aaaal

#7900000
b10 aaaaj
b1000111 aaaal

#7940000
b1 aaaaj
b1001000 aaaal

#7980000
b1001001 aaaal

#8020000
b10 aaaaj
b1001010 aaaal

#8060000
b101 aaaaj
b1001011 aaaal

#8100000
b11 aaaaj
b1001100 aaaal

#8140000
b10 aaaaj
b1001101 aaaal

#8180000
b1001110 aaaal

#8220000
b1 aaaaj
b1001111 aaaal

#8260000
b111 aaaaj
b1010000 aaaal

#8300000
b101 aaaaj
b1010001 aaaal

#8340000
b11 aaaaj
b1010010 aaaal

#8380000
b101 aaaaj
b1010011 aaaal

#8420000
b110 aaaaj
b1010100 aaaal

#8460000
b0 aaaaj
b1010101 aaaal

#8500000
b110 aaaaj
b1010110 aaaal

#8540000
b10 aaaaj
b1010111 aaaal

#8580000
b11 aaaaj
b1011000 aaaal

#8620000
b0 aaaaa
b1111010010 aaaac
bZZZZZZZZ aaaaj
bZZZZZZZZZZ aaaal
1aaaam
zaaaap
0aaaaq
zaaaat

#8630000
b100 aaaaa
b1111010011 aaaac

#8640000
b1 aaaaa
b1111010100 aaaac

#8650000
b11 aaaaa
b1111010101 aaaac

#8660000
b10 aaaaa
b1111010110 aaaac

#8670000
b111 aaaaa
b1111010111 aaaac

#8680000
b110 aaaaa
b1111011000 aaaac

#8690000
b100 aaaaa
b1111011001 aaaac

#8700000
b11 aaaaa
b1111011010 aaaac

#8710000
b100 aaaaa
b1111011011 aaaac

#8720000
b10 aaaaa
b1111011100 aaaac

#8730000
b1 aaaaa
b1111011101 aaaac

#8740000
b1111011110 aaaac

#8750000
b101 aaaaa
b1111011111 aaaac

#8760000
b111 aaaaa
b1111100000 aaaac

#8770000
b10 aaaaa
b1111100001 aaaac

#8780000
b11 aaaaa
b1111100010 aaaac

#8790000
b100 aaaaa
b1111100011 aaaac

#8800000
b110 aaaaa
b1111100100 aaaac

#8810000
b111 aaaaa
b1111100101 aaaac

#8820000
b101 aaaaa
b1111100110 aaaac

#8830000
b1 aaaaa
b1111100111 aaaac

#8840000
b111 aaaaa
b1111101000 aaaac

#8850000
b0 aaaaa
b1111101001 aaaac

#8860000
b1111101010 aaaac

#8870000
b111 aaaaa
b1111101011 aaaac

#8880000
b110 aaaaa
b1111101100 aaaac

#8890000
b1 aaaaa
b1111101101 aaaac

#8900000
b1111101110 aaaac

#8910000
b10 aaaaa
b1111101111 aaaac

#8920000
b110 aaaaa
b1111110000 aaaac

#8930000
b100 aaaaa
b1111110001 aaaac

#8940000
b1 aaaaa
b1111110010 aaaac

#8950000
b100 aaaaa
b1111110011 aaaac

#8960000
b10 aaaaa
b1111110100 aaaac

#8970000
b111 aaaaa
b1111110101 aaaac

#8980000
b101 aaaaa
b1111110110 aaaac

#8990000
b1 aaaaa
b1111110111 aaaac

#9000000
b10 aaaaa
b1111111000 aaaac

#9010000
b111 aaaaa
b1111111001 aaaac

#9020000
b110 aaaaa
b1111111010 aaaac

#9030000
b111 aaaaa
b1111111011 aaaac

#9040000
b11 aaaaa
b1111111100 aaaac

#9050000
b101 aaaaa
b1111111101 aaaac

#9060000
b11 aaaaa
b1111111110 aaaac

#9070000
b1 aaaaa
b1111111111 aaaac

#9080000
b10 aaaaa
b0 aaaac

#9090000
b0 aaaaa
b1 aaaac

#9100000
b110 aaaaa
b10 aaaac

#9110000
b11 aaaac

#9120000
b10 aaaaa
b100 aaaac

#9130000
b11 aaaaa
b101 aaaac

#9140000
b101 aaaaa
b110 aaaac

#9150000
b111 aaaac

#9160000
b100 aaaaa
b1000 aaaac

#9170000
b1 aaaaa
b1001 aaaac

#9180000
b10 aaaaa
b1010 aaaac

#9190000
b100 aaaaa
b1011 aaaac

#9200000
b110 aaaaa
b1100 aaaac

#9210000
b1101 aaaac

#9220000
b101 aaaaa
b1110 aaaac

#9230000
b10 aaaaa
b1111 aaaac

#9240000
b111 aaaaa
b10000 aaaac

#9250000
b0 aaaaa
b10001 aaaac

#9260000
bZZZZZZZZ aaaaa
bZZZZZZZZZZ aaaac
b111 aaaad
b1000010010 aaaaf
zaaaam
1aaaan
zaaaaq
0aaaar

#9280000
b11 aaaad
b1000010011 aaaaf

#9300000
b0 aaaad
b1000010100 aaaaf

#9320000
b111 aaaad
b1000010101 aaaaf

#9340000
b101 aaaad
b1000010110 aaaaf

#9360000
b111 aaaad
b1000010111 aaaaf

#9380000
b110 aaaad
b1000011000 aaaaf

#9400000
b111 aaaad
b1000011001 aaaaf

#9420000
b10 aaaad
b1000011010 aaaaf

#9440000
b0 aaaad
b1000011011 aaaaf

#9460000
b111 aaaad
b1000011100 aaaaf

#9480000
b11 aaaad
b1000011101 aaaaf

#9500000
b1000011110 aaaaf

#9520000
b100 aaaad
b1000011111 aaaaf

#9540000
b111 aaaad
b1000100000 aaaaf

#9560000
b100 aaaad
b1000100001 aaaaf

#9580000
b0 aaaad
b1000100010 aaaaf

#9600000
b1 aaaad
b1000100011 aaaaf

#9620000
b101 aaaad
b1000100100 aaaaf

#9640000
b11 aaaad
b1000100101 aaaaf

#9660000
b10 aaaad
b1000100110 aaaaf

#9680000
b1000100111 aaaaf

#9700000
b111 aaaad
b1000101000 aaaaf

#9720000
b1 aaaad
b1000101001 aaaaf

#9740000
b1000101010 aaaaf

#9760000
b10 aaaad
b1000101011 aaaaf

#9780000
b110 aaaad
b1000101100 aaaaf

#9800000
b0 aaaad
b1000101101 aaaaf

#9820000
b101 aaaad
b1000101110 aaaaf

#9840000
b1 aaaad
b1000101111 aaaaf

#9860000
b10 aaaad
b1000110000 aaaaf

#9880000
b1 aaaad
b1000110001 aaaaf

#9900000
b100 aaaad
b1000110010 aaaaf

#9920000
b101 aaaad
b1000110011 aaaaf

#9940000
b111 aaaad
b1000110100 aaaaf

#9960000
b0 aaaad
b1000110101 aaaaf

#9980000
b11 aaaad
b1000110110 aaaaf

