Homework6_multiexchr/Homework6_multiexchr/dataExchange.vcd
$date
     May 01, 2017       22:28:34
$end

$version
 SystemC 2.3.1-Accellera --- Feb 20 2017 20:34:49
$end

$timescale
     1 ps
$end

$scope module SystemC $end
$var wire    8  aaaaa  inb [7:0]  $end
$var wire    8  aaaab  oub [7:0]  $end
$var wire   10  aaaac  adb [9:0]  $end
$var wire    1  aaaad  cs1       $end
$var wire    1  aaaae  cs2       $end
$var wire    1  aaaaf  cs3       $end
$var wire    1  aaaag  cs4       $end
$var wire    1  aaaah  rwb       $end
$upscope $end
$enddefinitions  $end

$comment
All initial values are dumped below at time 0 sec = 0 timescale units.
$end

$dumpvars
bXXXXXXXX aaaaa
bXXXXXXXX aaaab
bXXXXXXXXXX aaaac
xaaaad
xaaaae
xaaaaf
xaaaag
xaaaah
$end

#300000
b11 aaaaa
b1011100000 aaaac
1aaaad
0aaaah

#310000
b101 aaaaa
b1011100001 aaaac

#320000
b0 aaaaa
b1011100010 aaaac

#330000
b1011100011 aaaac

#340000
b10 aaaaa
b1011100100 aaaac

#350000
b101 aaaaa
b1011100101 aaaac

#360000
b11 aaaaa
b1011100110 aaaac

#370000
b1 aaaaa
b1011100111 aaaac

#380000
b10 aaaaa
b1011101000 aaaac

#390000
b1011101001 aaaac

#400000
b111 aaaaa
b1011101010 aaaac

#410000
b0 aaaaa
b1011101011 aaaac

#420000
b1 aaaaa
b1011101100 aaaac

#430000
b0 aaaaa
b1011101101 aaaac

#440000
b100 aaaaa
b1011101110 aaaac

#450000
b10 aaaaa
b1011101111 aaaac

#460000
b100 aaaaa
b1011110000 aaaac

#470000
b11 aaaaa
b1011110001 aaaac

#480000
b1 aaaaa
b1011110010 aaaac

#490000
b11 aaaaa
b1011110011 aaaac

#500000
b110 aaaaa
b1011110100 aaaac

#510000
b111 aaaaa
b1011110101 aaaac

#520000
b10 aaaaa
b1011110110 aaaac

#530000
b100 aaaaa
b1011110111 aaaac

#540000
b0 aaaaa
b1011111000 aaaac

#550000
b100 aaaaa
b1011111001 aaaac

#560000
b1011111010 aaaac

#570000
b101 aaaaa
b1011111011 aaaac

#580000
b100 aaaaa
b1011111100 aaaac

#590000
b1011111101 aaaac

#600000
b1011111110 aaaac

#610000
b1011111111 aaaac

#620000
b110 aaaaa
b1100000000 aaaac

#630000
b111 aaaaa
b1100000001 aaaac

#640000
b100 aaaaa
b1100000010 aaaac

#650000
b1100000011 aaaac

#660000
b101 aaaaa
b1100000100 aaaac

#670000
b10 aaaaa
b1100000101 aaaac

#680000
b0 aaaaa
b1100000110 aaaac

#690000
b10 aaaaa
b1100000111 aaaac

#700000
b110 aaaaa
b1100001000 aaaac

#710000
b11 aaaaa
b1100001001 aaaac

#720000
b1 aaaaa
b1100001010 aaaac

#730000
b100 aaaaa
b1100001011 aaaac

#740000
b10 aaaaa
b1100001100 aaaac

#750000
b111 aaaaa
b1100001101 aaaac

#760000
b1100001110 aaaac

#770000
b11 aaaaa
b1100001111 aaaac

#780000
b1 aaaaa
b1100010000 aaaac

#790000
b0 aaaaa
b1100010001 aaaac

#800000
b100 aaaaa
b1100010010 aaaac

#810000
b10 aaaaa
b1100010011 aaaac

#820000
b111 aaaaa
b1100010100 aaaac

#830000
b1 aaaaa
b1100010101 aaaac

#840000
b110 aaaaa
b1100010110 aaaac

#850000
b111 aaaaa
b1100010111 aaaac

#860000
b110 aaaaa
b1100011000 aaaac

#870000
b100 aaaaa
b1100011001 aaaac

#880000
b110 aaaaa
b1100011010 aaaac

#890000
b1 aaaaa
b1100011011 aaaac

#900000
b101 aaaaa
b1100011100 aaaac

#910000
b111 aaaaa
b1100011101 aaaac

#920000
b1100011110 aaaac

#930000
b11 aaaaa
b1100011111 aaaac

#940000
b110 aaaaa
b110011010 aaaac
zaaaad
1aaaae

#960000
b100 aaaaa
b110011011 aaaac

#980000
b110011100 aaaac

#1000000
b10 aaaaa
b110011101 aaaac

#1020000
b0 aaaaa
b110011110 aaaac

#1040000
b101 aaaaa
b110011111 aaaac

#1060000
b0 aaaaa
b110100000 aaaac

#1080000
b110100001 aaaac

#1100000
b110100010 aaaac

#1120000
b111 aaaaa
b110100011 aaaac

#1140000
b10 aaaaa
b110100100 aaaac

#1160000
b1 aaaaa
b110100101 aaaac

#1180000
b0 aaaaa
b110100110 aaaac

#1200000
b110 aaaaa
b110100111 aaaac

#1220000
b0 aaaaa
b110101000 aaaac

#1240000
b100 aaaaa
b110101001 aaaac

#1260000
b110101010 aaaac

#1280000
b1 aaaaa
b110101011 aaaac

#1300000
b10 aaaaa
b110101100 aaaac

#1320000
b110 aaaaa
b110101101 aaaac

#1340000
b10 aaaaa
b110101110 aaaac

#1360000
b111 aaaaa
b110101111 aaaac

#1380000
b1 aaaaa
b110110000 aaaac

#1400000
b111 aaaaa
b110110001 aaaac

#1420000
b101 aaaaa
b110110010 aaaac

#1440000
b110 aaaaa
b110110011 aaaac

#1460000
b0 aaaaa
b110110100 aaaac

#1480000
b101 aaaaa
b110110101 aaaac

#1500000
b10 aaaaa
b110110110 aaaac

#1520000
b110110111 aaaac

#1540000
b110111000 aaaac

#1560000
b111 aaaaa
b110111001 aaaac

#1580000
b10 aaaaa
b110111010 aaaac

#1600000
b100 aaaaa
b110111011 aaaac

#1620000
b110111100 aaaac

#1640000
b101 aaaaa
b110111101 aaaac

#1660000
b1 aaaaa
b110111110 aaaac

#1680000
b11 aaaaa
b110111111 aaaac

#1700000
b100 aaaaa
b111000000 aaaac

#1720000
b111 aaaaa
b111000001 aaaac

#1740000
b110 aaaaa
b111000010 aaaac

#1760000
b111 aaaaa
b111000011 aaaac

#1780000
b11 aaaaa
b111000100 aaaac

#1800000
b111000101 aaaac

#1820000
b100 aaaaa
b111000110 aaaac

#1840000
b11 aaaaa
b111000111 aaaac

#1860000
b111 aaaaa
b111001000 aaaac

#1880000
b11 aaaaa
b111001001 aaaac

#1900000
b1 aaaaa
b111001010 aaaac

#1920000
b10 aaaaa
b111001011 aaaac

#1940000
b100 aaaaa
b111001100 aaaac

#1960000
b110 aaaaa
b111001101 aaaac

#1980000
b101 aaaaa
b111001110 aaaac

#2000000
b110 aaaaa
b111001111 aaaac

#2020000
b11 aaaaa
b111010000 aaaac

#2040000
b101 aaaaa
b111010001 aaaac

#2060000
b111010010 aaaac

#2080000
b111010011 aaaac

#2100000
b11 aaaaa
b111010100 aaaac

#2120000
b0 aaaaa
b111010101 aaaac

#2140000
b1 aaaaa
b111010110 aaaac

#2160000
b101 aaaaa
b111010111 aaaac

#2180000
b0 aaaaa
b111011000 aaaac

#2200000
b11 aaaaa
b111011001 aaaac

#2220000
b10 aaaaa
b1010100 aaaac
zaaaae
1aaaaf

#2250000
b11 aaaaa
b1010101 aaaac

#2280000
b0 aaaaa
b1010110 aaaac

#2310000
b100 aaaaa
b1010111 aaaac

#2340000
b110 aaaaa
b1011000 aaaac

#2370000
b101 aaaaa
b1011001 aaaac

#2400000
b1011010 aaaac

#2430000
b111 aaaaa
b1011011 aaaac

#2460000
b110 aaaaa
b1011100 aaaac

#2490000
b100 aaaaa
b1011101 aaaac

#2520000
b101 aaaaa
b1011110 aaaac

#2550000
b10 aaaaa
b1011111 aaaac

#2580000
b0 aaaaa
b1100000 aaaac

#2610000
b100 aaaaa
b1100001 aaaac

#2640000
b11 aaaaa
b1100010 aaaac

#2670000
b101 aaaaa
b1100011 aaaac

#2700000
b11 aaaaa
b1100100 aaaac

#2730000
b111 aaaaa
b1100101 aaaac

#2760000
b11 aaaaa
b1100110 aaaac

#2790000
b1 aaaaa
b1100111 aaaac

#2820000
b110 aaaaa
b1101000 aaaac

#2850000
b111 aaaaa
b1101001 aaaac

#2880000
b1 aaaaa
b1101010 aaaac

#2910000
b10 aaaaa
b1101011 aaaac

#2940000
b1 aaaaa
b1101100 aaaac

#2970000
b1101101 aaaac

#3000000
b100 aaaaa
b1101110 aaaac

#3030000
b101 aaaaa
b1101111 aaaac

#3060000
b0 aaaaa
b1110000 aaaac

#3090000
b1110001 aaaac

#3120000
b1110010 aaaac

#3150000
b11 aaaaa
b1110011 aaaac

#3180000
b101 aaaaa
b1110100 aaaac

#3210000
b0 aaaaa
b1110101 aaaac

#3240000
b100 aaaaa
b1110110 aaaac

#3270000
b110 aaaaa
b1110111 aaaac

#3300000
b100 aaaaa
b1111000 aaaac

#3330000
b101 aaaaa
b1111001 aaaac

#3360000
b1 aaaaa
b1111010 aaaac

#3390000
b100 aaaaa
b1111011 aaaac

#3420000
b110 aaaaa
b1111100 aaaac

#3450000
b11 aaaaa
b1111101 aaaac

#3480000
b101 aaaaa
b1111110 aaaac

#3510000
b10 aaaaa
b1111111 aaaac

#3540000
b110 aaaaa
b10000000 aaaac

#3570000
b111 aaaaa
b10000001 aaaac

#3600000
b10000010 aaaac

#3630000
b11 aaaaa
b10000011 aaaac

#3660000
b0 aaaaa
b10000100 aaaac

#3690000
b101 aaaaa
b10000101 aaaac

#3720000
b11 aaaaa
b10000110 aaaac

#3750000
b1 aaaaa
b10000111 aaaac

#3780000
b11 aaaaa
b10001000 aaaac

#3810000
b10001001 aaaac

#3840000
b0 aaaaa
b10001010 aaaac

#3870000
b11 aaaaa
b10001011 aaaac

#3900000
b100 aaaaa
b10001100 aaaac

#3930000
b110 aaaaa
b10001101 aaaac

#3960000
b1 aaaaa
b10001110 aaaac

#3990000
b111 aaaaa
b10001111 aaaac

#4020000
b101 aaaaa
b10010000 aaaac

#4050000
b100 aaaaa
b10010001 aaaac

#4080000
b1 aaaaa
b10010010 aaaac

#4110000
b10 aaaaa
b10010011 aaaac

#4140000
b1 aaaaa
b10111111 aaaac
1aaaad
zaaaaf

#4150000
b0 aaaaa
b11000000 aaaac

#4160000
b1 aaaaa
b11000001 aaaac

#4170000
b110 aaaaa
b11000010 aaaac

#4180000
b11 aaaaa
b11000011 aaaac

#4190000
b110 aaaaa
b11000100 aaaac

#4200000
b0 aaaaa
b11000101 aaaac

#4210000
b1 aaaaa
b11000110 aaaac

#4220000
b101 aaaaa
b11000111 aaaac

#4230000
b100 aaaaa
b11001000 aaaac

#4240000
b11 aaaaa
b11001001 aaaac

#4250000
b100 aaaaa
b11001010 aaaac

#4260000
b110 aaaaa
b11001011 aaaac

#4270000
b100 aaaaa
b11001100 aaaac

#4280000
b11 aaaaa
b11001101 aaaac

#4290000
b0 aaaaa
b11001110 aaaac

#4300000
b1 aaaaa
b11001111 aaaac

#4310000
b11 aaaaa
b11010000 aaaac

#4320000
b110 aaaaa
b11010001 aaaac

#4330000
b10 aaaaa
b11010010 aaaac

#4340000
b100 aaaaa
b11010011 aaaac

#4350000
b0 aaaaa
b11010100 aaaac

#4360000
b11 aaaaa
b11010101 aaaac

#4370000
b0 aaaaa
b11010110 aaaac

#4380000
b11 aaaaa
b11010111 aaaac

#4390000
b101 aaaaa
b11011000 aaaac

#4400000
b11011001 aaaac

#4410000
b10 aaaaa
b11011010 aaaac

#4420000
b100 aaaaa
b11011011 aaaac

#4430000
b1 aaaaa
b11011100 aaaac

#4440000
b110 aaaaa
b11011101 aaaac

#4450000
b101 aaaaa
b11011110 aaaac

#4460000
b100 aaaaa
b11011111 aaaac

#4470000
b11100000 aaaac

#4480000
b110 aaaaa
b11100001 aaaac

#4490000
b101 aaaaa
b11100010 aaaac

#4500000
b10 aaaaa
b11100011 aaaac

#4510000
b101 aaaaa
b11100100 aaaac

#4520000
b100 aaaaa
b11100101 aaaac

#4530000
b11100110 aaaac

#4540000
b10 aaaaa
b11100111 aaaac

#4550000
b1 aaaaa
b11101000 aaaac

#4560000
b100 aaaaa
b11101001 aaaac

#4570000
b110 aaaaa
b11101010 aaaac

#4580000
b101 aaaaa
b11101011 aaaac

#4590000
b11101100 aaaac

#4600000
b10 aaaaa
b11101101 aaaac

#4610000
b0 aaaaa
b11101110 aaaac

#4620000
b110 aaaaa
b11101111 aaaac

#4630000
b11110000 aaaac

#4640000
b11110001 aaaac

#4650000
b0 aaaaa
b11110010 aaaac

#4660000
b11110011 aaaac

#4670000
b110 aaaaa
b11110100 aaaac

#4680000
b1 aaaaa
b11110101 aaaac

#4690000
b110 aaaaa
b11110110 aaaac

#4700000
b111 aaaaa
b11110111 aaaac

#4710000
b10 aaaaa
b11111000 aaaac

#4720000
b110 aaaaa
b11111001 aaaac

#4730000
b11 aaaaa
b11111010 aaaac

#4740000
b101 aaaaa
b11111011 aaaac

#4750000
b1 aaaaa
b11111100 aaaac

#4760000
b100 aaaaa
b11111101 aaaac

#4770000
b0 aaaaa
b11111110 aaaac

#4780000
b1 aaaaa
b10101010 aaaac
zaaaad
1aaaae

#4800000
b10101011 aaaac

#4820000
b100 aaaaa
b10101100 aaaac

#4840000
b0 aaaaa
b10101101 aaaac

#4860000
b101 aaaaa
b10101110 aaaac

#4880000
b110 aaaaa
b10101111 aaaac

#4900000
b10110000 aaaac

#4920000
b11 aaaaa
b10110001 aaaac

#4940000
b110 aaaaa
b10110010 aaaac

#4960000
b10 aaaaa
b10110011 aaaac

#4980000
b10110100 aaaac

#5000000
b1 aaaaa
b10110101 aaaac

#5020000
b110 aaaaa
b10110110 aaaac

#5040000
b101 aaaaa
b10110111 aaaac

#5060000
b100 aaaaa
b10111000 aaaac

#5080000
b111 aaaaa
b10111001 aaaac

#5100000
b110 aaaaa
b10111010 aaaac

#5120000
b10111011 aaaac

#5140000
b100 aaaaa
b10111100 aaaac

#5160000
b11 aaaaa
b10111101 aaaac

#5180000
b100 aaaaa
b10111110 aaaac

#5200000
b111 aaaaa
b10111111 aaaac

#5220000
b11000000 aaaac

#5240000
b10 aaaaa
b11000001 aaaac

#5260000
b0 aaaaa
b11000010 aaaac

#5280000
b11000011 aaaac

#5300000
b101 aaaaa
b11000100 aaaac

#5320000
b11000101 aaaac

#5340000
b10 aaaaa
b11000110 aaaac

#5360000
b1 aaaaa
b11000111 aaaac

#5380000
b100 aaaaa
b11001000 aaaac

#5400000
b1 aaaaa
b11001001 aaaac

#5420000
b110 aaaaa
b11001010 aaaac

#5440000
b10 aaaaa
b11001011 aaaac

#5460000
b101 aaaaa
b11001100 aaaac

#5480000
b111 aaaaa
b11001101 aaaac

#5500000
b10 aaaaa
b11001110 aaaac

#5520000
b101 aaaaa
b11001111 aaaac

#5540000
b11010000 aaaac

#5560000
b1 aaaaa
b11010001 aaaac

#5580000
b111 aaaaa
b11010010 aaaac

#5600000
b11010011 aaaac

#5620000
b11010100 aaaac

#5640000
b110 aaaaa
b11010101 aaaac

#5660000
b11010110 aaaac

#5680000
b11 aaaaa
b11010111 aaaac

#5700000
b111 aaaaa
b11011000 aaaac

#5720000
b0 aaaaa
b11011001 aaaac

#5740000
b101 aaaaa
b11011010 aaaac

#5760000
b0 aaaaa
b11011011 aaaac

#5780000
b10 aaaaa
b11011100 aaaac

#5800000
b100 aaaaa
b11011101 aaaac

#5820000
b10 aaaaa
b11011110 aaaac

#5840000
b100 aaaaa
b11011111 aaaac

#5860000
b101 aaaaa
b11100000 aaaac

#5880000
b10 aaaaa
b11100001 aaaac

#5900000
b0 aaaaa
b11100010 aaaac

#5920000
b11100011 aaaac

#5940000
b11 aaaaa
b11100100 aaaac

#5960000
b110 aaaaa
b11100101 aaaac

#5980000
b0 aaaaa
b11100110 aaaac

#6000000
b101 aaaaa
b11100111 aaaac

#6020000
b11 aaaaa
b11101000 aaaac

#6040000
b110 aaaaa
b11101001 aaaac

#6060000
b1100001110 aaaac
zaaaae
1aaaag

#6100000
b11 aaaaa
b1100001111 aaaac

#6140000
b1100010000 aaaac

#6180000
b101 aaaaa
b1100010001 aaaac

#6220000
b11 aaaaa
b1100010010 aaaac

#6260000
b101 aaaaa
b1100010011 aaaac

#6300000
b11 aaaaa
b1100010100 aaaac

#6340000
b110 aaaaa
b1100010101 aaaac

#6380000
b100 aaaaa
b1100010110 aaaac

#6420000
b10 aaaaa
b1100010111 aaaac

#6460000
b0 aaaaa
b1100011000 aaaac

#6500000
b11 aaaaa
b1100011001 aaaac

#6540000
b0 aaaaa
b1100011010 aaaac

#6580000
b11 aaaaa
b1100011011 aaaac

#6620000
b111 aaaaa
b1100011100 aaaac

#6660000
b1100011101 aaaac

#6700000
b11 aaaaa
b1100011110 aaaac

#6740000
b101 aaaaa
b1100011111 aaaac

#6780000
b100 aaaaa
b1100100000 aaaac

#6820000
b1100100001 aaaac

#6860000
b1 aaaaa
b1100100010 aaaac

#6900000
b111 aaaaa
b1100100011 aaaac

#6940000
b0 aaaaa
b1100100100 aaaac

#6980000
b100 aaaaa
b1100100101 aaaac

#7020000
b110 aaaaa
b1100100110 aaaac

#7060000
b100 aaaaa
b1100100111 aaaac

#7100000
b0 aaaaa
b1100101000 aaaac

#7140000
b100 aaaaa
b1100101001 aaaac

#7180000
b110 aaaaa
b1100101010 aaaac

#7220000
b111 aaaaa
b1100101011 aaaac

#7260000
b110 aaaaa
b1100101100 aaaac

#7300000
b1100101101 aaaac

#7340000
b0 aaaaa
b1100101110 aaaac

#7380000
b100 aaaaa
b1100101111 aaaac

#7420000
b1100110000 aaaac

#7460000
b111 aaaaa
b1100110001 aaaac

#7500000
b0 aaaaa
b1100110010 aaaac

#7540000
b111 aaaaa
b1100110011 aaaac

#7580000
b110 aaaaa
b1100110100 aaaac

#7620000
b1 aaaaa
b1100110101 aaaac

#7660000
b101 aaaaa
b1100110110 aaaac

#7700000
b111 aaaaa
b1100110111 aaaac

#7740000
b1100111000 aaaac

#7780000
b1 aaaaa
b1100111001 aaaac

#7820000
b0 aaaaa
b1100111010 aaaac

#7860000
b10 aaaaa
b1100111011 aaaac

#7900000
b111 aaaaa
b1100111100 aaaac

#7940000
b11 aaaaa
b1100111101 aaaac

#7980000
b111 aaaaa
b1100111110 aaaac

#8020000
b1100111111 aaaac

#8060000
b11 aaaaa
b1101000000 aaaac

#8100000
b100 aaaaa
b1101000001 aaaac

#8140000
b1 aaaaa
b1101000010 aaaac

#8180000
b0 aaaaa
b1101000011 aaaac

#8220000
b101 aaaaa
b1101000100 aaaac

#8260000
b1 aaaaa
b1101000101 aaaac

#8300000
b11 aaaaa
b1101000110 aaaac

#8340000
b111 aaaaa
b1101000111 aaaac

#8380000
b110 aaaaa
b1101001000 aaaac

#8420000
b1101001001 aaaac

#8460000
b10 aaaaa
b1101001010 aaaac

#8500000
b1101001011 aaaac

#8540000
b1 aaaaa
b1101001100 aaaac

#8580000
b10 aaaaa
b1101001101 aaaac

#8620000
b0 aaaaa
b111101110 aaaac
1aaaad
zaaaag

#8630000
b100 aaaaa
b111101111 aaaac

#8640000
b11 aaaaa
b111110000 aaaac

#8650000
b101 aaaaa
b111110001 aaaac

#8660000
b100 aaaaa
b111110010 aaaac

#8670000
b110 aaaaa
b111110011 aaaac

#8680000
b111110100 aaaac

#8690000
b0 aaaaa
b111110101 aaaac

#8700000
b111110110 aaaac

#8710000
b111110111 aaaac

#8720000
b1 aaaaa
b111111000 aaaac

#8730000
b10 aaaaa
b111111001 aaaac

#8740000
b0 aaaaa
b111111010 aaaac

#8750000
b1 aaaaa
b111111011 aaaac

#8760000
b111111100 aaaac

#8770000
b111 aaaaa
b111111101 aaaac

#8780000
b100 aaaaa
b111111110 aaaac

#8790000
b11 aaaaa
b111111111 aaaac

#8800000
b0 aaaaa
b1000000000 aaaac

#8810000
b101 aaaaa
b1000000001 aaaac

#8820000
b1 aaaaa
b1000000010 aaaac

#8830000
b0 aaaaa
b1000000011 aaaac

#8840000
b110 aaaaa
b1000000100 aaaac

#8850000
b10 aaaaa
b1000000101 aaaac

#8860000
b100 aaaaa
b1000000110 aaaac

#8870000
b111 aaaaa
b1000000111 aaaac

#8880000
b0 aaaaa
b1000001000 aaaac

#8890000
b1000001001 aaaac

#8900000
b1 aaaaa
b1000001010 aaaac

#8910000
b110 aaaaa
b1000001011 aaaac

#8920000
b1 aaaaa
b1000001100 aaaac

#8930000
b0 aaaaa
b1000001101 aaaac

#8940000
b11 aaaaa
b1000001110 aaaac

#8950000
b10 aaaaa
b1000001111 aaaac

#8960000
b111 aaaaa
b1000010000 aaaac

#8970000
b110 aaaaa
b1000010001 aaaac

#8980000
b101 aaaaa
b1000010010 aaaac

#8990000
b1000010011 aaaac

#9000000
b111 aaaaa
b1000010100 aaaac

#9010000
b1 aaaaa
b1000010101 aaaac

#9020000
b0 aaaaa
b1000010110 aaaac

#9030000
b111 aaaaa
b1000010111 aaaac

#9040000
b11 aaaaa
b1000011000 aaaac

#9050000
b110 aaaaa
b1000011001 aaaac

#9060000
b1000011010 aaaac

#9070000
b0 aaaaa
b1000011011 aaaac

#9080000
b11 aaaaa
b1000011100 aaaac

#9090000
b101 aaaaa
b1000011101 aaaac

#9100000
b110 aaaaa
b1000011110 aaaac

#9110000
b101 aaaaa
b1000011111 aaaac

#9120000
b10 aaaaa
b1000100000 aaaac

#9130000
b100 aaaaa
b1000100001 aaaac

#9140000
b1 aaaaa
b1000100010 aaaac

#9150000
b1000100011 aaaac

#9160000
b10 aaaaa
b1000100100 aaaac

#9170000
b1000100101 aaaac

#9180000
b101 aaaaa
b1000100110 aaaac

#9190000
b110 aaaaa
b1000100111 aaaac

#9200000
b10 aaaaa
b1000101000 aaaac

#9210000
b111 aaaaa
b1000101001 aaaac

#9220000
b1000101010 aaaac

#9230000
b100 aaaaa
b1000101011 aaaac

#9240000
b111 aaaaa
b1000101100 aaaac

#9250000
b11 aaaaa
b1000101101 aaaac

#9260000
b111 aaaaa
b1001001001 aaaac
zaaaad
1aaaae

#9280000
b1 aaaaa
b1001001010 aaaac

#9300000
b100 aaaaa
b1001001011 aaaac

#9320000
b11 aaaaa
b1001001100 aaaac

#9340000
b10 aaaaa
b1001001101 aaaac

#9360000
b100 aaaaa
b1001001110 aaaac

#9380000
b110 aaaaa
b1001001111 aaaac

#9400000
b0 aaaaa
b1001010000 aaaac

#9420000
b11 aaaaa
b1001010001 aaaac

#9440000
b0 aaaaa
b1001010010 aaaac

#9460000
b100 aaaaa
b1001010011 aaaac

#9480000
b1001010100 aaaac

#9500000
b0 aaaaa
b1001010101 aaaac

#9520000
b101 aaaaa
b1001010110 aaaac

#9540000
b10 aaaaa
b1001010111 aaaac

#9560000
b110 aaaaa
b1001011000 aaaac

#9580000
b10 aaaaa
b1001011001 aaaac

#9600000
b111 aaaaa
b1001011010 aaaac

#9620000
b0 aaaaa
b1001011011 aaaac

#9640000
b1001011100 aaaac

#9660000
b10 aaaaa
b1001011101 aaaac

#9680000
b111 aaaaa
b1001011110 aaaac

#9700000
b110 aaaaa
b1001011111 aaaac

#9720000
b100 aaaaa
b1001100000 aaaac

#9740000
b10 aaaaa
b1001100001 aaaac

#9760000
b1001100010 aaaac

#9780000
b11 aaaaa
b1001100011 aaaac

#9800000
b111 aaaaa
b1001100100 aaaac

#9820000
b101 aaaaa
b1001100101 aaaac

#9840000
b1 aaaaa
b1001100110 aaaac

#9860000
b0 aaaaa
b1001100111 aaaac

#9880000
b11 aaaaa
b1001101000 aaaac

#9900000
b1 aaaaa
b1001101001 aaaac

#9920000
b1001101010 aaaac

#9940000
b0 aaaaa
b1001101011 aaaac

#9960000
b111 aaaaa
b1001101100 aaaac

#9980000
b100 aaaaa
b1001101101 aaaac

