Homework6_multiexchr/Homework6_multiexchr/dataExchange.vcd
$date
     May 03, 2017       00:23:44
$end

$version
 SystemC 2.3.1-Accellera --- Feb 20 2017 20:34:49
$end

$timescale
     1 ps
$end

$scope module SystemC $end
$var wire    8  aaaaa  inb1 [7:0]  $end
$var wire    8  aaaab  oub1 [7:0]  $end
$var wire   10  aaaac  adb1 [9:0]  $end
$var wire    8  aaaad  inb2 [7:0]  $end
$var wire    8  aaaae  oub2 [7:0]  $end
$var wire   10  aaaaf  adb2 [9:0]  $end
$var wire    8  aaaag  inb3 [7:0]  $end
$var wire    8  aaaah  oub3 [7:0]  $end
$var wire   10  aaaai  adb3 [9:0]  $end
$var wire    8  aaaaj  inb4 [7:0]  $end
$var wire    8  aaaak  oub4 [7:0]  $end
$var wire   10  aaaal  adb4 [9:0]  $end
$var wire    1  aaaam  cs1       $end
$var wire    1  aaaan  cs2       $end
$var wire    1  aaaao  cs3       $end
$var wire    1  aaaap  cs4       $end
$var wire    1  aaaaq  rwb1       $end
$var wire    1  aaaar  rwb2       $end
$var wire    1  aaaas  rwb3       $end
$var wire    1  aaaat  rwb4       $end
$upscope $end
$enddefinitions  $end

$comment
All initial values are dumped below at time 0 sec = 0 timescale units.
$end

$dumpvars
bXXXXXXXX aaaaa
bXXXXXXXX aaaab
bXXXXXXXXXX aaaac
bXXXXXXXX aaaad
bXXXXXXXX aaaae
bXXXXXXXXXX aaaaf
bXXXXXXXX aaaag
bXXXXXXXX aaaah
bXXXXXXXXXX aaaai
bXXXXXXXX aaaaj
bXXXXXXXX aaaak
bXXXXXXXXXX aaaal
xaaaam
xaaaan
xaaaao
xaaaap
xaaaaq
xaaaar
xaaaas
xaaaat
$end

#30000
b100 aaaaa
b1100100 aaaac
b100101100 aaaai
b110010000 aaaal
1aaaam
1aaaao
1aaaap
0aaaaq
1aaaas
1aaaat

#31000
b101 aaaaa
b1100101 aaaac
b100101101 aaaai
b110010001 aaaal

#32000
bZZZZZZZZ aaaaa
bZZZZZZZZZZ aaaac
b11 aaaad
b11001000 aaaaf
b100101110 aaaai
b110010010 aaaal
zaaaam
1aaaan
zaaaaq
0aaaar

#33000
b101 aaaad
b11001001 aaaaf
b100101111 aaaai
b110010011 aaaal

#34000
b0 aaaad
b11001010 aaaaf
b100110000 aaaai
b110010100 aaaal

#35000
b1 aaaad
b11001011 aaaaf
b100110001 aaaai
b110010101 aaaal

#36000
b100 aaaad
b11001100 aaaaf
b100110010 aaaai
b110010110 aaaal

#37000
b1 aaaad
b11001101 aaaaf
b100110011 aaaai
b110010111 aaaal

#38000
b11 aaaad
b11001110 aaaaf
b100110100 aaaai
b110011000 aaaal

#39000
b0 aaaad
b11001111 aaaaf
b100110101 aaaai
b110011001 aaaal

#40000
b101 aaaad
b11010000 aaaaf
b100110110 aaaai
b110011010 aaaal

#41000
b11 aaaad
b11010001 aaaaf
b100110111 aaaai
b110011011 aaaal

#42000
b101 aaaad
b11010010 aaaaf
b100111000 aaaai
b110011100 aaaal

#43000
b11 aaaad
b11010011 aaaaf
b100111001 aaaai
b110011101 aaaal

#44000
b111 aaaad
b11010100 aaaaf
b100111010 aaaai
b110011110 aaaal

#45000
b0 aaaad
b11010101 aaaaf
b100111011 aaaai
b110011111 aaaal

#46000
b111 aaaad
b11010110 aaaaf
b100111100 aaaai
b110100000 aaaal

#47000
b0 aaaad
b11010111 aaaaf
b100111101 aaaai
b110100001 aaaal

#48000
b111 aaaad
b11011000 aaaaf
b100111110 aaaai
b110100010 aaaal

#49000
b11011001 aaaaf
b100111111 aaaai
b110100011 aaaal

#50000
b100 aaaad
b11011010 aaaaf
b101000000 aaaai
b110100100 aaaal

#51000
b101 aaaad
b11011011 aaaaf
b101000001 aaaai
b110100101 aaaal

#52000
b10 aaaad
b11011100 aaaaf
b101000010 aaaai
b110100110 aaaal

#53000
b111 aaaad
b11011101 aaaaf
b101000011 aaaai
b110100111 aaaal

#54000
b101 aaaad
b11011110 aaaaf
b101000100 aaaai
b110101000 aaaal

#55000
b0 aaaad
b11011111 aaaaf
b101000101 aaaai
b110101001 aaaal

#56000
b101 aaaad
b11100000 aaaaf
b101000110 aaaai
b110101010 aaaal

#57000
b100 aaaad
b11100001 aaaaf
b101000111 aaaai
b110101011 aaaal

#58000
b101 aaaad
b11100010 aaaaf
b101001000 aaaai
b110101100 aaaal

#59000
b100 aaaad
b11100011 aaaaf
b101001001 aaaai
b110101101 aaaal

#60000
b110 aaaad
b11100100 aaaaf
b101001010 aaaai
zaaaap
zaaaat

#61000
b100 aaaad
b11100101 aaaaf
b101001011 aaaai

#62000
b100 aaaab
b1100100 aaaac
b111 aaaad
b111 aaaae
b11100110 aaaaf
b0 aaaah
b101001100 aaaai
1aaaam
1aaaaq

#63000
b101 aaaab
b1100101 aaaac
b101 aaaad
b101 aaaae
b11100111 aaaaf
b101001101 aaaai

#64000
b0 aaaab
b1100110 aaaac
bZZZZZZZZ aaaad
bZZZZZZZZZZ aaaaf
b101001110 aaaai
zaaaan
zaaaar

#65000
b1100111 aaaac
b101001111 aaaai

#66000
b1101000 aaaac
b101010000 aaaai

#67000
b1101001 aaaac
b101010001 aaaai

#68000
b1101010 aaaac
b101010010 aaaai

#69000
b1101011 aaaac
b101010011 aaaai

#70000
b1101100 aaaac
b101010100 aaaai

#71000
b1101101 aaaac
b101010101 aaaai

#72000
b1101110 aaaac
b101010110 aaaai

#73000
b1101111 aaaac
b101010111 aaaai

#74000
b1110000 aaaac
b101011000 aaaai

#75000
b1110001 aaaac
b101011001 aaaai

#76000
b1110010 aaaac
b101011010 aaaai

#77000
b1110011 aaaac
b101011011 aaaai

#78000
b1110100 aaaac
b101011100 aaaai

#79000
b1110101 aaaac
b101011101 aaaai

#80000
b1110110 aaaac
b101011110 aaaai

#81000
b1110111 aaaac
b101011111 aaaai

#82000
b1111000 aaaac
b101100000 aaaai

#83000
b1111001 aaaac
b101100001 aaaai

#84000
b1111010 aaaac
b101100010 aaaai

#85000
b1111011 aaaac
b101100011 aaaai

#86000
b1111100 aaaac
b101100100 aaaai

#87000
b1111101 aaaac
b101100101 aaaai

#88000
b1111110 aaaac
b101100110 aaaai

#89000
b1111111 aaaac
b101100111 aaaai

#90000
b10000000 aaaac
b101101000 aaaai
b0 aaaak
b110010000 aaaal
1aaaap
1aaaat

#91000
b10000001 aaaac
b101101001 aaaai
b110010001 aaaal

#92000
b10000010 aaaac
b110010010 aaaal
zaaaao
zaaaas

#93000
b10000011 aaaac
b110010011 aaaal

#94000
b10000100 aaaac
b11 aaaae
b11001000 aaaaf
b110010100 aaaal
1aaaan
1aaaar

#95000
b10000101 aaaac
b101 aaaae
b11001001 aaaaf
b110010101 aaaal

#96000
b10000110 aaaac
b0 aaaae
b11001010 aaaaf
b110010110 aaaal

#97000
b10000111 aaaac
b1 aaaae
b11001011 aaaaf
b110010111 aaaal

#98000
b10001000 aaaac
b100 aaaae
b11001100 aaaaf
b110011000 aaaal

#99000
b10001001 aaaac
b1 aaaae
b11001101 aaaaf
b110011001 aaaal

#100000
b10001010 aaaac
b11 aaaae
b11001110 aaaaf
zaaaap
zaaaat

#101000
b10001011 aaaac
b0 aaaae
b11001111 aaaaf

#102000
b10001100 aaaac
b101 aaaae
b11010000 aaaaf

#103000
b10001101 aaaac
b11 aaaae
b11010001 aaaaf

#104000
b10001110 aaaac
b101 aaaae
b11010010 aaaaf

#105000
b10001111 aaaac
b11 aaaae
b11010011 aaaaf

#106000
b10010000 aaaac
b111 aaaae
b11010100 aaaaf

#107000
b10010001 aaaac
b0 aaaae
b11010101 aaaaf

#108000
b11010110 aaaaf
zaaaam
zaaaaq

#109000
b11010111 aaaaf

#110000
b11011000 aaaaf

#111000
b11011001 aaaaf

#112000
b11011010 aaaaf

#113000
b11011011 aaaaf

#114000
b11011100 aaaaf

#115000
b11011101 aaaaf

#116000
zaaaan
zaaaar

#122000
b100 aaaag
b100101100 aaaai
1aaaao
0aaaas

#123000
b11 aaaag
b100101101 aaaai

#124000
b111 aaaag
b100101110 aaaai

#125000
b10 aaaag
b100101111 aaaai

#126000
b100 aaaag
b100110000 aaaai

#127000
b101 aaaag
b100110001 aaaai

#128000
b100110010 aaaai

#129000
b110 aaaag
b100110011 aaaai

#130000
b1 aaaag
b100110100 aaaai
b110010000 aaaal
1aaaap
1aaaat

#131000
b0 aaaag
b100110101 aaaai
b110010001 aaaal

#132000
b1 aaaag
b100110110 aaaai
b110010010 aaaal

#133000
b11 aaaag
b100110111 aaaai
b110010011 aaaal

#134000
b100111000 aaaai
b110010100 aaaal

#135000
b101 aaaag
b100111001 aaaai
b110010101 aaaal

#136000
b0 aaaag
b100111010 aaaai
b110010110 aaaal

#137000
b111 aaaag
b100111011 aaaai
b110010111 aaaal

#138000
b10 aaaag
b100111100 aaaai
b110011000 aaaal

#139000
b11 aaaag
b100111101 aaaai
b110011001 aaaal

#140000
b100 aaaag
b100111110 aaaai
b110011010 aaaal

#141000
b110 aaaag
b100111111 aaaai
b110011011 aaaal

#142000
b101000000 aaaai
b110011100 aaaal

#143000
b10 aaaag
b101000001 aaaai
b110011101 aaaal

#144000
b111 aaaag
b101000010 aaaai
b110011110 aaaal

#145000
b10 aaaag
b101000011 aaaai
b110011111 aaaal

#146000
b11001000 aaaaf
b1 aaaag
b101000100 aaaai
b110100000 aaaal
1aaaan
1aaaar

#147000
b11001001 aaaaf
b111 aaaag
b101000101 aaaai
b110100001 aaaal

#148000
b11001010 aaaaf
b110 aaaag
b101000110 aaaai
zaaaap
zaaaat

#149000
b11001011 aaaaf
b0 aaaag
b101000111 aaaai

#150000
b11001100 aaaaf
b11 aaaag
b101001000 aaaai

#151000
b11001101 aaaaf
b10 aaaag
b101001001 aaaai

#152000
b11001110 aaaaf
b1 aaaag
b101001010 aaaai

#153000
b11001111 aaaaf
b100 aaaag
b101001011 aaaai

#154000
b11010000 aaaaf
b101001100 aaaai

#155000
b11010001 aaaaf
b101 aaaag
b101001101 aaaai

#156000
b11010010 aaaaf
b10 aaaag
b101001110 aaaai

#157000
b11010011 aaaaf
b0 aaaag
b101001111 aaaai

#158000
b11010100 aaaaf
b111 aaaag
b101010000 aaaai

#159000
b11010101 aaaaf
b110 aaaag
b101010001 aaaai

#160000
b11010110 aaaaf
b100 aaaag
b101010010 aaaai

#161000
b11010111 aaaaf
b1 aaaag
b101010011 aaaai

#162000
b11011000 aaaaf
b101 aaaag
b101010100 aaaai

#163000
b11011001 aaaaf
b110 aaaag
b101010101 aaaai

#164000
b11011010 aaaaf
b101010110 aaaai

#165000
b11 aaaag
b101010111 aaaai
zaaaan
zaaaar

#166000
b111 aaaag
b101011000 aaaai

#167000
b11 aaaag
b101011001 aaaai

#168000
b0 aaaag
b101011010 aaaai

#169000
b111 aaaag
b101011011 aaaai

#170000
b0 aaaag
b101011100 aaaai

#171000
b11 aaaag
b101011101 aaaai

#172000
b101 aaaag
b101011110 aaaai

#173000
b1 aaaag
b101011111 aaaai

#174000
b10 aaaag
b101100000 aaaai

#175000
b11 aaaaa
b1100100 aaaac
bZZZZZZZZ aaaag
bZZZZZZZZZZ aaaai
1aaaam
zaaaao
0aaaaq
zaaaas

#176000
b10 aaaaa
b1100101 aaaac

#177000
b101 aaaaa
b1100110 aaaac

#178000
b0 aaaaa
b1100111 aaaac
b110010000 aaaal
1aaaap
1aaaat

#179000
b10 aaaaa
b1101000 aaaac
b110010001 aaaal

#180000
b110 aaaaa
b1101001 aaaac
zaaaap
zaaaat

#181000
b100 aaaaa
b1101010 aaaac

#182000
b1101011 aaaac

#183000
b1101100 aaaac

#184000
b10 aaaaa
b1101101 aaaac

#185000
b110 aaaaa
b1101110 aaaac

#186000
b111 aaaaa
b1101111 aaaac

#187000
b110 aaaaa
b1110000 aaaac

#188000
b0 aaaaa
b1110001 aaaac

#189000
b1 aaaaa
b1110010 aaaac

#190000
b1110011 aaaac

#191000
b11 aaaaa
b1110100 aaaac

#192000
b101 aaaaa
b1110101 aaaac

#193000
b11 aaaaa
b1110110 aaaac

#194000
b110 aaaaa
b1110111 aaaac

#195000
b1 aaaaa
b1111000 aaaac
b11001000 aaaaf
1aaaan
1aaaar

#196000
b1111001 aaaac
b11001001 aaaaf

#197000
b110 aaaaa
b1111010 aaaac
b11001010 aaaaf

#198000
b1 aaaaa
b1111011 aaaac
b11001011 aaaaf

#199000
b100 aaaaa
b1111100 aaaac
b11001100 aaaaf

#200000
b0 aaaaa
b1111101 aaaac
b11001101 aaaaf

#201000
b101 aaaaa
b1111110 aaaac
b11001110 aaaaf

#202000
b10 aaaaa
b1111111 aaaac
b11001111 aaaaf

#203000
b1 aaaaa
b10000000 aaaac
zaaaan
zaaaar

#204000
b0 aaaaa
b10000001 aaaac

#205000
b110 aaaaa
b10000010 aaaac
b100101100 aaaai
1aaaao
1aaaas

#206000
b101 aaaaa
b10000011 aaaac
b100101101 aaaai

#207000
b10000100 aaaac
b100101110 aaaai

#208000
b100 aaaaa
b10000101 aaaac
b100101111 aaaai

#209000
b0 aaaaa
b10000110 aaaac
b100110000 aaaai

#210000
b101 aaaaa
b10000111 aaaac
b100110001 aaaai

#211000
b111 aaaaa
b10001000 aaaac
b100110010 aaaai

#212000
b10001001 aaaac
b100110011 aaaai

#213000
b10001010 aaaac
b100110100 aaaai

#214000
b0 aaaaa
b10001011 aaaac
b100110101 aaaai

#215000
b100 aaaaa
b10001100 aaaac
b100110110 aaaai

#216000
b101 aaaaa
b10001101 aaaac
b100110111 aaaai

#217000
b110 aaaaa
b10001110 aaaac
b100111000 aaaai

#218000
b101 aaaaa
b10001111 aaaac
b100111001 aaaai

#219000
b10 aaaaa
b10010000 aaaac
b100111010 aaaai

#220000
b111 aaaaa
b10010001 aaaac
b100111011 aaaai

#221000
b101 aaaaa
b10010010 aaaac
b100111100 aaaai

#222000
b100 aaaaa
b10010011 aaaac
b100111101 aaaai

#223000
b111 aaaaa
b10010100 aaaac
b100111110 aaaai

#224000
bZZZZZZZZ aaaaa
bZZZZZZZZZZ aaaac
b100111111 aaaai
b101 aaaaj
b110010000 aaaal
zaaaam
1aaaap
zaaaaq
0aaaat

#225000
b101000000 aaaai
b10 aaaaj
b110010001 aaaal

#226000
b101000001 aaaai
b100 aaaaj
b110010010 aaaal

#227000
b101000010 aaaai
b101 aaaaj
b110010011 aaaal

#228000
b100 aaaaj
b110010100 aaaal
zaaaao
zaaaas

#229000
b110 aaaaj
b110010101 aaaal

#230000
b110010110 aaaal

#231000
b11 aaaaj
b110010111 aaaal

#232000
b10 aaaaj
b110011000 aaaal

#233000
b11001000 aaaaf
b111 aaaaj
b110011001 aaaal
1aaaan
1aaaar

#234000
b11001001 aaaaf
b0 aaaaj
b110011010 aaaal

#235000
b11001010 aaaaf
b110011011 aaaal

#236000
b11001011 aaaaf
b110 aaaaj
b110011100 aaaal

#237000
b11001100 aaaaf
b101 aaaaj
b110011101 aaaal

#238000
b11001101 aaaaf
b0 aaaaj
b110011110 aaaal

#239000
b11001110 aaaaf
b101 aaaaj
b110011111 aaaal

#240000
b11001111 aaaaf
b1 aaaaj
b110100000 aaaal

#241000
b11010000 aaaaf
b0 aaaaj
b110100001 aaaal

#242000
b11010001 aaaaf
b101 aaaaj
b110100010 aaaal

#243000
b11010010 aaaaf
b11 aaaaj
b110100011 aaaal

#244000
b11010011 aaaaf
b110 aaaaj
b110100100 aaaal

#245000
b11010100 aaaaf
b11 aaaaj
b110100101 aaaal

#246000
b11010101 aaaaf
b110 aaaaj
b110100110 aaaal

#247000
b11010110 aaaaf
b0 aaaaj
b110100111 aaaal

#248000
b11010111 aaaaf
b11 aaaaj
b110101000 aaaal

#249000
b11011000 aaaaf
b10 aaaaj
b110101001 aaaal

#250000
b11011001 aaaaf
b110101010 aaaal

#251000
b11011010 aaaaf
b11 aaaaj
b110101011 aaaal

#252000
b11011011 aaaaf
b0 aaaaj
b110101100 aaaal

#253000
b11011100 aaaaf
b10 aaaaj
b110101101 aaaal

#254000
b11 aaaab
b1100100 aaaac
b111 aaaae
b11011101 aaaaf
b0 aaaaj
b110101110 aaaal
1aaaam
1aaaaq

#255000
b10 aaaab
b1100101 aaaac
b101 aaaae
b11011110 aaaaf
b11 aaaaj
b11 aaaak
b110101111 aaaal

#256000
b101 aaaab
b1100110 aaaac
b0 aaaae
b11011111 aaaaf
b110 aaaaj
b110 aaaak
b110110000 aaaal

#257000
b0 aaaab
b1100111 aaaac
b101 aaaae
b11100000 aaaaf
b0 aaaaj
b0 aaaak
b110110001 aaaal

#258000
b10 aaaab
b1101000 aaaac
b100 aaaae
b11100001 aaaaf
b100 aaaah
b100101100 aaaai
b110110010 aaaal
1aaaao
1aaaas

#259000
b110 aaaab
b1101001 aaaac
b101 aaaae
b11100010 aaaaf
b11 aaaah
b100101101 aaaai
b110 aaaaj
b110 aaaak
b110110011 aaaal

#260000
b100 aaaab
b1101010 aaaac
b100 aaaae
b11100011 aaaaf
b111 aaaah
b100101110 aaaai
b1 aaaaj
b1 aaaak
b110110100 aaaal

#261000
b1101011 aaaac
b110 aaaae
b11100100 aaaaf
b10 aaaah
b100101111 aaaai
b100 aaaaj
b100 aaaak
b110110101 aaaal

#262000
b11100101 aaaaf
b100110000 aaaai
b1 aaaaj
b110110110 aaaal
zaaaam
zaaaaq

#263000
b11100110 aaaaf
b100110001 aaaai
b110 aaaaj
b110110111 aaaal

#264000
b11100111 aaaaf
b100110010 aaaai
b1 aaaaj
b110111000 aaaal

#265000
b11101000 aaaaf
b100110011 aaaai
b111 aaaaj
b110111001 aaaal

#266000
b11101001 aaaaf
b100110100 aaaai
b100 aaaaj
b110111010 aaaal

#267000
b11101010 aaaaf
b100110101 aaaai
b0 aaaaj
b110111011 aaaal

#268000
b11101011 aaaaf
b100110110 aaaai
b110 aaaaj
b110111100 aaaal

#269000
b11101100 aaaaf
b100110111 aaaai
b11 aaaaj
b110111101 aaaal

#270000
b11101101 aaaaf
b100111000 aaaai
b0 aaaaj
b110111110 aaaal

#271000
b11101110 aaaaf
b100111001 aaaai
b111 aaaaj
b110111111 aaaal

#272000
b11101111 aaaaf
b100111010 aaaai
b10 aaaaj
b111000000 aaaal

#273000
b11110000 aaaaf
b100111011 aaaai
b11 aaaaj
b111000001 aaaal

#274000
b11110001 aaaaf
b100111100 aaaai
b0 aaaaj
b111000010 aaaal

#275000
b11110010 aaaaf
b100111101 aaaai
b111 aaaaj
b111000011 aaaal

#276000
b11110011 aaaaf
b100111110 aaaai
bZZZZZZZZ aaaaj
bZZZZZZZZZZ aaaal
zaaaap
zaaaat

#277000
b11110100 aaaaf
b100111111 aaaai

#278000
b11110101 aaaaf
b101000000 aaaai

#279000
b11110110 aaaaf
b101000001 aaaai

#280000
b11110111 aaaaf
b101000010 aaaai

#281000
b11111000 aaaaf
b101000011 aaaai

#282000
b11111001 aaaaf
b101000100 aaaai

#283000
b11111010 aaaaf
b101000101 aaaai

#284000
b11111011 aaaaf
b101000110 aaaai

#285000
b11111100 aaaaf
b101000111 aaaai

#286000
b11111101 aaaaf
b101001000 aaaai

#287000
b11111110 aaaaf
b101001001 aaaai

#288000
zaaaan
zaaaao
zaaaar
zaaaas

#292000
b10 aaaaa
b1100100 aaaac
1aaaam
0aaaaq

#293000
b101 aaaaa
b1100101 aaaac

#294000
b11 aaaaa
b1100110 aaaac

#295000
b1 aaaaa
b1100111 aaaac

#296000
b10 aaaaa
b1101000 aaaac

#297000
b111 aaaaa
b1101001 aaaac

#298000
b10 aaaaa
b1101010 aaaac

#299000
b101 aaaaa
b1101011 aaaac

#300000
b111 aaaaa
b1101100 aaaac

#301000
b10 aaaaa
b1101101 aaaac

#302000
b111 aaaaa
b1101110 aaaac

#303000
b11 aaaaa
b1101111 aaaac

#304000
b100 aaaaa
b1110000 aaaac

#305000
b111 aaaaa
b1110001 aaaac

#306000
b1110010 aaaac
b110010000 aaaal
1aaaap
1aaaat

#307000
b101 aaaaa
b1110011 aaaac
b110010001 aaaal

#308000
b1 aaaaa
b1110100 aaaac
b110010010 aaaal

#309000
b11 aaaaa
b1110101 aaaac
b110010011 aaaal

#310000
b1110110 aaaac
b110010100 aaaal

#311000
b1 aaaaa
b1110111 aaaac
b110010101 aaaal

#312000
b1111000 aaaac
b110010110 aaaal

#313000
b100 aaaaa
b1111001 aaaac
b110010111 aaaal

#314000
b10 aaaaa
b1111010 aaaac
b110011000 aaaal

#315000
b0 aaaaa
b1111011 aaaac
b110011001 aaaal

#316000
b1111100 aaaac
b110011010 aaaal

#317000
b11 aaaaa
b1111101 aaaac
b110011011 aaaal

#318000
b111 aaaaa
b1111110 aaaac
b110011100 aaaal

#319000
b1 aaaaa
b1111111 aaaac
b110011101 aaaal

#320000
b10000000 aaaac
b110011110 aaaal

#321000
b10 aaaaa
b10000001 aaaac
b110011111 aaaal

#322000
b101 aaaaa
b10000010 aaaac
b110100000 aaaal

#323000
b110 aaaaa
b10000011 aaaac
b110100001 aaaal

#324000
b10000100 aaaac
b110100010 aaaal

#325000
b0 aaaaa
b10000101 aaaac
b110100011 aaaal

#326000
b10000110 aaaac
b110100100 aaaal

#327000
b10000111 aaaac
b110100101 aaaal

#328000
b1 aaaaa
b10001000 aaaac
b110100110 aaaal

#329000
b11 aaaaa
b10001001 aaaac
b110100111 aaaal

#330000
b110 aaaaa
b10001010 aaaac
b110101000 aaaal

#331000
b111 aaaaa
b10001011 aaaac
b110101001 aaaal

#332000
b11 aaaaa
b10001100 aaaac
b110101010 aaaal

#333000
b101 aaaaa
b10001101 aaaac
b110101011 aaaal

#334000
b10001110 aaaac
b110101100 aaaal

#335000
b100 aaaaa
b10001111 aaaac
b110101101 aaaal

#336000
b10010000 aaaac
b110101110 aaaal

#337000
b1 aaaaa
b10010001 aaaac
b110101111 aaaal

#338000
b111 aaaaa
b10010010 aaaac
b110110000 aaaal

#339000
b11 aaaaa
b10010011 aaaac
b110110001 aaaal

#340000
b10 aaaaa
b10010100 aaaac
b110110010 aaaal

#341000
b0 aaaaa
b10010101 aaaac
b110110011 aaaal

#342000
b100 aaaaa
b10010110 aaaac
b110110100 aaaal

#343000
b11 aaaaa
b10010111 aaaac
b110110101 aaaal

#344000
b101 aaaaa
b10011000 aaaac
b110110110 aaaal

#345000
b111 aaaaa
b10011001 aaaac
b110110111 aaaal

#346000
b110 aaaaa
b10011010 aaaac
b110111000 aaaal

#347000
b0 aaaaa
b10011011 aaaac
b110111001 aaaal

#348000
b10 aaaaa
b10011100 aaaac
b110111010 aaaal

#349000
bZZZZZZZZ aaaaa
bZZZZZZZZZZ aaaac
b10 aaaad
b11001000 aaaaf
b110111011 aaaal
zaaaam
1aaaan
zaaaaq
0aaaar

#350000
b111 aaaad
b11001001 aaaaf
b110111100 aaaal

#351000
b11 aaaad
b11001010 aaaaf
b110111101 aaaal

#352000
b10 aaaad
b11001011 aaaaf
b110111110 aaaal

#353000
b101 aaaad
b11001100 aaaaf
b110111111 aaaal

#354000
b0 aaaad
b11001101 aaaaf
b111000000 aaaal

#355000
b111 aaaad
b11001110 aaaaf
b111000001 aaaal

#356000
b110 aaaad
b11001111 aaaaf
b111000010 aaaal

#357000
b101 aaaad
b11010000 aaaaf
b111000011 aaaal

#358000
b11010001 aaaaf
b111000100 aaaal

#359000
b11010010 aaaaf
b111000101 aaaal

#360000
b110 aaaad
b11010011 aaaaf
b111000110 aaaal

#361000
b100 aaaad
b11010100 aaaaf
b111000111 aaaal

#362000
b11010101 aaaaf
b111001000 aaaal

#363000
b10 aaaad
b11010110 aaaaf
b111001001 aaaal

#364000
b1 aaaad
b11010111 aaaaf
zaaaap
zaaaat

#365000
b11011000 aaaaf

#366000
b11 aaaad
b11011001 aaaaf

#367000
b1 aaaad
b11011010 aaaaf

#368000
b11011011 aaaaf

#369000
b111 aaaad
b11011100 aaaaf

#370000
b1 aaaad
b11011101 aaaaf

#371000
b101 aaaad
b11011110 aaaaf

#372000
b100 aaaad
b11011111 aaaaf

#373000
b11100000 aaaaf

#374000
b10 aaaad
b11100001 aaaaf

#375000
b11 aaaad
b11100010 aaaaf

#376000
b0 aaaad
b11100011 aaaaf

#377000
b100 aaaad
b11100100 aaaaf

#378000
b1 aaaad
b11100101 aaaaf

#379000
b10 aaaab
b1100100 aaaac
b11 aaaad
b11 aaaae
b11100110 aaaaf
1aaaam
1aaaaq

#380000
b101 aaaab
b1100101 aaaac
b0 aaaad
b0 aaaae
b11100111 aaaaf

#381000
b11 aaaab
b1100110 aaaac
b111 aaaad
b111 aaaae
b11101000 aaaaf

#382000
b1 aaaab
b1100111 aaaac
b11 aaaad
b11 aaaae
b11101001 aaaaf

#383000
b10 aaaab
b1101000 aaaac
b111 aaaad
b111 aaaae
b11101010 aaaaf

#384000
b111 aaaab
b1101001 aaaac
b10 aaaad
b10 aaaae
b11101011 aaaaf

#385000
b10 aaaab
b1101010 aaaac
b1 aaaad
b1 aaaae
b11101100 aaaaf

#386000
b101 aaaab
b1101011 aaaac
b11101101 aaaaf

#387000
b111 aaaab
b1101100 aaaac
b101 aaaad
b101 aaaae
b11101110 aaaaf

#388000
b10 aaaab
b1101101 aaaac
b100 aaaad
b100 aaaae
b11101111 aaaaf

#389000
b111 aaaab
b1101110 aaaac
b0 aaaad
b0 aaaae
b11110000 aaaaf

#390000
b11 aaaab
b1101111 aaaac
b110 aaaad
b110 aaaae
b11110001 aaaaf

#391000
b100 aaaab
b1110000 aaaac
b10 aaaad
b10 aaaae
b11110010 aaaaf

#392000
b111 aaaab
b1110001 aaaac
b110 aaaad
b110 aaaae
b11110011 aaaaf

#393000
b1110010 aaaac
b11 aaaad
b11 aaaae
b11110100 aaaaf

#394000
b101 aaaab
b1110011 aaaac
b10 aaaad
b10 aaaae
b11110101 aaaaf
b101 aaaak
b110010000 aaaal
1aaaap
1aaaat

#395000
b1 aaaab
b1110100 aaaac
b0 aaaad
b0 aaaae
b11110110 aaaaf
b10 aaaak
b110010001 aaaal

#396000
b11 aaaab
b1110101 aaaac
b11110111 aaaaf
b100 aaaak
b110010010 aaaal

#397000
b1110110 aaaac
b1 aaaad
b1 aaaae
b11111000 aaaaf
b101 aaaak
b110010011 aaaal

#398000
b1 aaaab
b1110111 aaaac
b110 aaaad
b110 aaaae
b11111001 aaaaf
b100 aaaak
b110010100 aaaal

#399000
b1 aaaad
b11111010 aaaaf
b110010101 aaaal
zaaaam
zaaaaq

#400000
b111 aaaad
b11111011 aaaaf
b110010110 aaaal

#401000
b0 aaaad
b11111100 aaaaf
b110010111 aaaal

#402000
b1 aaaad
b11111101 aaaaf
b110011000 aaaal

#403000
b100 aaaad
b11111110 aaaaf
b110011001 aaaal

#404000
b101 aaaad
b11111111 aaaaf
b110011010 aaaal

#405000
b111 aaaad
b100000000 aaaaf
b110011011 aaaal

#406000
b11 aaaad
b100000001 aaaaf
b110011100 aaaal

#407000
b0 aaaad
b100000010 aaaaf
b110011101 aaaal

#408000
b111 aaaad
b100000011 aaaaf
b110011110 aaaal

#409000
b110 aaaad
b100000100 aaaaf
b110011111 aaaal

#410000
b0 aaaad
b100000101 aaaaf
b110100000 aaaal

#411000
b111 aaaad
b100000110 aaaaf
zaaaap
zaaaat

#412000
bZZZZZZZZ aaaad
bZZZZZZZZZZ aaaaf
b110 aaaag
b100101100 aaaai
zaaaan
1aaaao
zaaaar
0aaaas

#413000
b101 aaaag
b100101101 aaaai

#414000
b111 aaaag
b100101110 aaaai

#415000
b10 aaaag
b100101111 aaaai

#416000
b110 aaaag
b100110000 aaaai

#417000
b11 aaaag
b100110001 aaaai

#418000
b101 aaaag
b100110010 aaaai

#419000
b11 aaaag
b100110011 aaaai

#420000
b10 aaaag
b100110100 aaaai

#421000
b101 aaaag
b100110101 aaaai

#422000
b110 aaaag
b100110110 aaaai

#423000
b100110111 aaaai

#424000
b1 aaaag
b100111000 aaaai

#425000
b100111001 aaaai

#426000
b101 aaaag
b100111010 aaaai

#427000
b11 aaaag
b100111011 aaaai

#428000
b1 aaaag
b100111100 aaaai

#429000
b0 aaaag
b100111101 aaaai

#430000
b1 aaaag
b100111110 aaaai

#431000
b101 aaaag
b100111111 aaaai

#432000
b101000000 aaaai

#433000
b1 aaaag
b101000001 aaaai

#434000
b100 aaaag
b101000010 aaaai

#435000
b1 aaaag
b101000011 aaaai

#436000
b100 aaaag
b101000100 aaaai

#437000
b101 aaaag
b101000101 aaaai

#438000
b11 aaaag
b101000110 aaaai

#439000
b101 aaaag
b101000111 aaaai

#440000
b100 aaaag
b101001000 aaaai

#441000
b11 aaaag
b101001001 aaaai
b110010000 aaaal
1aaaap
1aaaat

#442000
b11001000 aaaaf
b110 aaaag
b101001010 aaaai
b110010001 aaaal
1aaaan
1aaaar

#443000
b11001001 aaaaf
b11 aaaag
b101001011 aaaai
b110010010 aaaal

#444000
b11001010 aaaaf
b110 aaaag
b101001100 aaaai
b110010011 aaaal

#445000
b11001011 aaaaf
b111 aaaag
b101001101 aaaai
b110010100 aaaal

#446000
b11001100 aaaaf
b1 aaaag
b101001110 aaaai
b110010101 aaaal

#447000
b1 aaaaa
b1100100 aaaac
b11001101 aaaaf
bZZZZZZZZ aaaag
bZZZZZZZZZZ aaaai
b110010110 aaaal
1aaaam
zaaaao
0aaaaq
zaaaas

#448000
b110 aaaaa
b1100101 aaaac
b110010111 aaaal
zaaaan
zaaaar

#449000
b111 aaaaa
b1100110 aaaac
b110011000 aaaal

#450000
b110 aaaaa
b1100111 aaaac
b110011001 aaaal

#451000
b0 aaaaa
b1101000 aaaac
b110011010 aaaal

#452000
b111 aaaaa
b1101001 aaaac
b110011011 aaaal

#453000
b1101010 aaaac
b110011100 aaaal

#454000
b101 aaaaa
b1101011 aaaac
b110011101 aaaal

#455000
b0 aaaaa
b1101100 aaaac
b110011110 aaaal

