Homework6_multiexchr/Homework6_multiexchr/dataExchange.vcd
$date
     May 02, 2017       23:15:37
$end

$version
 SystemC 2.3.1-Accellera --- Feb 20 2017 20:34:49
$end

$timescale
     1 ps
$end

$scope module SystemC $end
$var wire    8  aaaaa  inb1 [7:0]  $end
$var wire    8  aaaab  oub1 [7:0]  $end
$var wire   10  aaaac  adb1 [9:0]  $end
$var wire    8  aaaad  inb2 [7:0]  $end
$var wire    8  aaaae  oub2 [7:0]  $end
$var wire   10  aaaaf  adb2 [9:0]  $end
$var wire    8  aaaag  inb3 [7:0]  $end
$var wire    8  aaaah  oub3 [7:0]  $end
$var wire   10  aaaai  adb3 [9:0]  $end
$var wire    8  aaaaj  inb4 [7:0]  $end
$var wire    8  aaaak  oub4 [7:0]  $end
$var wire   10  aaaal  adb4 [9:0]  $end
$var wire    1  aaaam  cs1       $end
$var wire    1  aaaan  cs2       $end
$var wire    1  aaaao  cs3       $end
$var wire    1  aaaap  cs4       $end
$var wire    1  aaaaq  rwb1       $end
$var wire    1  aaaar  rwb2       $end
$var wire    1  aaaas  rwb3       $end
$var wire    1  aaaat  rwb4       $end
$upscope $end
$enddefinitions  $end

$comment
All initial values are dumped below at time 0 sec = 0 timescale units.
$end

$dumpvars
bXXXXXXXX aaaaa
bXXXXXXXX aaaab
bXXXXXXXXXX aaaac
bXXXXXXXX aaaad
bXXXXXXXX aaaae
bXXXXXXXXXX aaaaf
bXXXXXXXX aaaag
bXXXXXXXX aaaah
bXXXXXXXXXX aaaai
bXXXXXXXX aaaaj
bXXXXXXXX aaaak
bXXXXXXXXXX aaaal
xaaaam
xaaaan
xaaaao
xaaaap
xaaaaq
xaaaar
xaaaas
xaaaat
$end

#300000
b101 aaaab
b100000101 aaaac
1aaaam
1aaaaq

#310000
b110 aaaab
b100000110 aaaac

#320000
b111 aaaab
b100000111 aaaac

#330000
b1000 aaaab
b100001000 aaaac

#340000
b1001 aaaab
b100001001 aaaac

#350000
b1010 aaaab
b100001010 aaaac

#360000
b1011 aaaab
b100001011 aaaac

#370000
b1100 aaaab
b100001100 aaaac

#380000
b1101 aaaab
b100001101 aaaac

#390000
b1110 aaaab
b100001110 aaaac

#400000
b1111 aaaab
b100001111 aaaac

#410000
b10000 aaaab
b100010000 aaaac

#420000
b10001 aaaab
b100010001 aaaac

#430000
b10010 aaaab
b100010010 aaaac

#440000
b10011 aaaab
b100010011 aaaac

#450000
b10100 aaaab
b100010100 aaaac

#460000
b10101 aaaab
b100010101 aaaac

#470000
b10110 aaaab
b100010110 aaaac

#480000
b10111 aaaab
b100010111 aaaac

#490000
b11000 aaaab
b100011000 aaaac

#500000
b11001 aaaab
b100011001 aaaac

#510000
b11010 aaaab
b100011010 aaaac

#520000
b11011 aaaab
b100011011 aaaac

#530000
b11100 aaaab
b100011100 aaaac

#540000
b11101 aaaab
b100011101 aaaac

#550000
b11110 aaaab
b100011110 aaaac

#560000
b11111 aaaab
b100011111 aaaac

#570000
b100000 aaaab
b100100000 aaaac

#580000
b100001 aaaab
b100100001 aaaac

#590000
b100010 aaaab
b100100010 aaaac

#600000
b100011 aaaab
b100100011 aaaac
b11100100 aaaae
b111100100 aaaaf
1aaaan
1aaaar

#610000
b100100 aaaab
b100100100 aaaac

#620000
b100101 aaaab
b100100101 aaaac
b11100101 aaaae
b111100101 aaaaf

#630000
b100110 aaaab
b100100110 aaaac

#640000
b100111 aaaab
b100100111 aaaac
b11100110 aaaae
b111100110 aaaaf

#650000
b101000 aaaab
b100101000 aaaac

#660000
b101001 aaaab
b100101001 aaaac
b11100111 aaaae
b111100111 aaaaf

#670000
b101010 aaaab
b100101010 aaaac

#680000
b101011 aaaab
b100101011 aaaac
b11101000 aaaae
b111101000 aaaaf

#690000
b101100 aaaab
b100101100 aaaac

#700000
b101101 aaaab
b100101101 aaaac
b11101001 aaaae
b111101001 aaaaf

#710000
b101110 aaaab
b100101110 aaaac

#720000
b101111 aaaab
b100101111 aaaac
b11101010 aaaae
b111101010 aaaaf

#730000
b110000 aaaab
b100110000 aaaac

#740000
b110001 aaaab
b100110001 aaaac
b11101011 aaaae
b111101011 aaaaf

#750000
b110010 aaaab
b100110010 aaaac

#760000
b110011 aaaab
b100110011 aaaac
b11101100 aaaae
b111101100 aaaaf

#770000
b110100 aaaab
b100110100 aaaac

#780000
b111101101 aaaaf
zaaaam
zaaaaq

#800000
b111101110 aaaaf

#820000
b111101111 aaaaf

#840000
b111110000 aaaaf

#860000
b111110001 aaaaf

#880000
b111110010 aaaaf

#900000
b111110011 aaaaf
b1011000011 aaaai
1aaaao
1aaaas

#920000
b111110100 aaaaf

#930000
b1011000100 aaaai

#940000
b111110101 aaaaf

#960000
b111110110 aaaaf
b1011000101 aaaai

#980000
b111110111 aaaaf

#990000
b1011000110 aaaai

#1000000
b111111000 aaaaf

#1020000
b111111001 aaaaf
b1011000111 aaaai

#1040000
b111111010 aaaaf

#1050000
b1011001000 aaaai

#1060000
b111111011 aaaaf

#1080000
b1011111 aaaab
b101011111 aaaac
b11111100 aaaae
b111111100 aaaaf
1aaaam
zaaaao
1aaaaq
zaaaas

#1090000
b1100000 aaaab
b101100000 aaaac

#1100000
b1100001 aaaab
b101100001 aaaac
b11111101 aaaae
b111111101 aaaaf

#1110000
b1100010 aaaab
b101100010 aaaac

#1120000
b1100011 aaaab
b101100011 aaaac
b11111110 aaaae
b111111110 aaaaf

#1130000
b1100100 aaaab
b101100100 aaaac

#1140000
b1100101 aaaab
b101100101 aaaac
b11111111 aaaae
b111111111 aaaaf

#1150000
b1100110 aaaab
b101100110 aaaac

#1160000
b1100111 aaaab
b101100111 aaaac
b0 aaaae
b1000000000 aaaaf

#1170000
b1101000 aaaab
b101101000 aaaac

#1180000
b1101001 aaaab
b101101001 aaaac
b1 aaaae
b1000000001 aaaaf

#1190000
b1101010 aaaab
b101101010 aaaac

#1200000
b1101011 aaaab
b101101011 aaaac
b10 aaaae
b1000000010 aaaaf
b10100001 aaaak
b1110100001 aaaal
1aaaap
1aaaat

#1210000
b1101100 aaaab
b101101100 aaaac

#1220000
b1101101 aaaab
b101101101 aaaac
b11 aaaae
b1000000011 aaaaf

#1230000
b1101110 aaaab
b101101110 aaaac

#1240000
b1101111 aaaab
b101101111 aaaac
b100 aaaae
b1000000100 aaaaf
b10100010 aaaak
b1110100010 aaaal

#1250000
b1110000 aaaab
b101110000 aaaac

#1260000
b1110001 aaaab
b101110001 aaaac
b101 aaaae
b1000000101 aaaaf

#1270000
b1110010 aaaab
b101110010 aaaac

#1280000
b1110011 aaaab
b101110011 aaaac
b110 aaaae
b1000000110 aaaaf
b10100011 aaaak
b1110100011 aaaal

#1290000
b1110100 aaaab
b101110100 aaaac

#1300000
b1110101 aaaab
b101110101 aaaac
b111 aaaae
b1000000111 aaaaf

#1310000
b1110110 aaaab
b101110110 aaaac

#1320000
b1110111 aaaab
b101110111 aaaac
b1000 aaaae
b1000001000 aaaaf
b10100100 aaaak
b1110100100 aaaal

#1330000
b1111000 aaaab
b101111000 aaaac

#1340000
b1111001 aaaab
b101111001 aaaac
b1001 aaaae
b1000001001 aaaaf

#1350000
b1111010 aaaab
b101111010 aaaac

#1360000
b1111011 aaaab
b101111011 aaaac
b1010 aaaae
b1000001010 aaaaf
b10100101 aaaak
b1110100101 aaaal

#1370000
b1111100 aaaab
b101111100 aaaac

#1380000
b1111101 aaaab
b101111101 aaaac
b1011 aaaae
b1000001011 aaaaf

#1390000
zaaaam
zaaaaq

#1400000
b1000001100 aaaaf
b1110100110 aaaal

#1420000
b1000001101 aaaaf

#1440000
b1000001110 aaaaf
b1110100111 aaaal

#1460000
b1000001111 aaaaf

#1480000
b1000010000 aaaaf
b1110101000 aaaal

#1500000
b1000010001 aaaaf

#1520000
b1000010010 aaaaf
b1110101001 aaaal

#1540000
b1000010011 aaaaf

#1560000
b1000010100 aaaaf
b1110101010 aaaal

#1580000
b1000010101 aaaaf

#1600000
b1000010110 aaaaf
b1110101011 aaaal

#1620000
b1000010111 aaaaf

#1640000
b1000011000 aaaaf
b1110101100 aaaal

#1660000
b1000011001 aaaaf

#1680000
b1000011010 aaaaf
b1110101101 aaaal

#1690000
b11000010 aaaab
b1011000010 aaaac
b11010 aaaae
b10101101 aaaak
1aaaam
1aaaaq

#1700000
b11000011 aaaab
b1011000011 aaaac
zaaaan
zaaaar

#1710000
b11000100 aaaab
b1011000100 aaaac

#1720000
b11000101 aaaab
b1011000101 aaaac
zaaaap
zaaaat

#1730000
b11000110 aaaab
b1011000110 aaaac

#1740000
b11000111 aaaab
b1011000111 aaaac

#1750000
b11001000 aaaab
b1011001000 aaaac

#1760000
b11001001 aaaab
b1011001001 aaaac

#1770000
b11001010 aaaab
b1011001010 aaaac

#1780000
zaaaam
zaaaaq

#1980000
b1000110011 aaaai
1aaaao
1aaaas

#2010000
b1000110100 aaaai

#2040000
b1000110101 aaaai

#2070000
b1000110110 aaaai

#2080000
b10000101 aaaab
b110000101 aaaac
b110110 aaaah
1aaaam
1aaaaq

#2090000
b10000110 aaaab
b110000110 aaaac

#2100000
b10000111 aaaab
b110000111 aaaac
b110111 aaaah
b1000110111 aaaai

#2110000
b10001000 aaaab
b110001000 aaaac

#2120000
b10001001 aaaab
b110001001 aaaac

#2130000
b10001010 aaaab
b110001010 aaaac
b111000 aaaah
b1000111000 aaaai

#2140000
b10001011 aaaab
b110001011 aaaac

#2150000
b10001100 aaaab
b110001100 aaaac

#2160000
b10001101 aaaab
b110001101 aaaac
b111001 aaaah
b1000111001 aaaai

#2170000
b10001110 aaaab
b110001110 aaaac

#2180000
b10001111 aaaab
b110001111 aaaac

#2190000
b10010000 aaaab
b110010000 aaaac
b111010 aaaah
b1000111010 aaaai

#2200000
b10010001 aaaab
b110010001 aaaac

#2210000
b10010010 aaaab
b110010010 aaaac

#2220000
b10010011 aaaab
b110010011 aaaac
b111011 aaaah
b1000111011 aaaai

#2230000
b10010100 aaaab
b110010100 aaaac

#2240000
b10010101 aaaab
b110010101 aaaac

#2250000
b10010110 aaaab
b110010110 aaaac
b111100 aaaah
b1000111100 aaaai

#2260000
b10010111 aaaab
b110010111 aaaac

#2270000
b10011000 aaaab
b110011000 aaaac

#2280000
b10011001 aaaab
b110011001 aaaac
b111101 aaaah
b1000111101 aaaai

#2290000
b10011010 aaaab
b110011010 aaaac

#2300000
b10011011 aaaab
b110011011 aaaac
b11001001 aaaae
b1111001001 aaaaf
1aaaan
1aaaar

#2310000
b10011100 aaaab
b110011100 aaaac
b111110 aaaah
b1000111110 aaaai

#2320000
b10011101 aaaab
b110011101 aaaac
b11001010 aaaae
b1111001010 aaaaf

#2330000
b10011110 aaaab
b110011110 aaaac

#2340000
b10011111 aaaab
b110011111 aaaac
b11001011 aaaae
b1111001011 aaaaf
b111111 aaaah
b1000111111 aaaai

#2350000
b10100000 aaaab
b110100000 aaaac

#2360000
b10100001 aaaab
b110100001 aaaac
b11001100 aaaae
b1111001100 aaaaf

#2370000
b10100010 aaaab
b110100010 aaaac
b1000000 aaaah
b1001000000 aaaai

#2380000
b10100011 aaaab
b110100011 aaaac
b11001101 aaaae
b1111001101 aaaaf

#2390000
b10100100 aaaab
b110100100 aaaac

#2400000
b10100101 aaaab
b110100101 aaaac
b11001110 aaaae
b1111001110 aaaaf
b1000001 aaaah
b1001000001 aaaai

#2410000
b10100110 aaaab
b110100110 aaaac

#2420000
b10100111 aaaab
b110100111 aaaac
b11001111 aaaae
b1111001111 aaaaf

#2430000
b1001000010 aaaai
zaaaam
zaaaaq

#2440000
b1111010000 aaaaf

#2460000
b1111010001 aaaaf
b1001000011 aaaai

#2480000
b1111010010 aaaaf

#2490000
b1001000100 aaaai

#2500000
b1111010011 aaaaf

#2520000
b1001000101 aaaai
zaaaan
zaaaar

#2550000
b1001000110 aaaai

#2580000
b1001000111 aaaai

#2610000
b1001001000 aaaai

#2640000
b1001001001 aaaai

#2670000
b1001001010 aaaai

#2700000
b1001001011 aaaai

#2730000
b10110101 aaaab
b110110101 aaaac
b1001100 aaaah
b1001001100 aaaai
1aaaam
1aaaaq

#2740000
b10110110 aaaab
b110110110 aaaac

#2750000
b10110111 aaaab
b110110111 aaaac

#2760000
b10111000 aaaab
b110111000 aaaac
b1001101 aaaah
b1001001101 aaaai

#2770000
b10111001 aaaab
b110111001 aaaac

#2780000
b10111010 aaaab
b110111010 aaaac

#2790000
b10111011 aaaab
b110111011 aaaac
b1001110 aaaah
b1001001110 aaaai

#2800000
b10111100 aaaab
b110111100 aaaac

#2810000
b10111101 aaaab
b110111101 aaaac

#2820000
b10111110 aaaab
b110111110 aaaac
b1001111 aaaah
b1001001111 aaaai

#2830000
b10111111 aaaab
b110111111 aaaac

#2840000
b11000000 aaaab
b111000000 aaaac

#2850000
b11000001 aaaab
b111000001 aaaac
b1010000 aaaah
b1001010000 aaaai

#2860000
b11000010 aaaab
b111000010 aaaac

#2870000
b11000011 aaaab
b111000011 aaaac

#2880000
b11000100 aaaab
b111000100 aaaac
b1010001 aaaah
b1001010001 aaaai

#2890000
b11000101 aaaab
b111000101 aaaac

#2900000
b11000110 aaaab
b111000110 aaaac

#2910000
b11000111 aaaab
b111000111 aaaac
b1010010 aaaah
b1001010010 aaaai

#2920000
b11001000 aaaab
b111001000 aaaac
b10011100 aaaak
b10011100 aaaal
1aaaap
1aaaat

#2930000
b11001001 aaaab
b111001001 aaaac

#2940000
b11001010 aaaab
b111001010 aaaac
b1010011 aaaah
b1001010011 aaaai

#2950000
b11001011 aaaab
b111001011 aaaac

#2960000
b11001100 aaaab
b111001100 aaaac
b10011101 aaaak
b10011101 aaaal

#2970000
b11001101 aaaab
b111001101 aaaac
b1010100 aaaah
b1001010100 aaaai

#2980000
b11001110 aaaab
b111001110 aaaac

#2990000
b11001111 aaaab
b111001111 aaaac

#3000000
b11010000 aaaab
b111010000 aaaac
b1010101 aaaah
b1001010101 aaaai
b10011110 aaaak
b10011110 aaaal

#3010000
b11010001 aaaab
b111010001 aaaac

#3020000
b11010010 aaaab
b111010010 aaaac

#3030000
b11010011 aaaab
b111010011 aaaac
b1010110 aaaah
b1001010110 aaaai

#3040000
b11010100 aaaab
b111010100 aaaac
b10011111 aaaak
b10011111 aaaal

#3050000
b11010101 aaaab
b111010101 aaaac

#3060000
b11010110 aaaab
b111010110 aaaac
b1010111 aaaah
b1001010111 aaaai

#3070000
b11010111 aaaab
b111010111 aaaac

#3080000
b11011000 aaaab
b111011000 aaaac
b10100000 aaaak
b10100000 aaaal

#3090000
b11011001 aaaab
b111011001 aaaac
b1011000 aaaah
b1001011000 aaaai

#3100000
b11011010 aaaab
b111011010 aaaac

#3110000
b11011011 aaaab
b111011011 aaaac

#3120000
b11011100 aaaab
b111011100 aaaac
b1011001 aaaah
b1001011001 aaaai
b10100001 aaaak
b10100001 aaaal

#3130000
b11011101 aaaab
b111011101 aaaac

#3140000
b11011110 aaaab
b111011110 aaaac

#3150000
b11011111 aaaab
b111011111 aaaac
b1011010 aaaah
b1001011010 aaaai

#3160000
b11100000 aaaab
b111100000 aaaac
b10100010 aaaak
b10100010 aaaal

#3170000
b11100001 aaaab
b111100001 aaaac

#3180000
b11100010 aaaab
b111100010 aaaac
b1011011 aaaah
b1001011011 aaaai

#3190000
b11100011 aaaab
b111100011 aaaac

#3200000
b11100100 aaaab
b111100100 aaaac
b10100011 aaaak
b10100011 aaaal

#3210000
b11100101 aaaab
b111100101 aaaac
b1011100 aaaah
b1001011100 aaaai

#3220000
b11100110 aaaab
b111100110 aaaac

#3230000
b11100111 aaaab
b111100111 aaaac

#3240000
b11101000 aaaab
b111101000 aaaac
b1011101 aaaah
b1001011101 aaaai
b10100100 aaaak
b10100100 aaaal

#3250000
b11101001 aaaab
b111101001 aaaac

#3260000
b11101010 aaaab
b111101010 aaaac

#3270000
b11101011 aaaab
b111101011 aaaac
b1011110 aaaah
b1001011110 aaaai

#3280000
b11101100 aaaab
b111101100 aaaac
b10100101 aaaak
b10100101 aaaal

#3290000
b11101101 aaaab
b111101101 aaaac

#3300000
b11101110 aaaab
b111101110 aaaac
b1011111 aaaah
b1001011111 aaaai

#3310000
b11101111 aaaab
b111101111 aaaac

#3320000
b1011101100 aaaaf
b10100110 aaaal
zaaaam
1aaaan
zaaaaq
1aaaar

#3330000
b1001100000 aaaai

#3340000
b1011101101 aaaaf

#3360000
b1001100001 aaaai
b10100111 aaaal
zaaaan
zaaaar

#3390000
b1001100010 aaaai

#3400000
b10101000 aaaal

#3420000
b1001100011 aaaai

#3440000
b10101001 aaaal

#3450000
b1001100100 aaaai

#3480000
b1001100101 aaaai
b10101010 aaaal

#3510000
b1001100110 aaaai

#3520000
b10101011 aaaal

#3540000
b1001100111 aaaai

#3560000
b10101100 aaaal

#3570000
b1001101000 aaaai

#3600000
b1001101001 aaaai
b10101101 aaaal

#3620000
b10111010 aaaab
b1110111010 aaaac
b1101001 aaaah
b10101101 aaaak
1aaaam
1aaaaq

#3630000
b10111011 aaaab
b1110111011 aaaac
b1101010 aaaah
b1001101010 aaaai

#3640000
b10111100 aaaab
b1110111100 aaaac
b10101110 aaaak
b10101110 aaaal

#3650000
b10111101 aaaab
b1110111101 aaaac

#3660000
b10111110 aaaab
b1110111110 aaaac
b1101011 aaaah
b1001101011 aaaai

#3670000
b10111111 aaaab
b1110111111 aaaac

#3680000
b11000000 aaaab
b1111000000 aaaac
b10101111 aaaak
b10101111 aaaal

#3690000
b1001101100 aaaai
zaaaam
zaaaaq

#3720000
b1001101101 aaaai
b10110000 aaaal

#3750000
b1001101110 aaaai

#3760000
b10110001 aaaal

#3780000
b1001101111 aaaai

#3800000
b10110010 aaaal

#3810000
b1001110000 aaaai

#3840000
b10110011 aaaal
zaaaao
zaaaas

#3880000
b10110100 aaaal

#3920000
b10110101 aaaal

#3960000
b1001011101 aaaaf
b10110110 aaaal
1aaaan
1aaaar

#3980000
b1001011110 aaaaf

#3990000
b1100001 aaaab
b1101100001 aaaac
b1011110 aaaae
b10110110 aaaak
1aaaam
1aaaaq

#4000000
b1100010 aaaab
b1101100010 aaaac
b1011111 aaaae
b1001011111 aaaaf
b10110111 aaaak
b10110111 aaaal

#4010000
b1100011 aaaab
b1101100011 aaaac

#4020000
b1100100 aaaab
b1101100100 aaaac
b1100000 aaaae
b1001100000 aaaaf

#4030000
b1100101 aaaab
b1101100101 aaaac

#4040000
b1100110 aaaab
b1101100110 aaaac
b1100001 aaaae
b1001100001 aaaaf
b10111000 aaaak
b10111000 aaaal

#4050000
zaaaam
zaaaaq

#4060000
b1001100010 aaaaf

#4080000
b1001100011 aaaaf
b10111001 aaaal

#4100000
b1001100100 aaaaf

#4120000
b1001100101 aaaaf
b10111010 aaaal

#4140000
b1001100110 aaaaf

#4160000
b1001100111 aaaaf
b10111011 aaaal

#4180000
b1001101000 aaaaf

#4200000
b1001101001 aaaaf
b10111100 aaaal

#4220000
b1001101010 aaaaf

#4240000
b1001101011 aaaaf
b10111101 aaaal

#4260000
b1001101100 aaaaf

#4280000
b1001101101 aaaaf
b10111110 aaaal

#4300000
b1001101110 aaaaf

#4320000
b1001101111 aaaaf
b10111111 aaaal

#4340000
b1001110000 aaaaf

#4350000
b101100 aaaab
b101100 aaaac
b1110000 aaaae
b10111111 aaaak
1aaaam
1aaaaq

#4360000
b101101 aaaab
b101101 aaaac
b1110001 aaaae
b1001110001 aaaaf
b11000000 aaaak
b11000000 aaaal

#4370000
b101110 aaaab
b101110 aaaac

#4380000
b101111 aaaab
b101111 aaaac
b1110010 aaaae
b1001110010 aaaaf

#4390000
b110000 aaaab
b110000 aaaac

#4400000
b110001 aaaab
b110001 aaaac
b1110011 aaaae
b1001110011 aaaaf
b11000001 aaaak
b11000001 aaaal

#4410000
b110010 aaaab
b110010 aaaac

#4420000
b110011 aaaab
b110011 aaaac
b1110100 aaaae
b1001110100 aaaaf

#4430000
b110100 aaaab
b110100 aaaac

#4440000
b110101 aaaab
b110101 aaaac
b1110101 aaaae
b1001110101 aaaaf
b11000010 aaaak
b11000010 aaaal

#4450000
b110110 aaaab
b110110 aaaac

#4460000
b110111 aaaab
b110111 aaaac
b1110110 aaaae
b1001110110 aaaaf

#4470000
b111000 aaaab
b111000 aaaac

#4480000
b111001 aaaab
b111001 aaaac
b1110111 aaaae
b1001110111 aaaaf
b11000011 aaaak
b11000011 aaaal

#4490000
b111010 aaaab
b111010 aaaac

#4500000
b111011 aaaab
b111011 aaaac
b1111000 aaaae
b1001111000 aaaaf

#4510000
b111100 aaaab
b111100 aaaac

#4520000
b111101 aaaab
b111101 aaaac
b1111001 aaaae
b1001111001 aaaaf
b11000100 aaaak
b11000100 aaaal

#4530000
b111110 aaaab
b111110 aaaac

#4540000
b111111 aaaab
b111111 aaaac
b1111010 aaaae
b1001111010 aaaaf

#4550000
b1000000 aaaab
b1000000 aaaac

#4560000
b1000001 aaaab
b1000001 aaaac
b1111011 aaaae
b1001111011 aaaaf
b11000101 aaaak
b11000101 aaaal

#4570000
b1000010 aaaab
b1000010 aaaac

#4580000
b1000011 aaaab
b1000011 aaaac
b1111100 aaaae
b1001111100 aaaaf

#4590000
b1000100 aaaab
b1000100 aaaac

#4600000
b1000101 aaaab
b1000101 aaaac
b1111101 aaaae
b1001111101 aaaaf
zaaaap
zaaaat

#4610000
b1000110 aaaab
b1000110 aaaac

#4620000
b1000111 aaaab
b1000111 aaaac
b1111110 aaaae
b1001111110 aaaaf

#4630000
b1001000 aaaab
b1001000 aaaac

#4640000
b1001001 aaaab
b1001001 aaaac
b1111111 aaaae
b1001111111 aaaaf

#4650000
b1001010 aaaab
b1001010 aaaac

#4660000
b1001011 aaaab
b1001011 aaaac
b10000000 aaaae
b1010000000 aaaaf

#4670000
b1001100 aaaab
b1001100 aaaac

#4680000
b1001101 aaaab
b1001101 aaaac
b10000001 aaaae
b1010000001 aaaaf

#4690000
b1001110 aaaab
b1001110 aaaac

#4700000
b1001111 aaaab
b1001111 aaaac
b10000010 aaaae
b1010000010 aaaaf

#4710000
b1010000 aaaab
b1010000 aaaac

#4720000
b1010001 aaaab
b1010001 aaaac
b10000011 aaaae
b1010000011 aaaaf

#4730000
b1010010 aaaab
b1010010 aaaac

#4740000
b1010011 aaaab
b1010011 aaaac
b10000100 aaaae
b1010000100 aaaaf
b10111 aaaah
b1100010111 aaaai
1aaaao
1aaaas

#4750000
b1010100 aaaab
b1010100 aaaac

#4760000
b1010101 aaaab
b1010101 aaaac
b10000101 aaaae
b1010000101 aaaaf

#4770000
b1010110 aaaab
b1010110 aaaac
b11000 aaaah
b1100011000 aaaai

#4780000
b1010111 aaaab
b1010111 aaaac
b10000110 aaaae
b1010000110 aaaaf

#4790000
zaaaam
zaaaaq

#4800000
b1010000111 aaaaf
b1100011001 aaaai

#4820000
b1010001000 aaaaf

#4830000
b1100011010 aaaai

#4840000
b1010001001 aaaaf

#4860000
b1010001010 aaaaf
b1100011011 aaaai

#4880000
b1010001011 aaaaf

#4890000
b1100011100 aaaai

#4900000
b1010001100 aaaaf

#4920000
b1010001101 aaaaf
b1100011101 aaaai

#4940000
zaaaan
zaaaar

#4950000
b1100011110 aaaai

#4980000
b1100011111 aaaai

#5010000
b1100100000 aaaai

#5040000
b1100100001 aaaai

#5070000
b1100100010 aaaai

#5090000
b1010 aaaab
b100001010 aaaac
b100010 aaaah
1aaaam
1aaaaq

#5100000
b1011 aaaab
b100001011 aaaac
b100011 aaaah
b1100100011 aaaai

#5110000
b1100 aaaab
b100001100 aaaac

#5120000
b1101 aaaab
b100001101 aaaac

#5130000
b1110 aaaab
b100001110 aaaac
b100100 aaaah
b1100100100 aaaai

#5140000
b1111 aaaab
b100001111 aaaac

#5150000
b10000 aaaab
b100010000 aaaac

#5160000
b10001 aaaab
b100010001 aaaac
b100101 aaaah
b1100100101 aaaai

#5170000
b10010 aaaab
b100010010 aaaac

#5180000
b10011 aaaab
b100010011 aaaac

#5190000
b10100 aaaab
b100010100 aaaac
b100110 aaaah
b1100100110 aaaai

#5200000
b10101 aaaab
b100010101 aaaac

#5210000
b10110 aaaab
b100010110 aaaac

#5220000
b10111 aaaab
b100010111 aaaac
b100111 aaaah
b1100100111 aaaai

#5230000
b11000 aaaab
b100011000 aaaac

#5240000
b11001 aaaab
b100011001 aaaac

#5250000
b11010 aaaab
b100011010 aaaac
b101000 aaaah
b1100101000 aaaai

#5260000
b11011 aaaab
b100011011 aaaac

#5270000
b11100 aaaab
b100011100 aaaac

#5280000
b11101 aaaab
b100011101 aaaac
b101001 aaaah
b1100101001 aaaai

#5290000
b11110 aaaab
b100011110 aaaac

#5300000
b11111 aaaab
b100011111 aaaac

#5310000
b100000 aaaab
b100100000 aaaac
b101010 aaaah
b1100101010 aaaai

#5320000
b100001 aaaab
b100100001 aaaac

#5330000
b100010 aaaab
b100100010 aaaac

#5340000
b100011 aaaab
b100100011 aaaac
b101011 aaaah
b1100101011 aaaai

#5350000
b100100 aaaab
b100100100 aaaac

#5360000
b100101 aaaab
b100100101 aaaac

#5370000
b100110 aaaab
b100100110 aaaac
b101100 aaaah
b1100101100 aaaai

#5380000
b100111 aaaab
b100100111 aaaac

#5390000
b101000 aaaab
b100101000 aaaac

#5400000
b101001 aaaab
b100101001 aaaac
b101101 aaaah
b1100101101 aaaai

#5410000
b101010 aaaab
b100101010 aaaac

#5420000
b101011 aaaab
b100101011 aaaac

#5430000
b101100 aaaab
b100101100 aaaac
b101110 aaaah
b1100101110 aaaai

#5440000
b101101 aaaab
b100101101 aaaac

#5450000
b101110 aaaab
b100101110 aaaac

#5460000
b101111 aaaab
b100101111 aaaac
b101111 aaaah
b1100101111 aaaai

#5470000
b110000 aaaab
b100110000 aaaac

#5480000
b110001 aaaab
b100110001 aaaac

#5490000
b110010 aaaab
b100110010 aaaac
b110000 aaaah
b1100110000 aaaai

#5500000
b110011 aaaab
b100110011 aaaac

#5510000
b110100 aaaab
b100110100 aaaac

#5520000
b110101 aaaab
b100110101 aaaac
b110001 aaaah
b1100110001 aaaai

#5530000
b110110 aaaab
b100110110 aaaac

#5540000
b110111 aaaab
b100110111 aaaac
b10011000 aaaae
b1010011000 aaaaf
1aaaan
1aaaar

#5550000
b111000 aaaab
b100111000 aaaac
b110010 aaaah
b1100110010 aaaai

#5560000
b111001 aaaab
b100111001 aaaac
b10011001 aaaae
b1010011001 aaaaf

#5570000
b111010 aaaab
b100111010 aaaac

#5580000
b111011 aaaab
b100111011 aaaac
b10011010 aaaae
b1010011010 aaaaf
b110011 aaaah
b1100110011 aaaai

#5590000
b111100 aaaab
b100111100 aaaac

#5600000
b111101 aaaab
b100111101 aaaac
b10011011 aaaae
b1010011011 aaaaf

#5610000
b111110 aaaab
b100111110 aaaac
b110100 aaaah
b1100110100 aaaai

#5620000
b111111 aaaab
b100111111 aaaac
b10011100 aaaae
b1010011100 aaaaf

#5630000
b1000000 aaaab
b101000000 aaaac

#5640000
b1000001 aaaab
b101000001 aaaac
b10011101 aaaae
b1010011101 aaaaf
b110101 aaaah
b1100110101 aaaai

#5650000
b1000010 aaaab
b101000010 aaaac

#5660000
b1000011 aaaab
b101000011 aaaac
b10011110 aaaae
b1010011110 aaaaf

#5670000
b1000100 aaaab
b101000100 aaaac
b110110 aaaah
b1100110110 aaaai

#5680000
b1000101 aaaab
b101000101 aaaac
b10011111 aaaae
b1010011111 aaaaf

#5690000
b1000110 aaaab
b101000110 aaaac

#5700000
b1010100000 aaaaf
b1100110111 aaaai
zaaaam
zaaaaq

#5720000
b1010100001 aaaaf

#5730000
b1100111000 aaaai

#5740000
b1010100010 aaaaf

#5760000
b1010100011 aaaaf
b1100111001 aaaai

#5780000
b1010100100 aaaaf

#5790000
b1100111010 aaaai

#5800000
b1010100101 aaaaf
b1101000010 aaaal
1aaaap
1aaaat

#5820000
b1010100110 aaaaf
b1100111011 aaaai

#5840000
b1010100111 aaaaf
b1101000011 aaaal

#5850000
b1100111100 aaaai

#5860000
b1010101000 aaaaf

#5880000
b1010101001 aaaaf
b1100111101 aaaai
b1101000100 aaaal

#5900000
b1010101010 aaaaf

#5910000
b1100111110 aaaai

#5920000
b1010101011 aaaaf
b1101000101 aaaal

#5940000
b1010101100 aaaaf
b1100111111 aaaai

#5960000
b1010101101 aaaaf
b1101000110 aaaal

#5970000
b1101000000 aaaai

#5980000
b1010101110 aaaaf

#6000000
b1010101111 aaaaf
b1101000001 aaaai
b1101000111 aaaal

#6020000
b1010110000 aaaaf

#6030000
b1101000010 aaaai

#6040000
b1010110001 aaaaf
b1101001000 aaaal

#6060000
b1010110010 aaaaf
b1101000011 aaaai

#6080000
b1010110011 aaaaf
b1101001001 aaaal

#6090000
b1101000100 aaaai

#6100000
b1010110100 aaaaf

#6120000
b1010110101 aaaaf
b1101000101 aaaai
b1101001010 aaaal

#6140000
b1010110110 aaaaf

#6150000
b1101000110 aaaai

#6160000
b1010110111 aaaaf
b1101001011 aaaal

#6180000
b1010111000 aaaaf
b1101000111 aaaai

#6200000
b1010111001 aaaaf
b1101001100 aaaal

#6210000
b1101001000 aaaai

#6220000
b1010111010 aaaaf

#6240000
b1010111011 aaaaf
b1101001001 aaaai
b1101001101 aaaal

#6260000
b1010111100 aaaaf

#6270000
b1101001010 aaaai

#6280000
b1010111101 aaaaf
b1101001110 aaaal

#6300000
b1010111110 aaaaf
b1101001011 aaaai

#6320000
b1010111111 aaaaf
b1101001111 aaaal

#6330000
b1101001100 aaaai

#6340000
b1011000000 aaaaf

#6360000
b1011000001 aaaaf
b1101001101 aaaai
b1101010000 aaaal

#6380000
b1011000010 aaaaf

#6390000
b1101001110 aaaai

#6400000
b1011000011 aaaaf
b1101010001 aaaal

#6420000
b1011000100 aaaaf
b1101001111 aaaai

