Homework6_multiexchr/Homework6_multiexchr/dataExchange.vcd
$date
     May 02, 2017       23:42:54
$end

$version
 SystemC 2.3.1-Accellera --- Feb 20 2017 20:34:49
$end

$timescale
     1 ps
$end

$scope module SystemC $end
$var wire    8  aaaaa  inb1 [7:0]  $end
$var wire    8  aaaab  oub1 [7:0]  $end
$var wire   10  aaaac  adb1 [9:0]  $end
$var wire    8  aaaad  inb2 [7:0]  $end
$var wire    8  aaaae  oub2 [7:0]  $end
$var wire   10  aaaaf  adb2 [9:0]  $end
$var wire    8  aaaag  inb3 [7:0]  $end
$var wire    8  aaaah  oub3 [7:0]  $end
$var wire   10  aaaai  adb3 [9:0]  $end
$var wire    8  aaaaj  inb4 [7:0]  $end
$var wire    8  aaaak  oub4 [7:0]  $end
$var wire   10  aaaal  adb4 [9:0]  $end
$var wire    1  aaaam  cs1       $end
$var wire    1  aaaan  cs2       $end
$var wire    1  aaaao  cs3       $end
$var wire    1  aaaap  cs4       $end
$var wire    1  aaaaq  rwb1       $end
$var wire    1  aaaar  rwb2       $end
$var wire    1  aaaas  rwb3       $end
$var wire    1  aaaat  rwb4       $end
$upscope $end
$enddefinitions  $end

$comment
All initial values are dumped below at time 0 sec = 0 timescale units.
$end

$dumpvars
bXXXXXXXX aaaaa
bXXXXXXXX aaaab
bXXXXXXXXXX aaaac
bXXXXXXXX aaaad
bXXXXXXXX aaaae
bXXXXXXXXXX aaaaf
bXXXXXXXX aaaag
bXXXXXXXX aaaah
bXXXXXXXXXX aaaai
bXXXXXXXX aaaaj
bXXXXXXXX aaaak
bXXXXXXXXXX aaaal
xaaaam
xaaaan
xaaaao
xaaaap
xaaaaq
xaaaar
xaaaas
xaaaat
$end

#30000
b110 aaaaa
b1100101111 aaaac
b100111111 aaaai
b1001000111 aaaal
1aaaam
1aaaao
1aaaap
0aaaaq
1aaaas
1aaaat

#31000
b0 aaaaa
b1100110000 aaaac
b101000000 aaaai
b1001001000 aaaal

#32000
b111 aaaaa
b1100110001 aaaac
b101000001 aaaai
b1001001001 aaaal

#33000
b1100110010 aaaac
b101000010 aaaai
b1001001010 aaaal

#34000
b110 aaaaa
b1100110011 aaaac
b101000011 aaaai
b1001001011 aaaal

#35000
b1100110100 aaaac
b101000100 aaaai
b1001001100 aaaal

#36000
b0 aaaaa
b1100110101 aaaac
b101000101 aaaai
b1001001101 aaaal

#37000
b111 aaaaa
b1100110110 aaaac
b101000110 aaaai
b1001001110 aaaal

#38000
b110 aaaaa
b1100110111 aaaac
b101000111 aaaai
b1001001111 aaaal

#39000
b100 aaaaa
b1100111000 aaaac
b101001000 aaaai
b1001010000 aaaal

#40000
b11 aaaaa
b1100111001 aaaac
b101001001 aaaai
b1001010001 aaaal

#41000
b110 aaaaa
b1100111010 aaaac
b101001010 aaaai
b1001010010 aaaal

#42000
b10 aaaaa
b1100111011 aaaac
b101001011 aaaai
b1001010011 aaaal

#43000
b1 aaaaa
b1100111100 aaaac
b101001100 aaaai
b1001010100 aaaal

#44000
b100 aaaaa
b1100111101 aaaac
b101001101 aaaai
b1001010101 aaaal

#45000
b111 aaaaa
b1100111110 aaaac
b101001110 aaaai
b1001010110 aaaal

#46000
b110 aaaaa
b1100111111 aaaac
b101001111 aaaai
b1001010111 aaaal

#47000
bZZZZZZZZ aaaaa
bZZZZZZZZZZ aaaac
b0 aaaad
b110111 aaaaf
b101010000 aaaai
b1001011000 aaaal
zaaaam
1aaaan
zaaaaq
0aaaar

#48000
b1 aaaad
b111000 aaaaf
b101010001 aaaai
b1001011001 aaaal

#49000
b111001 aaaaf
b101010010 aaaai
b1001011010 aaaal

#50000
b10 aaaad
b111010 aaaaf
b101010011 aaaai
b1001011011 aaaal

#51000
b111 aaaad
b111011 aaaaf
b101010100 aaaai
b1001011100 aaaal

#52000
b11 aaaad
b111100 aaaaf
b101010101 aaaai
b1001011101 aaaal

#53000
b100 aaaad
b111101 aaaaf
b101010110 aaaai
b1001011110 aaaal

#54000
b1 aaaad
b111110 aaaaf
b101010111 aaaai
b1001011111 aaaal

#55000
b111 aaaad
b111111 aaaaf
b101011000 aaaai
b1001100000 aaaal

#56000
b11 aaaad
b1000000 aaaaf
b101011001 aaaai
b1001100001 aaaal

#57000
b101 aaaad
b1000001 aaaaf
b1001100010 aaaal
zaaaao
zaaaas

#58000
b11 aaaad
b1000010 aaaaf
b1001100011 aaaal

#59000
b10 aaaad
b1000011 aaaaf
b1001100100 aaaal

#60000
b1 aaaad
b1000100 aaaaf
b1001100101 aaaal

#61000
b11 aaaad
b1000101 aaaaf
b1001100110 aaaal

#62000
b10 aaaad
b1000110 aaaaf
b1001100111 aaaal

#63000
b11 aaaad
b1000111 aaaaf
b1001101000 aaaal

#64000
b101 aaaad
b1001000 aaaaf
b1001101001 aaaal

#65000
bZZZZZZZZ aaaad
bZZZZZZZZZZ aaaaf
b1001101010 aaaal
zaaaan
zaaaar

#66000
zaaaap
zaaaat

#77000
b11011110 aaaab
b11011110 aaaac
1aaaam
1aaaaq

#78000
b11011111 aaaab
b11011111 aaaac

#79000
b11100000 aaaab
b11100000 aaaac

#80000
b11100001 aaaab
b11100001 aaaac

#81000
b11100010 aaaab
b11100010 aaaac

#82000
b11100011 aaaab
b11100011 aaaac

#83000
b11100100 aaaab
b11100100 aaaac

#84000
b11100101 aaaab
b11100101 aaaac

#85000
b11100110 aaaab
b11100110 aaaac

#86000
b11100111 aaaab
b11100111 aaaac

#87000
b11101000 aaaab
b11101000 aaaac
b10110010 aaaah
b110110010 aaaai
1aaaao
1aaaas

#88000
b11101001 aaaab
b11101001 aaaac
b10110011 aaaah
b110110011 aaaai

#89000
b11101010 aaaab
b11101010 aaaac
b10110100 aaaah
b110110100 aaaai

#90000
b11101011 aaaab
b11101011 aaaac
b10110101 aaaah
b110110101 aaaai

#91000
b11101100 aaaab
b11101100 aaaac
b10110110 aaaah
b110110110 aaaai

#92000
b11101101 aaaab
b11101101 aaaac
b10110111 aaaah
b110110111 aaaai

#93000
b11101110 aaaab
b11101110 aaaac
b10111000 aaaah
b110111000 aaaai

#94000
b11101111 aaaab
b11101111 aaaac
b10111001 aaaah
b110111001 aaaai

#95000
b11110000 aaaab
b11110000 aaaac
b11101110 aaaae
b1011101110 aaaaf
b10111010 aaaah
b110111010 aaaai
1aaaan
1aaaar

#96000
b11110001 aaaab
b11110001 aaaac
b11101111 aaaae
b1011101111 aaaaf
b10111011 aaaah
b110111011 aaaai
b110 aaaaj
b110 aaaak
b1010111011 aaaal
1aaaap
0aaaat

#97000
b11110010 aaaab
b11110010 aaaac
b11110000 aaaae
b1011110000 aaaaf
b10111100 aaaah
b110111100 aaaai
b10 aaaaj
b10 aaaak
b1010111100 aaaal

#98000
b11110011 aaaab
b11110011 aaaac
b11110001 aaaae
b1011110001 aaaaf
b10111101 aaaah
b110111101 aaaai
b11 aaaaj
b11 aaaak
b1010111101 aaaal

#99000
b11110100 aaaab
b11110100 aaaac
b11110010 aaaae
b1011110010 aaaaf
b1010111110 aaaal
zaaaao
zaaaas

#100000
b11110101 aaaab
b11110101 aaaac
b11110011 aaaae
b1011110011 aaaaf
b110 aaaaj
b110 aaaak
b1010111111 aaaal

#101000
b11110110 aaaab
b11110110 aaaac
b11110100 aaaae
b1011110100 aaaaf
b1 aaaaj
b1 aaaak
b1011000000 aaaal

#102000
b11110111 aaaab
b11110111 aaaac
b11110101 aaaae
b1011110101 aaaaf
b111 aaaaj
b111 aaaak
b1011000001 aaaal

#103000
b11111000 aaaab
b11111000 aaaac
b11110110 aaaae
b1011110110 aaaaf
b1 aaaaj
b1 aaaak
b1011000010 aaaal

#104000
b11111001 aaaab
b11111001 aaaac
b11110111 aaaae
b1011110111 aaaaf
b100 aaaaj
b100 aaaak
b1011000011 aaaal

#105000
b11111010 aaaab
b11111010 aaaac
b11111000 aaaae
b1011111000 aaaaf
b1011000100 aaaal

#106000
b11111011 aaaab
b11111011 aaaac
b11111001 aaaae
b1011111001 aaaaf
b1 aaaaj
b1 aaaak
b1011000101 aaaal

#107000
b11111100 aaaab
b11111100 aaaac
b11111010 aaaae
b1011111010 aaaaf
b10 aaaaj
b10 aaaak
b1011000110 aaaal

#108000
b11111101 aaaab
b11111101 aaaac
b11111011 aaaae
b1011111011 aaaaf
b0 aaaaj
b0 aaaak
b1011000111 aaaal

#109000
b11111110 aaaab
b11111110 aaaac
b11111100 aaaae
b1011111100 aaaaf
b111 aaaaj
b111 aaaak
b1011001000 aaaal

#110000
b11111111 aaaab
b11111111 aaaac
b11111101 aaaae
b1011111101 aaaaf
b10 aaaaj
b10 aaaak
b1011001001 aaaal

#111000
b0 aaaab
b100000000 aaaac
b11111110 aaaae
b1011111110 aaaaf
b1 aaaaj
b1 aaaak
b1011001010 aaaal

#112000
b1 aaaab
b100000001 aaaac
b11111111 aaaae
b1011111111 aaaaf
b101 aaaaj
b101 aaaak
b1011001011 aaaal

#113000
b10 aaaab
b100000010 aaaac
b0 aaaae
b1100000000 aaaaf
b0 aaaaj
b0 aaaak
b1011001100 aaaal

#114000
b11 aaaab
b100000011 aaaac
b1 aaaae
b1100000001 aaaaf
b110 aaaaj
b110 aaaak
b1011001101 aaaal

#115000
b100 aaaab
b100000100 aaaac
b10 aaaae
b1100000010 aaaaf
b0 aaaaj
b0 aaaak
b1011001110 aaaal

#116000
b101 aaaab
b100000101 aaaac
b11 aaaae
b1100000011 aaaaf
b111 aaaaj
b111 aaaak
b1011001111 aaaal

#117000
b110 aaaab
b100000110 aaaac
b100 aaaae
b1100000100 aaaaf
b101 aaaaj
b101 aaaak
b1011010000 aaaal

#118000
b111 aaaab
b100000111 aaaac
b101 aaaae
b1100000101 aaaaf
b100 aaaaj
b100 aaaak
b1011010001 aaaal

#119000
b1000 aaaab
b100001000 aaaac
b110 aaaae
b1100000110 aaaaf
b10 aaaaj
b10 aaaak
b1011010010 aaaal

#120000
b1001 aaaab
b100001001 aaaac
b111 aaaae
b1100000111 aaaaf
b100 aaaaj
b100 aaaak
b1011010011 aaaal

#121000
b1010 aaaab
b100001010 aaaac
b1000 aaaae
b1100001000 aaaaf
b110 aaaaj
b110 aaaak
b1011010100 aaaal

#122000
b1011 aaaab
b100001011 aaaac
b1001 aaaae
b1100001001 aaaaf
b1 aaaaj
b1 aaaak
b1011010101 aaaal

#123000
b1100 aaaab
b100001100 aaaac
b1010 aaaae
b1100001010 aaaaf
b0 aaaaj
b0 aaaak
b1011010110 aaaal

#124000
b1101 aaaab
b100001101 aaaac
b1011 aaaae
b1100001011 aaaaf
b110 aaaaj
b110 aaaak
b1011010111 aaaal

#125000
b1110 aaaab
b100001110 aaaac
b1100 aaaae
b1100001100 aaaaf
b100 aaaaj
b100 aaaak
b1011011000 aaaal

#126000
b1111 aaaab
b100001111 aaaac
b1101 aaaae
b1100001101 aaaaf
b101 aaaaj
b101 aaaak
b1011011001 aaaal

#127000
b10000 aaaab
b100010000 aaaac
b1110 aaaae
b1100001110 aaaaf
b1 aaaaj
b1 aaaak
b1011011010 aaaal

#128000
b10001 aaaab
b100010001 aaaac
b1111 aaaae
b1100001111 aaaaf
b0 aaaaj
b0 aaaak
b1011011011 aaaal

#129000
b10010 aaaab
b100010010 aaaac
b10000 aaaae
b1100010000 aaaaf
b10 aaaaj
b10 aaaak
b1011011100 aaaal

#130000
b10011 aaaab
b100010011 aaaac
b10001 aaaae
b1100010001 aaaaf
b110 aaaaj
b110 aaaak
b1011011101 aaaal

#131000
b10100 aaaab
b100010100 aaaac
b10010 aaaae
b1100010010 aaaaf
b101 aaaaj
b101 aaaak
b1011011110 aaaal

#132000
b10101 aaaab
b100010101 aaaac
b10011 aaaae
b1100010011 aaaaf
b111 aaaaj
b111 aaaak
b1011011111 aaaal

#133000
b10110 aaaab
b100010110 aaaac
b10100 aaaae
b1100010100 aaaaf
b11 aaaaj
b11 aaaak
b1011100000 aaaal

#134000
b10111 aaaab
b100010111 aaaac
b10101 aaaae
b1100010101 aaaaf
b100 aaaaj
b100 aaaak
b1011100001 aaaal

#135000
b11000 aaaab
b100011000 aaaac
b10110 aaaae
b1100010110 aaaaf
b1011100010 aaaal

#136000
b11001 aaaab
b100011001 aaaac
b10111 aaaae
b1100010111 aaaaf
b11 aaaaj
b11 aaaak
b1011100011 aaaal

#137000
b11010 aaaab
b100011010 aaaac
b11000 aaaae
b1100011000 aaaaf
b101 aaaaj
b101 aaaak
b1011100100 aaaal

#138000
b11011 aaaab
b100011011 aaaac
b11001 aaaae
b1100011001 aaaaf
b1011100101 aaaal

#139000
b1100011010 aaaaf
b10 aaaaj
b1011100110 aaaal
zaaaam
zaaaaq

#140000
b1100011011 aaaaf
b110 aaaaj
b1011100111 aaaal

#141000
b1100011100 aaaaf
b100 aaaaj
b1011101000 aaaal

#142000
b1100011101 aaaaf
b1 aaaaj
b1011101001 aaaal

#143000
b1100011110 aaaaf
b111 aaaaj
b1011101010 aaaal

#144000
b1100011111 aaaaf
b101 aaaaj
b1011101011 aaaal

#145000
b1100100000 aaaaf
b1 aaaaj
b1011101100 aaaal

#146000
b1100100001 aaaaf
b0 aaaaj
b1011101101 aaaal

#147000
b100 aaaaj
b1011101110 aaaal
zaaaan
zaaaar

#148000
b1011101111 aaaal

#149000
b1011110000 aaaal

#150000
b111 aaaag
b100100001 aaaai
bZZZZZZZZ aaaaj
bZZZZZZZZZZ aaaal
1aaaao
zaaaap
0aaaas
zaaaat

#151000
b100 aaaag
b100100010 aaaai

#152000
b0 aaaag
b100100011 aaaai

#153000
b1 aaaag
b100100100 aaaai

#154000
b111 aaaag
b100100101 aaaai

#155000
b100100110 aaaai

#156000
b11 aaaag
b100100111 aaaai

#157000
b1 aaaag
b100101000 aaaai

#158000
b10 aaaag
b100101001 aaaai

#159000
b101 aaaag
b100101010 aaaai

#160000
b1 aaaag
b100101011 aaaai

#161000
b0 aaaag
b100101100 aaaai

#162000
b101 aaaag
b100101101 aaaai

#163000
b10 aaaag
b100101110 aaaai

#164000
b101 aaaag
b100101111 aaaai

#165000
b11 aaaag
b100110000 aaaai

#166000
b100110001 aaaai

#167000
b100110010 aaaai

#168000
b10 aaaag
b100110011 aaaai

#169000
b110 aaaag
b100110100 aaaai

#170000
b1 aaaag
b100110101 aaaai

#171000
b111 aaaag
b100110110 aaaai

#172000
b10 aaaag
b100110111 aaaai

#173000
b101 aaaag
b100111000 aaaai

#174000
b111 aaaag
b100111001 aaaai

#175000
b11 aaaag
b100111010 aaaai

#176000
b0 aaaag
b100111011 aaaai

#177000
b1110100101 aaaaf
b111 aaaag
b100111100 aaaai
1aaaan
1aaaar

#178000
b1110100110 aaaaf
b11 aaaag
b100111101 aaaai

#179000
b1110100111 aaaaf
b110 aaaag
b100111110 aaaai

#180000
b1110101000 aaaaf
b101 aaaag
b100111111 aaaai
b11101111 aaaal
1aaaap
1aaaat

#181000
b1110101001 aaaaf
b100 aaaag
b101000000 aaaai
b11110000 aaaal

#182000
b1110101010 aaaaf
b0 aaaag
b101000001 aaaai
b11110001 aaaal

#183000
b1110101011 aaaaf
b111 aaaag
b101000010 aaaai
b11110010 aaaal

#184000
b1110101100 aaaaf
b0 aaaag
b101000011 aaaai
b11110011 aaaal

#185000
b1110101101 aaaaf
b101000100 aaaai
b11110100 aaaal

#186000
b1110101110 aaaaf
b111 aaaag
b101000101 aaaai
b11110101 aaaal

#187000
b1110101111 aaaaf
b100 aaaag
b101000110 aaaai
b11110110 aaaal

#188000
b1110110000 aaaaf
b1 aaaag
b101000111 aaaai
zaaaap
zaaaat

#189000
b1110110001 aaaaf
b0 aaaag
b101001000 aaaai

#190000
b1110110010 aaaaf
b100 aaaag
b101001001 aaaai

#191000
b1110110011 aaaaf
b101001010 aaaai

#192000
b1110110100 aaaaf
b0 aaaag
b101001011 aaaai

#193000
b1110110101 aaaaf
b101 aaaag
b101001100 aaaai

#194000
b1110110110 aaaaf
b101001101 aaaai

#195000
b1110110111 aaaaf
b110 aaaag
b101001110 aaaai

#196000
b1110111000 aaaaf
b1 aaaag
b101001111 aaaai

#197000
b1110111001 aaaaf
b110 aaaag
b101010000 aaaai

#198000
b1110111010 aaaaf
b111 aaaag
b101010001 aaaai

#199000
b1110111011 aaaaf
b100 aaaag
b101010010 aaaai

#200000
b1110111100 aaaaf
b11 aaaag
b101010011 aaaai

#201000
b1110111101 aaaaf
b101010100 aaaai

#202000
b1110111110 aaaaf
b10 aaaag
b101010101 aaaai

#203000
b1110111111 aaaaf
b11 aaaag
b101010110 aaaai

#204000
b1111000000 aaaaf
b1 aaaag
b101010111 aaaai

#205000
b1111000001 aaaaf
b0 aaaag
b101011000 aaaai

#206000
b1111000010 aaaaf
b101 aaaag
b101011001 aaaai

#207000
b1111000011 aaaaf
b100 aaaag
b101011010 aaaai

#208000
b1111000100 aaaaf
b1 aaaag
b101011011 aaaai

#209000
b1111000101 aaaaf
b110 aaaag
b101011100 aaaai

#210000
b1111000110 aaaaf
b100 aaaag
b101011101 aaaai

#211000
b100 aaaaa
b1010111101 aaaac
b1111000111 aaaaf
bZZZZZZZZ aaaag
bZZZZZZZZZZ aaaai
1aaaam
zaaaao
0aaaaq
zaaaas

#212000
b1010111110 aaaac
b1111001000 aaaaf

#213000
b11 aaaaa
b1010111111 aaaac
b1111001001 aaaaf

#214000
b111 aaaaa
b1011000000 aaaac
b1111001010 aaaaf

#215000
b100 aaaaa
b1011000001 aaaac
b1111001011 aaaaf

#216000
b10 aaaaa
b1011000010 aaaac
b1111001100 aaaaf

#217000
b101 aaaaa
b1011000011 aaaac
b1111001101 aaaaf

#218000
b100 aaaaa
b1011000100 aaaac
b1111001110 aaaaf
b1000111001 aaaal
1aaaap
1aaaat

#219000
b110 aaaaa
b1011000101 aaaac
b1111001111 aaaaf
b1000111010 aaaal

#220000
b0 aaaaa
b1011000110 aaaac
b1111010000 aaaaf
b1000111011 aaaal

#221000
b10 aaaaa
b1011000111 aaaac
b1111010001 aaaaf
b1000111100 aaaal

#222000
b111 aaaaa
b1011001000 aaaac
b1111010010 aaaaf
b1000111101 aaaal

#223000
b10 aaaaa
b1011001001 aaaac
b1111010011 aaaaf
b1000111110 aaaal

#224000
bZZZZZZZZ aaaaa
bZZZZZZZZZZ aaaac
b1000111111 aaaal
zaaaam
zaaaan
zaaaaq
zaaaar

#225000
b1001000000 aaaal

#226000
b1001000001 aaaal

#227000
b1001000010 aaaal

#228000
b1001000011 aaaal

#229000
b1001000100 aaaal

#230000
b1001000101 aaaal

#231000
b1001000110 aaaal

#232000
b1001000111 aaaal

#233000
b1001001000 aaaal

#234000
b1001001001 aaaal

#235000
b1001001010 aaaal

#236000
b1001001011 aaaal

#237000
b1001001100 aaaal

#238000
b1001001101 aaaal

#239000
b1001001110 aaaal

#240000
b1001001111 aaaal

#241000
b100001011 aaaai
b1001010000 aaaal
1aaaao
1aaaas

#242000
b100001100 aaaai
b1001010001 aaaal

#243000
b100001101 aaaai
b1001010010 aaaal

#244000
b100001110 aaaai
b1001010011 aaaal

#245000
b100001111 aaaai
b1001010100 aaaal

#246000
b100010000 aaaai
b1001010101 aaaal

#247000
b100010001 aaaai
b1001010110 aaaal

#248000
b100010010 aaaai
b1001010111 aaaal

#249000
b100010011 aaaai
b1001011000 aaaal

#250000
b100010100 aaaai
b1001011001 aaaal

#251000
b100010101 aaaai
b1001011010 aaaal

#252000
b100010110 aaaai
b1001011011 aaaal

#253000
b100010111 aaaai
b1001011100 aaaal

#254000
b110 aaaab
b1100110111 aaaac
b11000 aaaah
b100011000 aaaai
b1011101 aaaak
b1001011101 aaaal
1aaaam
1aaaaq

#255000
b100 aaaab
b1100111000 aaaac
b11001 aaaah
b100011001 aaaai
b1011110 aaaak
b1001011110 aaaal

#256000
b11 aaaab
b1100111001 aaaac
b11010 aaaah
b100011010 aaaai
b1011111 aaaak
b1001011111 aaaal

#257000
b110 aaaab
b1100111010 aaaac
b11011 aaaah
b100011011 aaaai
b1100000 aaaak
b1001100000 aaaal

#258000
b10 aaaab
b1100111011 aaaac
b11100 aaaah
b100011100 aaaai
b1100001 aaaak
b1001100001 aaaal

#259000
b1 aaaab
b1100111100 aaaac
b11101 aaaah
b100011101 aaaai
b1100010 aaaak
b1001100010 aaaal

#260000
b100 aaaab
b1100111101 aaaac
b11110 aaaah
b100011110 aaaai
b1100011 aaaak
b1001100011 aaaal

#261000
b111 aaaab
b1100111110 aaaac
b11111 aaaah
b100011111 aaaai
b1100100 aaaak
b1001100100 aaaal

#262000
b110 aaaab
b1100111111 aaaac
b100000 aaaah
b100100000 aaaai
b1100101 aaaak
b1001100101 aaaal

#263000
b1000000 aaaab
b1101000000 aaaac
b111 aaaah
b100100001 aaaai
b1100110 aaaak
b1001100110 aaaal

#264000
b1000001 aaaab
b1101000001 aaaac
b100 aaaah
b100100010 aaaai
b1100111 aaaak
b1001100111 aaaal

#265000
b1000010 aaaab
b1101000010 aaaac
b11111001 aaaae
b11111001 aaaaf
b1101000 aaaak
b1001101000 aaaal
1aaaan
zaaaao
1aaaar
zaaaas

#266000
b1000011 aaaab
b1101000011 aaaac
b11111010 aaaae
b11111010 aaaaf
b1101001 aaaak
b1001101001 aaaal

#267000
b1000100 aaaab
b1101000100 aaaac
b11111011 aaaae
b11111011 aaaaf
b1101010 aaaak
b1001101010 aaaal

#268000
b1000101 aaaab
b1101000101 aaaac
b11111100 aaaae
b11111100 aaaaf
b1101011 aaaak
b1001101011 aaaal

#269000
b1000110 aaaab
b1101000110 aaaac
b11111101 aaaae
b11111101 aaaaf
b1101100 aaaak
b1001101100 aaaal

#270000
b1000111 aaaab
b1101000111 aaaac
b11111110 aaaae
b11111110 aaaaf
b1101101 aaaak
b1001101101 aaaal

#271000
b11111111 aaaaf
b1001101110 aaaal
zaaaam
zaaaaq

#272000
b100000000 aaaaf
b1001101111 aaaal

#273000
b100000001 aaaaf
b1001110000 aaaal

#274000
b100000010 aaaaf
b1001110001 aaaal

#275000
b100000011 aaaaf
b1001110010 aaaal

#276000
b100000100 aaaaf
b1001110011 aaaal

#277000
b100000101 aaaaf
zaaaap
zaaaat

#278000
b100000110 aaaaf

#279000
b100000111 aaaaf

#280000
b100001000 aaaaf

#281000
b100001001 aaaaf

#282000
b100001010 aaaaf

#283000
b100001011 aaaaf

#284000
b100001100 aaaaf

#285000
b100001101 aaaaf

#286000
b100001110 aaaaf

#287000
b100001111 aaaaf

#288000
b100010000 aaaaf

#289000
b100010001 aaaaf

#290000
b100010010 aaaaf

#291000
b100010011 aaaaf

#292000
b100010100 aaaaf

#293000
b100010101 aaaaf

#294000
b100010110 aaaaf

#295000
b100010111 aaaaf
b100 aaaag
b111101110 aaaai
1aaaao
0aaaas

#296000
b100011000 aaaaf
b10 aaaag
b111101111 aaaai

#297000
b100011001 aaaaf
b1 aaaag
b111110000 aaaai

#298000
b100011010 aaaaf
b100 aaaag
b111110001 aaaai

#299000
b100011011 aaaaf
b1 aaaag
b111110010 aaaai

#300000
b100011100 aaaaf
b10 aaaag
b111110011 aaaai

#301000
b10111010 aaaab
b1010111010 aaaac
b11101 aaaae
b100011101 aaaaf
b1 aaaag
b1 aaaah
b111110100 aaaai
1aaaam
1aaaaq

#302000
b110 aaaab
b1010111011 aaaac
b11110 aaaae
b100011110 aaaaf
b100 aaaag
b100 aaaah
b111110101 aaaai

#303000
b10 aaaab
b1010111100 aaaac
b11111 aaaae
b100011111 aaaaf
b0 aaaag
b0 aaaah
b111110110 aaaai

#304000
b100 aaaab
b1010111101 aaaac
b100000 aaaae
b100100000 aaaaf
b1 aaaag
b1 aaaah
b111110111 aaaai

#305000
b1010111110 aaaac
b111 aaaae
b100100001 aaaaf
b110 aaaag
b110 aaaah
b111111000 aaaai

#306000
b11 aaaab
b1010111111 aaaac
b100 aaaae
b100100010 aaaaf
b100 aaaag
b100 aaaah
b111111001 aaaai

#307000
b111 aaaab
b1011000000 aaaac
b0 aaaae
b100100011 aaaaf
b110 aaaag
b110 aaaah
b111111010 aaaai
b10100110 aaaak
b10100110 aaaal
1aaaap
1aaaat

#308000
b100 aaaab
b1011000001 aaaac
b1 aaaae
b100100100 aaaaf
b0 aaaag
b0 aaaah
b111111011 aaaai
b10100111 aaaak
b10100111 aaaal

#309000
b10 aaaab
b1011000010 aaaac
b111 aaaae
b100100101 aaaaf
b100 aaaag
b100 aaaah
b111111100 aaaai
b10101000 aaaak
b10101000 aaaal

#310000
b101 aaaab
b1011000011 aaaac
b100100110 aaaaf
b111111101 aaaai
b10101001 aaaak
b10101001 aaaal

#311000
b100 aaaab
b1011000100 aaaac
b11 aaaae
b100100111 aaaaf
b0 aaaag
b0 aaaah
b111111110 aaaai
b10101010 aaaak
b10101010 aaaal

#312000
b110 aaaab
b1011000101 aaaac
b1 aaaae
b100101000 aaaaf
b111111111 aaaai
b10101011 aaaak
b10101011 aaaal

#313000
b0 aaaab
b1011000110 aaaac
b10 aaaae
b100101001 aaaaf
b11 aaaag
b11 aaaah
b1000000000 aaaai
b10101100 aaaak
b10101100 aaaal

#314000
b10 aaaab
b1011000111 aaaac
b101 aaaae
b100101010 aaaaf
b1 aaaag
b1 aaaah
b1000000001 aaaai
b10101101 aaaak
b10101101 aaaal

#315000
b100101011 aaaaf
b0 aaaag
b1000000010 aaaai
b10101110 aaaal
zaaaam
zaaaaq

#316000
b100101100 aaaaf
b11 aaaag
b1000000011 aaaai
b10101111 aaaal

#317000
b100101101 aaaaf
b111 aaaag
b1000000100 aaaai
b10110000 aaaal

#318000
b100101110 aaaaf
b11 aaaag
b1000000101 aaaai
b10110001 aaaal

#319000
b100101111 aaaaf
b0 aaaag
b1000000110 aaaai
b10110010 aaaal

#320000
b100110000 aaaaf
b110 aaaag
b1000000111 aaaai
b10110011 aaaal

#321000
b100110001 aaaaf
b0 aaaag
b1000001000 aaaai
b10110100 aaaal

#322000
b100110010 aaaaf
b101 aaaag
b1000001001 aaaai
b10110101 aaaal

#323000
b100 aaaag
b1000001010 aaaai
b10110110 aaaal
zaaaan
zaaaar

#324000
b1000001011 aaaai
b10110111 aaaal

#325000
bZZZZZZZZ aaaag
bZZZZZZZZZZ aaaai
b10111000 aaaal
zaaaao
zaaaas

#326000
b10111001 aaaal

#327000
b10111010 aaaal

#328000
b10111011 aaaal

#329000
b10111100 aaaal

#330000
b10111101 aaaal

#331000
b10111110 aaaal

#332000
b10111111 aaaal

#333000
b11000000 aaaal

#334000
b11000001 aaaal

#335000
b11000010 aaaal

#336000
b11000011 aaaal

#337000
b11000100 aaaal

#338000
b11000101 aaaal

#339000
b11000110 aaaal

#340000
b11000111 aaaal

#341000
b11001000 aaaal

#342000
b11001001 aaaal

#343000
b11001010 aaaal

#344000
b11001011 aaaal

#345000
b111 aaaaa
b1100001100 aaaac
b11001100 aaaal
1aaaam
0aaaaq

#346000
b0 aaaaa
b1100001101 aaaac
b11001101 aaaal

#347000
b111 aaaaa
b1100001110 aaaac
b11001110 aaaal

#348000
b0 aaaaa
b1100001111 aaaac
b11001111 aaaal

#349000
b11 aaaaa
b1100010000 aaaac
b11010000 aaaal

#350000
b1100010001 aaaac
b11010001 aaaal

#351000
b10 aaaaa
b1100010010 aaaac
b11010010 aaaal

#352000
b1 aaaaa
b1100010011 aaaac
b11010011 aaaal

#353000
b11 aaaaa
b1100010100 aaaac
b11010100 aaaal

#354000
b101 aaaaa
b1100010101 aaaac
b11010101 aaaal

#355000
b11 aaaaa
b1100010110 aaaac
b10110100 aaaai
b11010110 aaaal
1aaaao
1aaaas

#356000
b1 aaaaa
b1100010111 aaaac
b10110101 aaaai
b11010111 aaaal

#357000
b11 aaaaa
b1100011000 aaaac
b10110110 aaaai
b11011000 aaaal

#358000
b110 aaaaa
b1100011001 aaaac
b10110111 aaaai
b11011001 aaaal

#359000
b100 aaaaa
b1100011010 aaaac
b10111000 aaaai
b11011010 aaaal

#360000
b1100011011 aaaac
b10111001 aaaai
b11011011 aaaal

#361000
b101 aaaaa
b1100011100 aaaac
b10111010 aaaai
b11011100 aaaal

#362000
b1 aaaaa
b1100011101 aaaac
b10111011 aaaai
b11011101 aaaal

#363000
b10 aaaaa
b1100011110 aaaac
b10111100 aaaai
b11011110 aaaal

#364000
b101 aaaaa
b1100011111 aaaac
b10111101 aaaai
b11011111 aaaal

#365000
b11 aaaaa
b1100100000 aaaac
b10111110 aaaai
b11100000 aaaal

#366000
b1 aaaaa
b1100100001 aaaac
b10111111 aaaai
b11100001 aaaal

#367000
b1100100010 aaaac
b11000000 aaaai
b11100010 aaaal

#368000
b111 aaaaa
b1100100011 aaaac
b11000001 aaaai
zaaaap
zaaaat

#369000
b100 aaaaa
b1100100100 aaaac
b11000010 aaaai

#370000
b11 aaaaa
b1100100101 aaaac
b11000011 aaaai

#371000
b111 aaaaa
b1100100110 aaaac
b11000100 aaaai

#372000
b11 aaaaa
b1100100111 aaaac
b11000101 aaaai

#373000
b110 aaaaa
b1100101000 aaaac
b11000110 aaaai

#374000
b11 aaaaa
b1100101001 aaaac
b11000111 aaaai

#375000
b0 aaaaa
b1100101010 aaaac
b11001000 aaaai

#376000
b1 aaaaa
b1100101011 aaaac
b11001001 aaaai

#377000
b100 aaaaa
b1100101100 aaaac
b11001010 aaaai

#378000
b1 aaaaa
b1100101101 aaaac
b11001011 aaaai

#379000
b11 aaaaa
b1100101110 aaaac
b11001100 aaaai

#380000
b10 aaaaa
b1100101111 aaaac
b11001101 aaaai

#381000
b0 aaaaa
b1100110000 aaaac
b11001110 aaaai

#382000
b100 aaaaa
b1100110001 aaaac
b11001111 aaaai

#383000
b10 aaaaa
b1100110010 aaaac
b11010000 aaaai

#384000
b100 aaaaa
b1100110011 aaaac
b11010001 aaaai

#385000
b1 aaaaa
b1100110100 aaaac
b11010010 aaaai

