Homework6_multiexchr/Homework6_multiexchr/dataExchange.vcd
$date
     May 03, 2017       21:52:14
$end

$version
 SystemC 2.3.1-Accellera --- Feb 20 2017 20:34:49
$end

$timescale
     1 ps
$end

$scope module SystemC $end
$var wire    8  aaaaa  inb1 [7:0]  $end
$var wire    8  aaaab  oub1 [7:0]  $end
$var wire   10  aaaac  adb1 [9:0]  $end
$var wire    8  aaaad  inb2 [7:0]  $end
$var wire    8  aaaae  oub2 [7:0]  $end
$var wire   10  aaaaf  adb2 [9:0]  $end
$var wire    8  aaaag  inb3 [7:0]  $end
$var wire    8  aaaah  oub3 [7:0]  $end
$var wire   10  aaaai  adb3 [9:0]  $end
$var wire    8  aaaaj  inb4 [7:0]  $end
$var wire    8  aaaak  oub4 [7:0]  $end
$var wire   10  aaaal  adb4 [9:0]  $end
$var wire    1  aaaam  cs1       $end
$var wire    1  aaaan  cs2       $end
$var wire    1  aaaao  cs3       $end
$var wire    1  aaaap  cs4       $end
$var wire    1  aaaaq  rwb1       $end
$var wire    1  aaaar  rwb2       $end
$var wire    1  aaaas  rwb3       $end
$var wire    1  aaaat  rwb4       $end
$upscope $end
$enddefinitions  $end

$comment
All initial values are dumped below at time 0 sec = 0 timescale units.
$end

$dumpvars
bXXXXXXXX aaaaa
bXXXXXXXX aaaab
bXXXXXXXXXX aaaac
bXXXXXXXX aaaad
bXXXXXXXX aaaae
bXXXXXXXXXX aaaaf
bXXXXXXXX aaaag
bXXXXXXXX aaaah
bXXXXXXXXXX aaaai
bXXXXXXXX aaaaj
bXXXXXXXX aaaak
bXXXXXXXXXX aaaal
xaaaam
xaaaan
xaaaao
xaaaap
xaaaaq
xaaaar
xaaaas
xaaaat
$end

#30000
b111 aaaaj
b110010000 aaaal
1aaaap
0aaaat

#31000
b0 aaaab
b1100100 aaaac
b0 aaaae
b11001000 aaaaf
1aaaam
1aaaan
1aaaaq
1aaaar

#32000
b10 aaaaj
b110010001 aaaal

#33000
b1100101 aaaac
b11001001 aaaaf

#34000
b1 aaaaj
b110010010 aaaal

#35000
b1100110 aaaac
b11001010 aaaaf

#36000
b111 aaaaj
b110010011 aaaal

#37000
b1100111 aaaac
b11001011 aaaaf

#38000
b110010100 aaaal

#39000
b1101000 aaaac
b11001100 aaaaf

#40000
b110 aaaaj
b110010101 aaaal

#41000
b1101001 aaaac
b11001101 aaaaf

#42000
b0 aaaaj
b110010110 aaaal

#43000
b1101010 aaaac
b11001110 aaaaf

#44000
b1 aaaaj
b110010111 aaaal

#45000
b1101011 aaaac
b11001111 aaaaf

#46000
b100 aaaaj
b110011000 aaaal

#47000
b1101100 aaaac
b11010000 aaaaf

#48000
b11 aaaaj
b110011001 aaaal

#49000
b1101101 aaaac
b11010001 aaaaf

#50000
b10 aaaaj
b110011010 aaaal

#51000
b1101110 aaaac
b11010010 aaaaf

#52000
b101 aaaaj
b110011011 aaaal

#53000
b1101111 aaaac
b11010011 aaaaf

#54000
b10 aaaaj
b110011100 aaaal

#55000
b1110000 aaaac
b11010100 aaaaf

#56000
b0 aaaaj
b110011101 aaaal

#57000
b1110001 aaaac
b11010101 aaaaf

#58000
b0 aaaag
b100101100 aaaai
bZZZZZZZZ aaaaj
bZZZZZZZZZZ aaaal
1aaaao
zaaaap
0aaaas
zaaaat

#59000
b1110010 aaaac
b11010110 aaaaf

#60000
b100101101 aaaai

#61000
b1110011 aaaac
b11010111 aaaaf

#62000
b1 aaaag
b100101110 aaaai

#63000
b1110100 aaaac
b11011000 aaaaf

#64000
b111 aaaag
b100101111 aaaai

#65000
b1110101 aaaac
b11011001 aaaaf

#66000
b0 aaaag
b100110000 aaaai

#67000
b1110110 aaaac
b11011010 aaaaf

#68000
b10 aaaag
b100110001 aaaai

#69000
b1110111 aaaac
b11011011 aaaaf

#70000
b11 aaaag
b100110010 aaaai

#71000
b1111000 aaaac
b11011100 aaaaf

#72000
b0 aaaag
b100110011 aaaai

#73000
b1111001 aaaac
b11011101 aaaaf

#74000
b110 aaaag
b100110100 aaaai

#75000
b1111010 aaaac
b11011110 aaaaf

#76000
b1 aaaag
b100110101 aaaai

#77000
b1111011 aaaac
zaaaan
zaaaar

#78000
b111 aaaag
b100110110 aaaai

#79000
b1111100 aaaac

#80000
b100 aaaag
b100110111 aaaai

#81000
b1111101 aaaac

#82000
b10 aaaag
b100111000 aaaai

#83000
b1111110 aaaac

#84000
b100111001 aaaai

#85000
b1111111 aaaac

#86000
b11 aaaag
b100111010 aaaai

#87000
b10000000 aaaac

#88000
b10 aaaag
b100111011 aaaai

#89000
b10000001 aaaac
b111 aaaak
b110010000 aaaal
1aaaap
1aaaat

#90000
b11 aaaag
b100111100 aaaai

#91000
b10000010 aaaac
b10 aaaak
b110010001 aaaal

#92000
b10 aaaag
b100111101 aaaai

#93000
b10000011 aaaac
b1 aaaak
b110010010 aaaal

#94000
b0 aaaag
b100111110 aaaai

#95000
b10000100 aaaac
b111 aaaak
b110010011 aaaal

#96000
b110 aaaag
b100111111 aaaai

#97000
b10000101 aaaac
b110010100 aaaal

#98000
b10 aaaag
b101000000 aaaai

#99000
b10000110 aaaac
b110 aaaak
b110010101 aaaal

#100000
b11 aaaag
b101000001 aaaai

#101000
b10000111 aaaac
b0 aaaak
b110010110 aaaal

#102000
b0 aaaag
b101000010 aaaai

#103000
b10001000 aaaac
b1 aaaak
b110010111 aaaal

#104000
b101000011 aaaai

#105000
b10001001 aaaac
b100 aaaak
b110011000 aaaal

#106000
b101000100 aaaai

#107000
b10001010 aaaac
b11 aaaak
b110011001 aaaal

#108000
b11001000 aaaaf
b111 aaaag
b101000101 aaaai
1aaaan
1aaaar

#109000
b10001011 aaaac
b10 aaaak
b110011010 aaaal

#110000
b11001001 aaaaf
b1 aaaag
b101000110 aaaai

#111000
b10001100 aaaac
b101 aaaak
b110011011 aaaal

#112000
b11001010 aaaaf
b0 aaaag
b101000111 aaaai

#113000
b10001101 aaaac
b10 aaaak
b110011100 aaaal

#114000
b11001011 aaaaf
b100 aaaag
b101001000 aaaai

#115000
b10001110 aaaac
b0 aaaak
b110011101 aaaal

#116000
b11001100 aaaaf
b0 aaaag
b101001001 aaaai

#117000
b10001111 aaaac
b110011110 aaaal

#118000
b11 aaaag
b101001010 aaaai
zaaaan
zaaaar

#119000
b10010000 aaaac
b110011111 aaaal

#120000
b1 aaaag
b101001011 aaaai

#121000
b10010001 aaaac
b110100000 aaaal

#122000
b10 aaaag
b101001100 aaaai

#123000
b10010010 aaaac
b110100001 aaaal

#124000
b111 aaaag
b101001101 aaaai

#125000
b10010011 aaaac
b110100010 aaaal

#126000
b101001110 aaaai

#127000
b10010100 aaaac
b110100011 aaaal

#128000
b11 aaaag
b101001111 aaaai

#129000
b10010101 aaaac
b110100100 aaaal

#130000
b1 aaaag
b101010000 aaaai

#131000
b10010110 aaaac
b110100101 aaaal

#132000
b11 aaaag
b101010001 aaaai

#133000
b10010111 aaaac
b110100110 aaaal

#134000
b1 aaaag
b101010010 aaaai

#135000
b10011000 aaaac
b110100111 aaaal

#136000
b101 aaaag
b101010011 aaaai

#137000
b10011001 aaaac
b110101000 aaaal

#138000
b100 aaaag
b101010100 aaaai

#139000
b10011010 aaaac
b110101001 aaaal

#140000
b101010101 aaaai

#141000
b10011011 aaaac
b110101010 aaaal

#142000
b111 aaaag
b101010110 aaaai

#143000
b10011100 aaaac
b110101011 aaaal

#144000
b10 aaaag
b101010111 aaaai

#145000
b10011101 aaaac
b110101100 aaaal

#146000
b11 aaaag
b101011000 aaaai

#147000
b10011110 aaaac
b110101101 aaaal

#148000
b0 aaaag
b101011001 aaaai

#149000
b10011111 aaaac
b11001000 aaaaf
b110101110 aaaal
1aaaan
1aaaar

#150000
b10 aaaag
b101011010 aaaai

#151000
b11001001 aaaaf
b110101111 aaaal
zaaaam
zaaaaq

#152000
b100 aaaag
b101011011 aaaai

#153000
b11001010 aaaaf
b110110000 aaaal

#154000
b10 aaaag
b101011100 aaaai

#155000
b11001011 aaaaf
b110110001 aaaal

#156000
b110 aaaag
b101011101 aaaai

#157000
b11001100 aaaaf
b110110010 aaaal

#158000
b100 aaaag
b101011110 aaaai

#159000
b11001101 aaaaf
b110110011 aaaal

#160000
bZZZZZZZZ aaaag
bZZZZZZZZZZ aaaai
zaaaao
zaaaas

#161000
b11001110 aaaaf
b110110100 aaaal

#163000
b11001111 aaaaf
b110110101 aaaal

#165000
b11010000 aaaaf
b110110110 aaaal

#167000
b11010001 aaaaf
zaaaap
zaaaat

#169000
b11010010 aaaaf

#171000
b11010011 aaaaf

#173000
b11010100 aaaaf

#175000
b11010101 aaaaf

#177000
b11010110 aaaaf

#179000
b11010111 aaaaf

#181000
b11011000 aaaaf

#182000
b1100100 aaaac
1aaaam
1aaaaq

#183000
b11011001 aaaaf

#184000
b1100101 aaaac

#185000
b11011010 aaaaf

#186000
b1100110 aaaac

#187000
b11011011 aaaaf

#188000
b1100111 aaaac

#189000
b11011100 aaaaf

#190000
b1101000 aaaac
b10 aaaag
b100101100 aaaai
1aaaao
0aaaas

#191000
b11011101 aaaaf

#192000
b1101001 aaaac
b100101101 aaaai

#193000
b11011110 aaaaf

#194000
b1101010 aaaac
b111 aaaag
b100101110 aaaai

#195000
b11011111 aaaaf

#196000
b1101011 aaaac
b0 aaaag
b100101111 aaaai

#197000
b11100000 aaaaf

#198000
b1101100 aaaac
b1 aaaag
b100110000 aaaai
b111 aaaak
b110010000 aaaal
1aaaap
1aaaat

#199000
b11100001 aaaaf

#200000
b1101101 aaaac
b101 aaaag
b100110001 aaaai
b10 aaaak
b110010001 aaaal

#201000
b11100010 aaaaf

#202000
b1101110 aaaac
b100 aaaag
b100110010 aaaai
b1 aaaak
b110010010 aaaal

#203000
b11100011 aaaaf

#204000
b1101111 aaaac
b11 aaaag
b100110011 aaaai
b111 aaaak
b110010011 aaaal

#205000
b11100100 aaaaf

#206000
b1110000 aaaac
b101 aaaag
b100110100 aaaai
b110010100 aaaal

#207000
b11100101 aaaaf

#208000
b1110001 aaaac
b100 aaaag
b100110101 aaaai
b110 aaaak
b110010101 aaaal

#209000
zaaaan
zaaaar

#210000
b1110010 aaaac
b101 aaaag
b100110110 aaaai
b0 aaaak
b110010110 aaaal

#212000
b1110011 aaaac
b1 aaaag
b100110111 aaaai
b1 aaaak
b110010111 aaaal

#214000
b1110100 aaaac
b10 aaaag
b100111000 aaaai
b100 aaaak
b110011000 aaaal

#216000
b1110101 aaaac
b100 aaaag
b100111001 aaaai
b11 aaaak
b110011001 aaaal

#218000
b1110110 aaaac
b11 aaaag
b100111010 aaaai
b10 aaaak
b110011010 aaaal

#220000
b1110111 aaaac
b100 aaaag
b100111011 aaaai
zaaaap
zaaaat

#222000
b1111000 aaaac
b10 aaaag
b100111100 aaaai

#224000
b1111001 aaaac
b100111101 aaaai

#226000
b1111010 aaaac
b111 aaaag
b100111110 aaaai

#228000
b1111011 aaaac
b1 aaaag
b100111111 aaaai

#230000
b1111100 aaaac
b111 aaaag
b101000000 aaaai

#232000
b1111101 aaaac
b0 aaaag
b101000001 aaaai

#234000
b1111110 aaaac
b111 aaaag
b101000010 aaaai

#236000
b1111111 aaaac
b10 aaaag
b101000011 aaaai

#238000
b111 aaaag
b101000100 aaaai
zaaaam
zaaaaq

#240000
b11001000 aaaaf
b110 aaaag
b101000101 aaaai
1aaaan
1aaaar

#242000
b11001001 aaaaf
b101 aaaag
b101000110 aaaai

#244000
b11001010 aaaaf
b100 aaaag
b101000111 aaaai

#246000
b11001011 aaaaf
b101001000 aaaai

#248000
b11001100 aaaaf
b11 aaaag
b101001001 aaaai

#250000
b11001101 aaaaf
b0 aaaag
b101001010 aaaai

#251000
b111 aaaak
b110010000 aaaal
1aaaap
1aaaat

#252000
b11001110 aaaaf
b11 aaaag
b101001011 aaaai

#253000
b10 aaaak
b110010001 aaaal

#254000
b11001111 aaaaf
b100 aaaag
b101001100 aaaai

#255000
b1 aaaak
b110010010 aaaal

#256000
b11010000 aaaaf
b101001101 aaaai

#257000
b111 aaaak
b110010011 aaaal

#258000
b11010001 aaaaf
b111 aaaag
b101001110 aaaai

#259000
b110010100 aaaal

#260000
b11010010 aaaaf
b100 aaaag
b101001111 aaaai

#261000
b110 aaaak
b110010101 aaaal

#262000
b11010011 aaaaf
b110 aaaag
b101010000 aaaai

#263000
b0 aaaak
b110010110 aaaal

#264000
b11010100 aaaaf
b101 aaaag
b101010001 aaaai

#265000
b1 aaaak
b110010111 aaaal

#266000
b11010101 aaaaf
b11 aaaag
b101010010 aaaai

#267000
b100 aaaak
b110011000 aaaal

#268000
b11010110 aaaaf
b101010011 aaaai

#269000
b11 aaaak
b110011001 aaaal

#270000
b11010111 aaaaf
b111 aaaag
b101010100 aaaai

#271000
b10 aaaak
b110011010 aaaal

#272000
b11011000 aaaaf
b110 aaaag
b101010101 aaaai

#273000
b101 aaaak
b110011011 aaaal

#274000
b101 aaaag
b101010110 aaaai
zaaaan
zaaaar

#275000
b10 aaaak
b110011100 aaaal

#276000
b111 aaaag
b101010111 aaaai

#277000
b0 aaaak
b110011101 aaaal

#278000
b100 aaaag
b101011000 aaaai

#279000
b110011110 aaaal

#280000
b111 aaaag
b101011001 aaaai

#281000
b110011111 aaaal

#282000
b0 aaaag
b101011010 aaaai

#283000
zaaaap
zaaaat

#284000
b11 aaaaa
b1100100 aaaac
bZZZZZZZZ aaaag
bZZZZZZZZZZ aaaai
1aaaam
zaaaao
0aaaaq
zaaaas

#286000
b1 aaaaa
b1100101 aaaac

#288000
b0 aaaaa
b1100110 aaaac

#290000
b101 aaaaa
b1100111 aaaac

#292000
b11 aaaaa
b1101000 aaaac

#294000
b110 aaaaa
b1101001 aaaac

#296000
b1 aaaaa
b1101010 aaaac

#298000
b10 aaaaa
b1101011 aaaac

#300000
b1 aaaaa
b1101100 aaaac

#302000
b111 aaaaa
b1101101 aaaac

#304000
b100 aaaaa
b1101110 aaaac

#306000
b1101111 aaaac

#308000
b1110000 aaaac

#310000
b11 aaaaa
b1110001 aaaac

#312000
b0 aaaaa
b1110010 aaaac

#314000
b100 aaaaa
b1110011 aaaac
b111 aaaak
b110010000 aaaal
1aaaap
1aaaat

#315000
b10 aaaah
b100101100 aaaai
1aaaao
1aaaas

#316000
b11 aaaaa
b1110100 aaaac
b10 aaaak
b110010001 aaaal

#317000
b100101101 aaaai

#318000
b101 aaaaa
b1110101 aaaac
b1 aaaak
b110010010 aaaal

#319000
b111 aaaah
b100101110 aaaai

#320000
b1 aaaaa
b1110110 aaaac
b111 aaaak
b110010011 aaaal

#321000
b0 aaaah
b100101111 aaaai

#322000
b101 aaaaa
b1110111 aaaac
b110010100 aaaal

#323000
b1 aaaah
b100110000 aaaai

#324000
b11 aaaaa
b1111000 aaaac
b110 aaaak
b110010101 aaaal

#325000
b101 aaaah
b100110001 aaaai

#326000
b1111001 aaaac
b0 aaaak
b110010110 aaaal

#327000
b100 aaaah
b100110010 aaaai

#328000
b100 aaaaa
b1111010 aaaac
b1 aaaak
b110010111 aaaal

#329000
b11 aaaah
b100110011 aaaai

#330000
b1 aaaaa
b1111011 aaaac
b100 aaaak
b110011000 aaaal

#331000
b101 aaaah
b100110100 aaaai

#332000
b101 aaaaa
b1111100 aaaac
b11 aaaak
b110011001 aaaal

#333000
b100 aaaah
b100110101 aaaai

#334000
b100 aaaaa
b1111101 aaaac
b10 aaaak
b110011010 aaaal

#335000
b101 aaaah
b100110110 aaaai

#336000
b1 aaaaa
b1111110 aaaac
b101 aaaak
b110011011 aaaal

#337000
b1 aaaah
b100110111 aaaai

#338000
b111 aaaaa
b1111111 aaaac
b10 aaaak
b110011100 aaaal

#339000
b10 aaaah
b100111000 aaaai

#340000
b0 aaaaa
b10000000 aaaac
b0 aaaak
b110011101 aaaal

#341000
b100 aaaah
b100111001 aaaai

#342000
b101 aaaaa
b10000001 aaaac
b110011110 aaaal

#343000
b11 aaaah
b100111010 aaaai

#344000
b10 aaaaa
b10000010 aaaac
b110011111 aaaal

#345000
b100 aaaah
b100111011 aaaai

#346000
b100 aaaaa
b10000011 aaaac
b110100000 aaaal

#347000
b10 aaaah
b100111100 aaaai

#348000
b11 aaaaa
b10000100 aaaac
b110100001 aaaal

#349000
b100111101 aaaai

#350000
b110 aaaaa
b10000101 aaaac
b110100010 aaaal

#351000
b111 aaaah
b100111110 aaaai

#352000
b11 aaaaa
b10000110 aaaac
b110100011 aaaal

#353000
b1 aaaah
b100111111 aaaai

#354000
b1 aaaaa
b10000111 aaaac
b110100100 aaaal

#355000
b111 aaaah
b101000000 aaaai

#356000
b110 aaaaa
b10001000 aaaac
b110100101 aaaal

#357000
b0 aaaah
b101000001 aaaai

#358000
b0 aaaaa
b10001001 aaaac
b110100110 aaaal

#359000
b111 aaaah
b101000010 aaaai

#360000
b11 aaaaa
b10001010 aaaac
b110100111 aaaal

#361000
b10 aaaah
b101000011 aaaai

#362000
b10001011 aaaac
b110101000 aaaal

#363000
b111 aaaah
b101000100 aaaai

#364000
b1 aaaaa
b10001100 aaaac
b110101001 aaaal

#365000
b110 aaaah
b101000101 aaaai

#366000
b10 aaaaa
b10001101 aaaac
b110101010 aaaal

#367000
b101 aaaah
b101000110 aaaai

#368000
b10001110 aaaac
b110101011 aaaal

#369000
b100 aaaah
b101000111 aaaai

#370000
b0 aaaaa
b10001111 aaaac
b110101100 aaaal

#371000
b101001000 aaaai

#372000
b100 aaaaa
b10010000 aaaac
b110101101 aaaal

#373000
b11 aaaah
b101001001 aaaai

#374000
b101 aaaaa
b10010001 aaaac
b110101110 aaaal

#375000
b0 aaaah
b101001010 aaaai

#376000
b11 aaaaa
b10010010 aaaac
b110101111 aaaal

#377000
b11 aaaah
b101001011 aaaai

#378000
b0 aaaaa
b10010011 aaaac
b110110000 aaaal

#379000
b100 aaaah
b101001100 aaaai

#380000
b1 aaaaa
b10010100 aaaac
b110110001 aaaal

#381000
b101001101 aaaai

#382000
b100 aaaaa
b10010101 aaaac
b110110010 aaaal

#383000
b111 aaaah
b101001110 aaaai

#384000
b10010110 aaaac
b110110011 aaaal

#385000
b100 aaaah
b101001111 aaaai

#386000
b10 aaaaa
b10010111 aaaac
b110110100 aaaal

#387000
b110 aaaah
b101010000 aaaai

#388000
b111 aaaaa
b10011000 aaaac
b110110101 aaaal

#389000
b101 aaaah
b101010001 aaaai

#390000
b0 aaaaa
b10011001 aaaac
b110110110 aaaal

#391000
b11 aaaah
b101010010 aaaai

#392000
b11 aaaaa
b10011010 aaaac
b110110111 aaaal

#393000
zaaaao
zaaaas

#394000
bZZZZZZZZ aaaaa
bZZZZZZZZZZ aaaac
b1 aaaad
b11001000 aaaaf
b110111000 aaaal
zaaaam
1aaaan
zaaaaq
0aaaar

#396000
b0 aaaad
b11001001 aaaaf
b110111001 aaaal

#398000
b100 aaaad
b11001010 aaaaf
b110111010 aaaal

#400000
b11 aaaad
b11001011 aaaaf
b110111011 aaaal

#402000
b1 aaaad
b11001100 aaaaf
b110111100 aaaal

#404000
b101 aaaad
b11001101 aaaaf
b110111101 aaaal

#406000
b111 aaaad
b11001110 aaaaf
b110111110 aaaal

#408000
b11 aaaad
b11001111 aaaaf
b110111111 aaaal

#410000
b11010000 aaaaf
b111000000 aaaal

#412000
b111 aaaad
b11010001 aaaaf
b111000001 aaaal

#414000
b0 aaaad
b11010010 aaaaf
b111000010 aaaal

#416000
b101 aaaad
b11010011 aaaaf
b111000011 aaaal

#418000
b110 aaaad
b11010100 aaaaf
zaaaap
zaaaat

#420000
b0 aaaad
b11010101 aaaaf

#422000
b11010110 aaaaf

#424000
b111 aaaad
b11010111 aaaaf

#426000
b101 aaaad
b11011000 aaaaf

#428000
b11011001 aaaaf

#430000
b11 aaaad
b11011010 aaaaf

#432000
b101 aaaad
b11011011 aaaaf

#434000
b11011100 aaaaf

#436000
b10 aaaad
b11011101 aaaaf

#438000
b11011110 aaaaf

#440000
b100 aaaad
b11011111 aaaaf

#442000
bZZZZZZZZ aaaad
bZZZZZZZZZZ aaaaf
b110 aaaag
b100101100 aaaai
zaaaan
1aaaao
zaaaar
0aaaas

#444000
b1 aaaag
b100101101 aaaai

#446000
b100101110 aaaai

#448000
b10 aaaag
b100101111 aaaai

#449000
b111 aaaak
b110010000 aaaal
1aaaap
1aaaat

#450000
b101 aaaag
b100110000 aaaai

#451000
b10 aaaak
b110010001 aaaal

#452000
b110 aaaag
b100110001 aaaai

#453000
b1 aaaak
b110010010 aaaal

#454000
b0 aaaag
b100110010 aaaai

#455000
b111 aaaak
b110010011 aaaal

#456000
b101 aaaag
b100110011 aaaai

#457000
b110010100 aaaal

#458000
b0 aaaag
b100110100 aaaai

#459000
b110 aaaak
b110010101 aaaal

#460000
b100 aaaag
b100110101 aaaai

#461000
b0 aaaak
b110010110 aaaal

#462000
b101 aaaag
b100110110 aaaai

#463000
b1 aaaak
b110010111 aaaal

#464000
b10 aaaag
b100110111 aaaai

#465000
b100 aaaak
b110011000 aaaal

#466000
b100111000 aaaai

#467000
b11 aaaak
b110011001 aaaal

#468000
b1 aaaag
b100111001 aaaai

#469000
b10 aaaak
b110011010 aaaal

#470000
b110 aaaag
b100111010 aaaai

#471000
b101 aaaak
b110011011 aaaal

#472000
b1 aaaag
b100111011 aaaai

#473000
b10 aaaak
b110011100 aaaal

#474000
b100 aaaag
b100111100 aaaai

#475000
b0 aaaak
b110011101 aaaal

#476000
b0 aaaag
b100111101 aaaai

#477000
b110011110 aaaal

#478000
b1 aaaag
b100111110 aaaai

#479000
b110011111 aaaal

#480000
b100 aaaag
b100111111 aaaai

#481000
b110100000 aaaal

#482000
b101 aaaag
b101000000 aaaai

#483000
b110100001 aaaal

#484000
b110 aaaag
b101000001 aaaai

#485000
b110100010 aaaal

#486000
b10 aaaag
b101000010 aaaai

#487000
b110100011 aaaal

#488000
b0 aaaag
b101000011 aaaai

#489000
b110100100 aaaal

#490000
b11 aaaag
b101000100 aaaai

#491000
b110100101 aaaal

#492000
b100 aaaag
b101000101 aaaai

#493000
b110100110 aaaal

#494000
b1 aaaag
b101000110 aaaai

#495000
b110100111 aaaal

#496000
b0 aaaag
b101000111 aaaai

#497000
b110101000 aaaal

#498000
b101 aaaag
b101001000 aaaai

#499000
b110101001 aaaal

#500000
b110 aaaag
b101001001 aaaai

#501000
b110101010 aaaal

#502000
b111 aaaag
b101001010 aaaai

#503000
b110101011 aaaal

#504000
b100 aaaag
b101001011 aaaai

#505000
b110101100 aaaal

#506000
b101001100 aaaai

#507000
b110101101 aaaal

#508000
b11 aaaag
b101001101 aaaai

#509000
b110101110 aaaal

#510000
b101001110 aaaai

#511000
b110101111 aaaal

#512000
b101001111 aaaai

#513000
b110110000 aaaal

#514000
b110 aaaag
b101010000 aaaai

#515000
b110110001 aaaal

#516000
b111 aaaag
b101010001 aaaai

#517000
b110110010 aaaal

#518000
b0 aaaag
b101010010 aaaai

#519000
b110110011 aaaal

#520000
b101 aaaag
b101010011 aaaai

#521000
b110110100 aaaal

#522000
b101010100 aaaai

#523000
b110110101 aaaal

#524000
b101010101 aaaai

#525000
b110110110 aaaal

#526000
b1 aaaag
b101010110 aaaai

#527000
b110110111 aaaal

#528000
b100 aaaag
b101010111 aaaai

#529000
b110111000 aaaal

#530000
b11 aaaaa
b1100100 aaaac
bZZZZZZZZ aaaag
bZZZZZZZZZZ aaaai
1aaaam
zaaaao
0aaaaq
zaaaas

#531000
b110111001 aaaal

#532000
b100 aaaaa
b1100101 aaaac

#533000
b110111010 aaaal

#534000
b111 aaaaa
b1100110 aaaac

#535000
b110111011 aaaal

#536000
b1100111 aaaac

#537000
b110111100 aaaal

#538000
b11 aaaaa
b1101000 aaaac

#539000
b110111101 aaaal

#540000
b0 aaaaa
b1101001 aaaac

#541000
b110111110 aaaal

#542000
b1 aaaaa
b1101010 aaaac

#543000
b110111111 aaaal

#544000
b10 aaaaa
b1101011 aaaac

#545000
b111000000 aaaal

#546000
b1101100 aaaac

#547000
zaaaap
zaaaat

#548000
b0 aaaaa
b1101101 aaaac

#550000
b10 aaaaa
b1101110 aaaac

#552000
b101 aaaaa
b1101111 aaaac

#554000
b11 aaaaa
b1110000 aaaac

#556000
b10 aaaaa
b1110001 aaaac

#558000
b100 aaaaa
b1110010 aaaac

#560000
b11 aaaaa
b1110011 aaaac

#561000
b110 aaaah
b100101100 aaaai
1aaaao
1aaaas

#562000
b111 aaaaa
b1110100 aaaac

#563000
b1 aaaah
b100101101 aaaai

#564000
b11 aaaaa
b1110101 aaaac

#565000
b100101110 aaaai

#566000
b100 aaaaa
b1110110 aaaac

#567000
b10 aaaah
b100101111 aaaai

#568000
b1110111 aaaac

#569000
b101 aaaah
b100110000 aaaai

#570000
b10 aaaaa
b1111000 aaaac

#571000
b110 aaaah
b100110001 aaaai

#572000
b110 aaaaa
b1111001 aaaac

#573000
b0 aaaah
b100110010 aaaai

#574000
b1111010 aaaac

#575000
b101 aaaah
b100110011 aaaai

#576000
b100 aaaaa
b1111011 aaaac

#577000
b0 aaaah
b100110100 aaaai

#578000
b111 aaaaa
b1111100 aaaac
b111 aaaak
b110010000 aaaal
1aaaap
1aaaat

#579000
b100 aaaah
b100110101 aaaai

#580000
b100 aaaaa
b1111101 aaaac
zaaaap
zaaaat

#581000
b101 aaaah
b100110110 aaaai

#582000
b10 aaaaa
b1111110 aaaac

#583000
b10 aaaah
b100110111 aaaai

#584000
b101 aaaaa
b1111111 aaaac

#585000
b100111000 aaaai

#586000
b11 aaaaa
b10000000 aaaac

#587000
b1 aaaah
b100111001 aaaai

#588000
b100 aaaaa
b10000001 aaaac

#589000
b110 aaaah
b100111010 aaaai

#590000
b101 aaaaa
b10000010 aaaac

#591000
b1 aaaah
b100111011 aaaai

#592000
b11 aaaaa
b10000011 aaaac

#593000
b100 aaaah
b100111100 aaaai

#594000
b0 aaaaa
b10000100 aaaac

#595000
b0 aaaah
b100111101 aaaai

#596000
b101 aaaaa
b10000101 aaaac

#597000
b1 aaaah
b100111110 aaaai

#598000
b10 aaaaa
b10000110 aaaac

#599000
b100 aaaah
b100111111 aaaai

#600000
b0 aaaaa
b10000111 aaaac

#601000
b101 aaaah
b101000000 aaaai

#602000
b10001000 aaaac

#603000
b110 aaaah
b101000001 aaaai

#604000
b10 aaaaa
b10001001 aaaac

#605000
b10 aaaah
b101000010 aaaai

#606000
b10001010 aaaac

#607000
b0 aaaah
b101000011 aaaai

#608000
bZZZZZZZZ aaaaa
bZZZZZZZZZZ aaaac
b0 aaaad
b11001000 aaaaf
zaaaam
1aaaan
zaaaaq
0aaaar

#609000
b11 aaaah
b101000100 aaaai

#610000
b11001001 aaaaf

#611000
b100 aaaah
b101000101 aaaai
1aaaap
1aaaat

#612000
b110 aaaad
b11001010 aaaaf

#613000
b1 aaaah
b101000110 aaaai
b10 aaaak
b110010001 aaaal

#614000
b0 aaaad
b11001011 aaaaf

#615000
b0 aaaah
b101000111 aaaai
b1 aaaak
b110010010 aaaal

#616000
b10 aaaad
b11001100 aaaaf

#617000
b101 aaaah
b101001000 aaaai
b111 aaaak
b110010011 aaaal

#618000
b11 aaaad
b11001101 aaaaf

#619000
b110 aaaah
b101001001 aaaai
b110010100 aaaal

#620000
b101 aaaad
b11001110 aaaaf

#621000
b111 aaaah
b101001010 aaaai
b110 aaaak
b110010101 aaaal

#622000
b10 aaaad
b11001111 aaaaf

#623000
b100 aaaah
b101001011 aaaai
b0 aaaak
b110010110 aaaal

#624000
b1 aaaad
b11010000 aaaaf

#625000
b101001100 aaaai
b1 aaaak
b110010111 aaaal

#626000
b111 aaaad
b11010001 aaaaf

#627000
b11 aaaah
b101001101 aaaai
b100 aaaak
b110011000 aaaal

#628000
b110 aaaad
b11010010 aaaaf

#629000
b101001110 aaaai
b11 aaaak
b110011001 aaaal

#630000
b101 aaaad
b11010011 aaaaf

#631000
b101001111 aaaai
b10 aaaak
b110011010 aaaal

#632000
b10 aaaad
b11010100 aaaaf

#633000
b110 aaaah
b101010000 aaaai
b101 aaaak
b110011011 aaaal

#634000
bZZZZZZZZ aaaad
bZZZZZZZZZZ aaaaf
zaaaan
zaaaar

#635000
b111 aaaah
b101010001 aaaai
b10 aaaak
b110011100 aaaal

#637000
b0 aaaah
b101010010 aaaai
b0 aaaak
b110011101 aaaal

#638000
b101 aaaaa
b1100100 aaaac
1aaaam
0aaaaq

#639000
b101 aaaah
b101010011 aaaai
b110011110 aaaal

#640000
b10 aaaaa
b1100101 aaaac

#641000
b101010100 aaaai
b110011111 aaaal

#642000
b1100110 aaaac

#643000
b101010101 aaaai
b110100000 aaaal

#644000
b111 aaaaa
b1100111 aaaac

#645000
b1 aaaah
b101010110 aaaai
b110100001 aaaal

#646000
b1101000 aaaac

#647000
b100 aaaah
b101010111 aaaai
b110100010 aaaal

#648000
b101 aaaaa
b1101001 aaaac

#649000
b101011000 aaaai
b110100011 aaaal

#650000
b111 aaaaa
b1101010 aaaac

#651000
b111 aaaah
b101011001 aaaai
b110100100 aaaal

#652000
b110 aaaaa
b1101011 aaaac

#653000
b0 aaaah
b101011010 aaaai
b110100101 aaaal

#654000
b1101100 aaaac

#655000
b100 aaaah
b101011011 aaaai
b110100110 aaaal

#656000
b1 aaaaa
b1101101 aaaac

#657000
b10 aaaah
b101011100 aaaai
b110100111 aaaal

#658000
b10 aaaaa
b1101110 aaaac

#659000
b110101000 aaaal
zaaaao
zaaaas

#660000
b1 aaaaa
b1101111 aaaac

#661000
b110101001 aaaal

#662000
b0 aaaaa
b1110000 aaaac

#663000
b110101010 aaaal

#664000
b110 aaaaa
b1110001 aaaac

#665000
b110101011 aaaal

#666000
b10 aaaaa
b1110010 aaaac

#667000
b110101100 aaaal

#668000
b110 aaaaa
b1110011 aaaac

#669000
b110101101 aaaal

